{
  "files": [],
  "title": "Make glass-like beams",
  "time": "< 1 week",
  "_deleted": false,
  "cover_image": {
    "timeCreated": "2019-09-18T14:49:47.542Z",
    "downloadUrl": "https://firebasestorage.googleapis.com/v0/b/onearmyworld.appspot.com/o/uploads%2Fv2_howtos%2F2XnZ8QCPx4QAfmy0w8Sc%2Fhowto-beams-glass-0-3.jpg?alt=media&token=dac7ce07-e62c-47e1-b2d0-fe1ff23c27e9",
    "name": "howto-beams-glass-0-3.jpg",
    "updated": "2019-09-18T14:49:47.542Z",
    "size": 36389,
    "contentType": "image/jpeg",
    "type": "image/jpeg",
    "fullPath": "uploads/v2_howtos/2XnZ8QCPx4QAfmy0w8Sc/howto-beams-glass-0-3.jpg"
  },
  "slug": "make-glass-like-beams",
  "tags": [
    "PS",
    "melting",
    "extrusion"
  ],
  "_createdBy": "precious-plastic",
  "moderation": "accepted",
  "_created": "2019-09-18T14:49:54.311Z",
  "difficulty_level": "Easy",
  "creatorCountry": "fr",
  "description": "Creating with recycled plastic offers a big variety of colours and transparencies.\nIn this how-to we will show how you can transform discarded Polystyrene into a beam with a glass like colour and finish. ",
  "steps": [
    {
      "caption": "",
      "_animationKey": "unique1",
      "title": "Get ready",
      "images": [
        {
          "timeCreated": "2019-09-18T14:49:48.549Z",
          "contentType": "image/jpeg",
          "type": "image/jpeg",
          "name": "howto-beams-glass-1-1.jpg",
          "downloadUrl": "https://firebasestorage.googleapis.com/v0/b/onearmyworld.appspot.com/o/uploads%2Fv2_howtos%2F2XnZ8QCPx4QAfmy0w8Sc%2Fhowto-beams-glass-1-1.jpg?alt=media&token=c66886e7-0df4-4283-a2cd-a3ea07583b7d",
          "fullPath": "uploads/v2_howtos/2XnZ8QCPx4QAfmy0w8Sc/howto-beams-glass-1-1.jpg",
          "updated": "2019-09-18T14:49:48.549Z",
          "size": 37180
        }
      ],
      "text": "Alright so before starting, here some basics to check out and prepare first.\n\nFor this technique you will need:\nMachines: Shredder (or already shredded plastic), Extrusion machine, Oven\nTools: Scissors / Knife, Pliers, Weighing scales and two containers, Silicone oil, Clamps, Spanner\nMaterials: Polystyrene and pigment\n\nIf you haven't extruded beams before, learn more in the How-to \"Make a mould for beams\".\n(https://community.preciousplastic.com/how-to/make-a-mould-for-extruding-beams)"
    },
    {
      "text": "When melting plastic, bad fumes can be released. In order to work safer, make sure to use a breathing mask with ABEK filters to prevent inhaling possibly toxic fumes. Special attention on plastics like PS (polystyrene) and PVC. Also when handling with heated elements and plastic we recommend to wear working gloves.\n\nRecommended safety equipment: ABEK mask, gloves and glasses",
      "title": "Stay safe",
      "caption": "",
      "_animationKey": "unique2",
      "images": [
        {
          "contentType": "image/jpeg",
          "updated": "2019-09-18T14:49:49.221Z",
          "fullPath": "uploads/v2_howtos/2XnZ8QCPx4QAfmy0w8Sc/howto-beams-glass-2.JPG",
          "size": 41370,
          "name": "howto-beams-glass-2.JPG",
          "type": "image/jpeg",
          "downloadUrl": "https://firebasestorage.googleapis.com/v0/b/onearmyworld.appspot.com/o/uploads%2Fv2_howtos%2F2XnZ8QCPx4QAfmy0w8Sc%2Fhowto-beams-glass-2.JPG?alt=media&token=bb367d73-2729-4282-88d7-2463555971c2",
          "timeCreated": "2019-09-18T14:49:49.221Z"
        }
      ]
    },
    {
      "caption": "",
      "images": [
        {
          "contentType": "image/jpeg",
          "size": 18632,
          "type": "image/jpeg",
          "downloadUrl": "https://firebasestorage.googleapis.com/v0/b/onearmyworld.appspot.com/o/uploads%2Fv2_howtos%2F2XnZ8QCPx4QAfmy0w8Sc%2Fhowto-beams-glass-3.jpg?alt=media&token=ea20fd22-829f-4d6e-b8c6-1e0e7ede0d18",
          "updated": "2019-09-18T14:49:50.164Z",
          "fullPath": "uploads/v2_howtos/2XnZ8QCPx4QAfmy0w8Sc/howto-beams-glass-3.jpg",
          "name": "howto-beams-glass-3.jpg",
          "timeCreated": "2019-09-18T14:49:50.164Z"
        }
      ],
      "_animationKey": "unique3",
      "title": "Prepare your polystyrene",
      "text": "Selecting the right material is crucial when it comes to aesthetics. What properties does the material have, what colour is it? \nAs PS stays transparent in the recycling process, it has the perfect quality to make a light. Collect your clean PS, which is typically found in old CD and cassette cases. Make sure to shred enough, the required amount will vary depending on the size of your mould."
    },
    {
      "images": [
        {
          "timeCreated": "2019-09-18T14:49:51.011Z",
          "type": "image/jpeg",
          "name": "howto-beams-glass-4-1.jpg",
          "size": 19683,
          "downloadUrl": "https://firebasestorage.googleapis.com/v0/b/onearmyworld.appspot.com/o/uploads%2Fv2_howtos%2F2XnZ8QCPx4QAfmy0w8Sc%2Fhowto-beams-glass-4-1.jpg?alt=media&token=d5a33ab4-f374-4544-be7c-b84c85a5b839",
          "contentType": "image/jpeg",
          "fullPath": "uploads/v2_howtos/2XnZ8QCPx4QAfmy0w8Sc/howto-beams-glass-4-1.jpg",
          "updated": "2019-09-18T14:49:51.011Z"
        },
        {
          "size": 16274,
          "updated": "2019-09-18T14:49:51.031Z",
          "downloadUrl": "https://firebasestorage.googleapis.com/v0/b/onearmyworld.appspot.com/o/uploads%2Fv2_howtos%2F2XnZ8QCPx4QAfmy0w8Sc%2Fhowto-beams-glass-4-2.jpg?alt=media&token=079135cc-dad0-42b4-b1e7-34e395a3309f",
          "type": "image/jpeg",
          "name": "howto-beams-glass-4-2.jpg",
          "contentType": "image/jpeg",
          "timeCreated": "2019-09-18T14:49:51.031Z",
          "fullPath": "uploads/v2_howtos/2XnZ8QCPx4QAfmy0w8Sc/howto-beams-glass-4-2.jpg"
        }
      ],
      "text": "Now we use pigment to add colour to the transparent polystyrene. You can find it online (search for 'pigment for polystyrene'), but do check out if you can find it in a local shop. Using pigment has the advantage that it keeps the translucency of your material. If you only have access to coloured PS plastic, you will probably not get the same effect (unless the plastic is also translucent), so this will need some testing.\nStart by cutting one pellet of pigment into smaller pieces. The pigment we use (___) has a really strong affect so you only need a small amount to mix with.",
      "_animationKey": "unique91268a",
      "title": "Prepare your colour"
    },
    {
      "_animationKey": "unique38n4yc",
      "title": "Weigh your quantities",
      "text": "Controlling your quantities is important to get your desired colour and effect. You can weigh a piece of a previously made beam to get an idea of the required total weight.\nWeighing out the quantities of your materials into separate containers will enable you to have more control of your result.\n\nIn the next steps we will show the mixtures and results of two processes:\nMixing clear PS with pure pigment (Step 7)\nMixing clear PS with a PS-pigment-mix (Step 8)",
      "images": [
        {
          "size": 21913,
          "timeCreated": "2019-09-18T14:49:51.903Z",
          "downloadUrl": "https://firebasestorage.googleapis.com/v0/b/onearmyworld.appspot.com/o/uploads%2Fv2_howtos%2F2XnZ8QCPx4QAfmy0w8Sc%2Fhowto-beams-glass-5.jpg?alt=media&token=79603e1b-7610-4748-ba09-e7b0d4d8428c",
          "updated": "2019-09-18T14:49:51.903Z",
          "fullPath": "uploads/v2_howtos/2XnZ8QCPx4QAfmy0w8Sc/howto-beams-glass-5.jpg",
          "type": "image/jpeg",
          "name": "howto-beams-glass-5.jpg",
          "contentType": "image/jpeg"
        }
      ]
    },
    {
      "_animationKey": "uniquemfu8k",
      "images": [
        {
          "name": "howto-beams-glass-6.jpg",
          "updated": "2019-09-18T14:49:52.999Z",
          "contentType": "image/jpeg",
          "downloadUrl": "https://firebasestorage.googleapis.com/v0/b/onearmyworld.appspot.com/o/uploads%2Fv2_howtos%2F2XnZ8QCPx4QAfmy0w8Sc%2Fhowto-beams-glass-6.jpg?alt=media&token=c267e65a-eeae-41d4-9a25-19c4f1eef89a",
          "size": 28324,
          "timeCreated": "2019-09-18T14:49:52.999Z",
          "fullPath": "uploads/v2_howtos/2XnZ8QCPx4QAfmy0w8Sc/howto-beams-glass-6.jpg",
          "type": "image/jpeg"
        }
      ],
      "title": "Get ready for extruding",
      "text": "Alright, let’s get everything ready to melt! \nFirst, turn on the extruder and set the temperature to 230°C. \nAnd then there are a few tricks to prepare your mould for a smoother process and outcome. We recommend to coat the inside of the mould with silicone oil to help getting the beam out of the mould after it cooled down. And in order to achieve a smooth material surface it helps to heat up your mould with a heat gun or warm it up in an oven for around __ minutes before attaching it to the preheated extruder."
    },
    {
      "title": "Extrude (1) - Concentrated colours",
      "_animationKey": "uniqueylmwv",
      "images": [
        {
          "fullPath": "uploads/v2_howtos/2XnZ8QCPx4QAfmy0w8Sc/howto-beams-glass-6-1.jpg",
          "size": 20060,
          "contentType": "image/jpeg",
          "timeCreated": "2019-09-18T14:49:53.578Z",
          "type": "image/jpeg",
          "downloadUrl": "https://firebasestorage.googleapis.com/v0/b/onearmyworld.appspot.com/o/uploads%2Fv2_howtos%2F2XnZ8QCPx4QAfmy0w8Sc%2Fhowto-beams-glass-6-1.jpg?alt=media&token=19d8e104-cb20-4d54-8d0c-3f7cf3218162",
          "updated": "2019-09-18T14:49:53.578Z",
          "name": "howto-beams-glass-6-1.jpg"
        },
        {
          "contentType": "image/jpeg",
          "fullPath": "uploads/v2_howtos/2XnZ8QCPx4QAfmy0w8Sc/howto-beams-glass-6-2.jpg",
          "type": "image/jpeg",
          "updated": "2019-09-18T14:49:53.747Z",
          "downloadUrl": "https://firebasestorage.googleapis.com/v0/b/onearmyworld.appspot.com/o/uploads%2Fv2_howtos%2F2XnZ8QCPx4QAfmy0w8Sc%2Fhowto-beams-glass-6-2.jpg?alt=media&token=a3d86815-59b9-4a68-a877-25f7232629af",
          "name": "howto-beams-glass-6-2.jpg",
          "timeCreated": "2019-09-18T14:49:53.747Z",
          "size": 37183
        },
        {
          "downloadUrl": "https://firebasestorage.googleapis.com/v0/b/onearmyworld.appspot.com/o/uploads%2Fv2_howtos%2F2XnZ8QCPx4QAfmy0w8Sc%2Fhowto-beams-glass-6-3.jpg?alt=media&token=1ed048ff-dac2-4b16-bd67-05e230471531",
          "size": 31384,
          "timeCreated": "2019-09-18T14:49:53.804Z",
          "fullPath": "uploads/v2_howtos/2XnZ8QCPx4QAfmy0w8Sc/howto-beams-glass-6-3.jpg",
          "updated": "2019-09-18T14:49:53.804Z",
          "type": "image/jpeg",
          "contentType": "image/jpeg",
          "name": "howto-beams-glass-6-3.jpg"
        }
      ],
      "text": "Time to melt!\nMixture: 95% clear PS, 5% blue cut-up pigment\n\nPut your clean PS in your extruder hopper and sprinkle the smashed pigment in evenly. Do not add all of your mix in at once, gradually sprinkle making sure there’s enough mixture in the hopper. Keep an eye on the other end of the mould and stop the extruder as soon as you see material approach the end.\n\nIt will come out as a strong concentrated colour. To create a cloudy pastel colour, we will mix this material again in a further process (Step 8).\n\nNote: Collect your excess material and squish it flat before it hardens, so it will be easier to shred it again for further processes. "
    },
    {
      "images": [
        {
          "type": "image/jpeg",
          "updated": "2019-09-18T14:49:54.393Z",
          "name": "howto-beams-glass-8-1.jpg",
          "downloadUrl": "https://firebasestorage.googleapis.com/v0/b/onearmyworld.appspot.com/o/uploads%2Fv2_howtos%2F2XnZ8QCPx4QAfmy0w8Sc%2Fhowto-beams-glass-8-1.jpg?alt=media&token=bbbf15b8-675c-4f74-bb5d-b687ee00fe9c",
          "contentType": "image/jpeg",
          "timeCreated": "2019-09-18T14:49:54.393Z",
          "size": 49065,
          "fullPath": "uploads/v2_howtos/2XnZ8QCPx4QAfmy0w8Sc/howto-beams-glass-8-1.jpg"
        },
        {
          "updated": "2019-09-18T14:49:54.400Z",
          "downloadUrl": "https://firebasestorage.googleapis.com/v0/b/onearmyworld.appspot.com/o/uploads%2Fv2_howtos%2F2XnZ8QCPx4QAfmy0w8Sc%2Fhowto-beams-glass-8-2.jpg?alt=media&token=9a06f9ae-a51f-4a2f-8c6b-27fcaa4c64e8",
          "size": 26059,
          "name": "howto-beams-glass-8-2.jpg",
          "contentType": "image/jpeg",
          "type": "image/jpeg",
          "fullPath": "uploads/v2_howtos/2XnZ8QCPx4QAfmy0w8Sc/howto-beams-glass-8-2.jpg",
          "timeCreated": "2019-09-18T14:49:54.400Z"
        },
        {
          "contentType": "image/jpeg",
          "fullPath": "uploads/v2_howtos/2XnZ8QCPx4QAfmy0w8Sc/howto-beams-glass-8-3.jpg",
          "downloadUrl": "https://firebasestorage.googleapis.com/v0/b/onearmyworld.appspot.com/o/uploads%2Fv2_howtos%2F2XnZ8QCPx4QAfmy0w8Sc%2Fhowto-beams-glass-8-3.jpg?alt=media&token=446e2a5e-583d-4fb2-aef8-539a76cc0c00",
          "timeCreated": "2019-09-18T14:49:54.456Z",
          "size": 27651,
          "updated": "2019-09-18T14:49:54.456Z",
          "type": "image/jpeg",
          "name": "howto-beams-glass-8-3.jpg"
        }
      ],
      "title": "Extrude (2) - Cloudy colours",
      "text": "Now we use the re-shredded excess material from the previous process which makes the colour more cloudy. In this example we used the following mixture:\nMixture: 70% clear PS, 30% shredded PS-pigment-mix\n\nStart by putting your clear PS into the extruder followed by the PS-pigment-mix. You can experiment with adding more colour by putting pigment back into this mixture to create dynamic colour tones and patterns.\n\nP.S. Keep collecting your left over material to melt it again, this is the stuff that will make your material glass-like.",
      "_animationKey": "uniquehj42fe"
    },
    {
      "images": [
        {
          "type": "image/jpeg",
          "downloadUrl": "https://firebasestorage.googleapis.com/v0/b/onearmyworld.appspot.com/o/uploads%2Fv2_howtos%2F2XnZ8QCPx4QAfmy0w8Sc%2Fhowto-beams-glass-9-1.jpg?alt=media&token=dec17dba-37a5-4ac8-918e-6419564cbf07",
          "contentType": "image/jpeg",
          "updated": "2019-09-18T14:49:55.030Z",
          "name": "howto-beams-glass-9-1.jpg",
          "fullPath": "uploads/v2_howtos/2XnZ8QCPx4QAfmy0w8Sc/howto-beams-glass-9-1.jpg",
          "size": 32852,
          "timeCreated": "2019-09-18T14:49:55.030Z"
        },
        {
          "fullPath": "uploads/v2_howtos/2XnZ8QCPx4QAfmy0w8Sc/howto-beams-glass-9-2.jpg",
          "timeCreated": "2019-09-18T14:49:55.052Z",
          "contentType": "image/jpeg",
          "size": 13354,
          "type": "image/jpeg",
          "name": "howto-beams-glass-9-2.jpg",
          "downloadUrl": "https://firebasestorage.googleapis.com/v0/b/onearmyworld.appspot.com/o/uploads%2Fv2_howtos%2F2XnZ8QCPx4QAfmy0w8Sc%2Fhowto-beams-glass-9-2.jpg?alt=media&token=d0b1a5e5-da95-4345-bba0-5bccea46db20",
          "updated": "2019-09-18T14:49:55.052Z"
        }
      ],
      "title": "Explore the possibilities!",
      "_animationKey": "uniquemjlfze",
      "text": "Et voilá , this is how you create beams and materials with magical colours, transparencies and patterns. As the mixing process is hard to control, achieving exactly the same outcome is unrealistic. But the beauty of melting plastic this way is that each piece will be unique! The transparency of PS offers itself perfectly for lighting, like shown in our how-to \"Make a lamp from PS\".\n\nBut the further possibilities of this material can be taken into many other directions.\nHave fun exploring!"
    }
  ],
  "_id": "2XnZ8QCPx4QAfmy0w8Sc",
  "_modified": "2021-03-03T22:25:35.691Z"
}