{
  "_created": "2020-05-15T10:05:20.546Z",
  "tags": [
    "hack",
    "mould",
    "injection"
  ],
  "moderation": "accepted",
  "_id": "Rd2ttpr81R8Hv0g7Nse7",
  "steps": [
    {
      "text": "We are adding a part to an existing mould. In this example we use the hexagon tile mould. It's a simple 3 part flat mould held together with boults. Outer size : 15 x 15 cm. The top and bottom plate are 10mm, the center part with hexagon cutout is 4mm.\n\nWe will describe how to do lasercutting and CNC milling. For acces to a lasercutter/cnc milling device you can check with your local Fablab/makerspace, sometimes even high schools or universities.\n\nFor the lasercut add ons we use 4mm acrylic plates (15 x15cm).\nFor the CNC we used 3mm aluminium plates (15 x 15cm).\n",
      "title": "Have a mould",
      "images": [
        {
          "downloadUrl": "https://firebasestorage.googleapis.com/v0/b/onearmyworld.appspot.com/o/uploads%2Fv3_howtos%2FRd2ttpr81R8Hv0g7Nse7%2FScreenshot%202020-02-01%20at%2015.28.06.png?alt=media&token=1d714437-cf5d-4936-9e8d-b139d247029a",
          "fullPath": "uploads/v3_howtos/Rd2ttpr81R8Hv0g7Nse7/Screenshot 2020-02-01 at 15.28.06.png",
          "size": 103263,
          "type": "image/jpeg",
          "updated": "2020-05-15T10:09:20.902Z",
          "name": "Screenshot 2020-02-01 at 15.28.06.png",
          "timeCreated": "2020-05-15T10:09:20.902Z",
          "contentType": "image/jpeg"
        },
        {
          "type": "image/jpeg",
          "downloadUrl": "https://firebasestorage.googleapis.com/v0/b/onearmyworld.appspot.com/o/uploads%2Fv3_howtos%2FRd2ttpr81R8Hv0g7Nse7%2FIMG_5319%20copy.jpg?alt=media&token=03ff9ae8-ff0e-42f6-9ce2-24869d6cbbe7",
          "timeCreated": "2020-05-15T10:05:10.939Z",
          "updated": "2020-05-15T10:05:10.939Z",
          "size": 334247,
          "contentType": "image/jpeg",
          "fullPath": "uploads/v3_howtos/Rd2ttpr81R8Hv0g7Nse7/IMG_5319 copy.jpg",
          "name": "IMG_5319 copy.jpg"
        }
      ],
      "_animationKey": "unique3"
    },
    {
      "text": "We used software to create different patterns. Make sure the text is mirrored as we are producing a negative. Depending on the technique used you might need a specific export format.\n\nYou can add information (plastic type, production info) as you wish.\n\nWith lasecutting there is virtually no limit in shapes you can cut. Do mind that smaller detail is harder to inject. In our experience 2-3mm is possible with HDPE injection. \n\nWhen CNC milling the limit is set by the router bit. As it cuts by turning all corners are smoothed out by the diameter of the router bit. Check the limit of the machine you are using. We used a 1mm router bit. \n",
      "images": [
        {
          "fullPath": "uploads/v3_howtos/Rd2ttpr81R8Hv0g7Nse7/sheeponweels-injection-mould-1-1.jpg",
          "updated": "2020-05-25T13:06:26.956Z",
          "downloadUrl": "https://firebasestorage.googleapis.com/v0/b/onearmyworld.appspot.com/o/uploads%2Fv3_howtos%2FRd2ttpr81R8Hv0g7Nse7%2Fsheeponweels-injection-mould-1-1.jpg?alt=media&token=5d02debb-3d20-4ff4-8adf-d124ee16a452",
          "size": 91337,
          "name": "sheeponweels-injection-mould-1-1.jpg",
          "type": "image/jpeg",
          "contentType": "image/jpeg",
          "timeCreated": "2020-05-25T13:06:26.956Z"
        },
        {
          "updated": "2020-05-25T13:06:26.802Z",
          "type": "image/jpeg",
          "size": 119425,
          "name": "sheeponweels-injection-mould-1-2.jpg",
          "contentType": "image/jpeg",
          "fullPath": "uploads/v3_howtos/Rd2ttpr81R8Hv0g7Nse7/sheeponweels-injection-mould-1-2.jpg",
          "timeCreated": "2020-05-25T13:06:26.802Z",
          "downloadUrl": "https://firebasestorage.googleapis.com/v0/b/onearmyworld.appspot.com/o/uploads%2Fv3_howtos%2FRd2ttpr81R8Hv0g7Nse7%2Fsheeponweels-injection-mould-1-2.jpg?alt=media&token=d3dce7e3-8f04-4ad0-84f7-add84970112b"
        }
      ],
      "title": "Design a pattern",
      "_animationKey": "unique1"
    },
    {
      "images": [
        {
          "type": "image/jpeg",
          "name": "Screenshot 2020-05-15 at 11.34.57.png",
          "timeCreated": "2020-05-15T10:05:14.176Z",
          "contentType": "image/jpeg",
          "fullPath": "uploads/v3_howtos/Rd2ttpr81R8Hv0g7Nse7/Screenshot 2020-05-15 at 11.34.57.png",
          "size": 90705,
          "updated": "2020-05-15T10:05:14.176Z",
          "downloadUrl": "https://firebasestorage.googleapis.com/v0/b/onearmyworld.appspot.com/o/uploads%2Fv3_howtos%2FRd2ttpr81R8Hv0g7Nse7%2FScreenshot%202020-05-15%20at%2011.34.57.png?alt=media&token=22033370-79a0-4b54-88d6-b63e1b3ee29c"
        }
      ],
      "title": "Create a compatible file ",
      "text": "When lasercutting a 2D file is sufficient. Some software allows to use PNG, AI or other files. \n\nWhen CNC milling a 3D file is needed. Using software like Fusion 360 you can change your vector file into a 3D shape.\n\nIn our example we've set the cutting depth to 1.5mm.\n\n",
      "_animationKey": "unique2"
    },
    {
      "title": "Lasercut",
      "text": "Depending on the type of cutter used settings will differ. \n\nBest is to do some test cuts first, changing the speed and intensity of the laser. Acrylic is safe to ut but does smell so dust extraction is advised. \n\nMake sure the pattern is not cut trough the acrylic plate as it will weaken the texture mould and make it less durable (although its possible for some shapes).\n\nMake sure the edges are cut through to prevent having to drill and cut manually later on in the proces. \n\nYou can use multiple depths in one mould by assigning different settings to the cutting lines. ",
      "images": [
        {
          "fullPath": "uploads/v3_howtos/Rd2ttpr81R8Hv0g7Nse7/sheeponweels-injection-mould-4.jpg",
          "type": "image/jpeg",
          "timeCreated": "2020-05-25T13:07:30.558Z",
          "updated": "2020-05-25T13:07:30.558Z",
          "name": "sheeponweels-injection-mould-4.jpg",
          "downloadUrl": "https://firebasestorage.googleapis.com/v0/b/onearmyworld.appspot.com/o/uploads%2Fv3_howtos%2FRd2ttpr81R8Hv0g7Nse7%2Fsheeponweels-injection-mould-4.jpg?alt=media&token=752fa3e4-f51e-433a-96ac-7b8ea66b34ca",
          "size": 151942,
          "contentType": "image/jpeg"
        },
        {
          "fullPath": "uploads/v3_howtos/Rd2ttpr81R8Hv0g7Nse7/sheeponweels-injection-mould-8.jpg",
          "name": "sheeponweels-injection-mould-8.jpg",
          "downloadUrl": "https://firebasestorage.googleapis.com/v0/b/onearmyworld.appspot.com/o/uploads%2Fv3_howtos%2FRd2ttpr81R8Hv0g7Nse7%2Fsheeponweels-injection-mould-8.jpg?alt=media&token=65e79456-d15b-4247-9912-e8d8c486675d",
          "updated": "2020-05-25T13:07:30.782Z",
          "size": 150816,
          "type": "image/jpeg",
          "timeCreated": "2020-05-25T13:07:30.782Z",
          "contentType": "image/jpeg"
        },
        {
          "contentType": "image/jpeg",
          "type": "image/jpeg",
          "timeCreated": "2020-05-15T10:05:16.322Z",
          "name": "IMG_5703 copy.jpg",
          "downloadUrl": "https://firebasestorage.googleapis.com/v0/b/onearmyworld.appspot.com/o/uploads%2Fv3_howtos%2FRd2ttpr81R8Hv0g7Nse7%2FIMG_5703%20copy.jpg?alt=media&token=37966069-db08-4a8b-bf9c-e22871eed0d0",
          "fullPath": "uploads/v3_howtos/Rd2ttpr81R8Hv0g7Nse7/IMG_5703 copy.jpg",
          "updated": "2020-05-15T10:05:16.322Z",
          "size": 584755
        }
      ],
      "_animationKey": "uniqueohlo3h"
    },
    {
      "_animationKey": "unique93jmt",
      "images": [
        {
          "updated": "2020-05-25T13:07:31.938Z",
          "name": "sheeponweels-injection-mould-5-1.jpg",
          "contentType": "image/jpeg",
          "type": "image/jpeg",
          "timeCreated": "2020-05-25T13:07:31.938Z",
          "size": 79466,
          "downloadUrl": "https://firebasestorage.googleapis.com/v0/b/onearmyworld.appspot.com/o/uploads%2Fv3_howtos%2FRd2ttpr81R8Hv0g7Nse7%2Fsheeponweels-injection-mould-5-1.jpg?alt=media&token=b5aada0b-4bb8-40b3-8d62-b332c54521d5",
          "fullPath": "uploads/v3_howtos/Rd2ttpr81R8Hv0g7Nse7/sheeponweels-injection-mould-5-1.jpg"
        },
        {
          "name": "sheeponweels-injection-mould-5-2.jpg",
          "type": "image/jpeg",
          "fullPath": "uploads/v3_howtos/Rd2ttpr81R8Hv0g7Nse7/sheeponweels-injection-mould-5-2.jpg",
          "timeCreated": "2020-05-25T13:07:32.002Z",
          "downloadUrl": "https://firebasestorage.googleapis.com/v0/b/onearmyworld.appspot.com/o/uploads%2Fv3_howtos%2FRd2ttpr81R8Hv0g7Nse7%2Fsheeponweels-injection-mould-5-2.jpg?alt=media&token=f24395ba-d63f-4deb-892d-778ef4e6e478",
          "size": 110352,
          "contentType": "image/jpeg",
          "updated": "2020-05-25T13:07:32.002Z"
        }
      ],
      "text": "Run the file through the software, clamp the material in place and start milling.  \n\nAgain it is wise to do some speed tests first. ",
      "title": "CNC milling"
    },
    {
      "title": "Inject",
      "text": "Add the texture plate to the mould and start injecting. \n\nBest results when cooling down the mould quickly.\n\n",
      "_animationKey": "uniquebit9wr",
      "images": [
        {
          "size": 396533,
          "timeCreated": "2020-05-15T10:09:24.593Z",
          "type": "image/jpeg",
          "updated": "2020-05-15T10:09:24.593Z",
          "name": "IMG_5014 copy.jpg",
          "contentType": "image/jpeg",
          "downloadUrl": "https://firebasestorage.googleapis.com/v0/b/onearmyworld.appspot.com/o/uploads%2Fv3_howtos%2FRd2ttpr81R8Hv0g7Nse7%2FIMG_5014%20copy.jpg?alt=media&token=09cf6c69-309c-46f3-b326-777e99e118de",
          "fullPath": "uploads/v3_howtos/Rd2ttpr81R8Hv0g7Nse7/IMG_5014 copy.jpg"
        },
        {
          "downloadUrl": "https://firebasestorage.googleapis.com/v0/b/onearmyworld.appspot.com/o/uploads%2Fv3_howtos%2FRd2ttpr81R8Hv0g7Nse7%2Fsheeponweels-injection-mould-6.jpg?alt=media&token=1b7d022c-d92d-4523-9898-1e507123a0f8",
          "fullPath": "uploads/v3_howtos/Rd2ttpr81R8Hv0g7Nse7/sheeponweels-injection-mould-6.jpg",
          "updated": "2020-05-25T13:07:33.216Z",
          "contentType": "image/jpeg",
          "name": "sheeponweels-injection-mould-6.jpg",
          "type": "image/jpeg",
          "size": 157419,
          "timeCreated": "2020-05-25T13:07:33.216Z"
        }
      ]
    }
  ],
  "slug": "add-interchangable-patterns-to-injection-moulds",
  "files": [],
  "_createdBy": "sheep-on-wheels",
  "description": "Using lasercut, cnc milled or handmade plates you can add interchangable text or patterns to injection mould products. Add plastic types or logo's to the products.",
  "difficulty_level": "Medium",
  "_modified": "2020-06-07T14:14:27.029Z",
  "cover_image": {
    "downloadUrl": "https://firebasestorage.googleapis.com/v0/b/onearmyworld.appspot.com/o/uploads%2Fv3_howtos%2FRd2ttpr81R8Hv0g7Nse7%2FLuminus-Sheep-on-wheels-2.jpg?alt=media&token=3d8f4bfd-1955-44f7-850c-9e8a7fcfb9c2",
    "timeCreated": "2020-06-03T13:46:03.772Z",
    "name": "Luminus-Sheep-on-wheels-2.jpg",
    "contentType": "image/jpeg",
    "type": "image/jpeg",
    "size": 108053,
    "fullPath": "uploads/v3_howtos/Rd2ttpr81R8Hv0g7Nse7/Luminus-Sheep-on-wheels-2.jpg",
    "updated": "2020-06-03T13:46:03.772Z"
  },
  "title": "Add interchangable patterns to injection moulds",
  "time": "< 1 week",
  "_deleted": false
}