{
  "creatorCountry": "nl",
  "description": "We have used the sheetpress as a tool for bending plastic sheets, solid surface materials or even extruded beams. The process is quite simple but might require some preparation to get the best results. Below are the steps taken to do this, although there is still room for further improvements!  \n\nTools needed:\n-\tSheet press\n-\tSome kind of mould\n-\tClamps\n",
  "steps": [
    {
      "title": "Make a mould",
      "text": "To have a consistent result it's best to use a mould for the bending. For bigger projects, sharp corners or intricate shapes a counter mould is recommended! This ensures the sheets is pushed in the right shape.\n\nIt’s also important to keep in mind where the clamps will be placed so make sure there is space for the clamps to grab on to.",
      "_animationKey": "unique1",
      "images": [
        {
          "fullPath": "uploads/howtos/BwTSaRaM99e4OiVTxucu/IMG_6196 2.jpg",
          "contentType": "image/jpeg",
          "timeCreated": "2020-10-29T14:01:10.639Z",
          "downloadUrl": "https://firebasestorage.googleapis.com/v0/b/onearmyworld.appspot.com/o/uploads%2Fhowtos%2FBwTSaRaM99e4OiVTxucu%2FIMG_6196%202.jpg?alt=media&token=38b8efe8-5909-4633-a11f-97428b76df77",
          "name": "IMG_6196 2.jpg",
          "type": "image/jpeg",
          "updated": "2020-10-29T14:01:10.639Z",
          "size": 218073
        },
        {
          "size": 192724,
          "type": "image/jpeg",
          "downloadUrl": "https://firebasestorage.googleapis.com/v0/b/onearmyworld.appspot.com/o/uploads%2Fhowtos%2FBwTSaRaM99e4OiVTxucu%2Fbuig.jpg?alt=media&token=1cc69d7a-6b7b-46da-924d-61e241c1f05b",
          "name": "buig.jpg",
          "contentType": "image/jpeg",
          "fullPath": "uploads/howtos/BwTSaRaM99e4OiVTxucu/buig.jpg",
          "updated": "2020-10-29T14:01:10.543Z",
          "timeCreated": "2020-10-29T14:01:10.543Z"
        }
      ]
    },
    {
      "text": "The next step is to decide on temperature and timing. \n\nThe right temperature depends on the plastic type and thickness. You can check in between to see if it bends far enough or experiment with smaller pieces before starting with bigger sheets.\n\nBelow are some of the settings we have worked with.\n\n",
      "title": "Temperature and timing",
      "_animationKey": "unique2",
      "images": [
        {
          "updated": "2020-10-29T14:01:13.012Z",
          "name": "Schermafbeelding 2020-10-29 om 14.55.03.png",
          "timeCreated": "2020-10-29T14:01:13.012Z",
          "fullPath": "uploads/howtos/BwTSaRaM99e4OiVTxucu/Schermafbeelding 2020-10-29 om 14.55.03.png",
          "size": 84837,
          "downloadUrl": "https://firebasestorage.googleapis.com/v0/b/onearmyworld.appspot.com/o/uploads%2Fhowtos%2FBwTSaRaM99e4OiVTxucu%2FSchermafbeelding%202020-10-29%20om%2014.55.03.png?alt=media&token=f29410cf-2699-4896-85e9-870c20c8ffa0",
          "type": "image/jpeg",
          "contentType": "image/jpeg"
        },
        {
          "timeCreated": "2020-10-29T14:01:12.179Z",
          "contentType": "image/jpeg",
          "size": 34280,
          "type": "image/jpeg",
          "fullPath": "uploads/howtos/BwTSaRaM99e4OiVTxucu/Schermafbeelding 2020-10-29 om 14.56.11.png",
          "downloadUrl": "https://firebasestorage.googleapis.com/v0/b/onearmyworld.appspot.com/o/uploads%2Fhowtos%2FBwTSaRaM99e4OiVTxucu%2FSchermafbeelding%202020-10-29%20om%2014.56.11.png?alt=media&token=b69ad7b2-a417-4a33-bb61-57b1292ce088",
          "name": "Schermafbeelding 2020-10-29 om 14.56.11.png",
          "updated": "2020-10-29T14:01:12.179Z"
        }
      ]
    },
    {
      "_animationKey": "unique3",
      "text": "We placed the plastic on top of a 3mm sheet of mdf to make sure it doesn’t stick to the press. Once the sheet is in place move the bottom bed to the top so it’s almost closed (see picture). A distance of 1 cm should be ok.\n\nIt is also possible to bend sheets larger than the sheetpress, as long as the bended part fits the press (second image is a 2x1 sheet).",
      "title": "Place in the Sheetpress",
      "images": [
        {
          "size": 96766,
          "contentType": "image/jpeg",
          "updated": "2020-10-28T09:10:08.029Z",
          "timeCreated": "2020-10-28T09:10:08.029Z",
          "type": "image/jpeg",
          "downloadUrl": "https://firebasestorage.googleapis.com/v0/b/onearmyworld.appspot.com/o/uploads%2Fhowtos%2FBwTSaRaM99e4OiVTxucu%2FIMG_6405.jpg?alt=media&token=88e1e4f7-38e3-455d-99fc-d9c3ec9392be",
          "name": "IMG_6405.jpg",
          "fullPath": "uploads/howtos/BwTSaRaM99e4OiVTxucu/IMG_6405.jpg"
        },
        {
          "contentType": "image/jpeg",
          "updated": "2020-10-29T14:01:15.527Z",
          "type": "image/jpeg",
          "timeCreated": "2020-10-29T14:01:15.527Z",
          "fullPath": "uploads/howtos/BwTSaRaM99e4OiVTxucu/WhatsApp Image 2020-10-29 at 09.30.44.jpeg",
          "size": 174920,
          "name": "WhatsApp Image 2020-10-29 at 09.30.44.jpeg",
          "downloadUrl": "https://firebasestorage.googleapis.com/v0/b/onearmyworld.appspot.com/o/uploads%2Fhowtos%2FBwTSaRaM99e4OiVTxucu%2FWhatsApp%20Image%202020-10-29%20at%2009.30.44.jpeg?alt=media&token=1ce6d180-49a9-4c30-902c-25543228bd3d"
        }
      ]
    },
    {
      "text": "After heating up the sheets sufficiently it is time to move it to the mould. This requires some fast handling, since it quickly cools down again. Be sure to have all the clamps within reach! It also helps to do this with two persons. ",
      "images": [
        {
          "size": 183348,
          "name": "20200720_113045.jpg",
          "fullPath": "uploads/howtos/BwTSaRaM99e4OiVTxucu/20200720_113045.jpg",
          "contentType": "image/jpeg",
          "updated": "2020-10-29T14:01:20.755Z",
          "type": "image/jpeg",
          "downloadUrl": "https://firebasestorage.googleapis.com/v0/b/onearmyworld.appspot.com/o/uploads%2Fhowtos%2FBwTSaRaM99e4OiVTxucu%2F20200720_113045.jpg?alt=media&token=6cbff5f6-625c-4209-a3e4-481d11fbff9a",
          "timeCreated": "2020-10-29T14:01:20.755Z"
        },
        {
          "fullPath": "uploads/howtos/BwTSaRaM99e4OiVTxucu/WhatsApp Image 2020-10-29 at 09.31.41.jpeg",
          "type": "image/jpeg",
          "timeCreated": "2020-10-29T14:01:19.760Z",
          "updated": "2020-10-29T14:01:19.760Z",
          "contentType": "image/jpeg",
          "downloadUrl": "https://firebasestorage.googleapis.com/v0/b/onearmyworld.appspot.com/o/uploads%2Fhowtos%2FBwTSaRaM99e4OiVTxucu%2FWhatsApp%20Image%202020-10-29%20at%2009.31.41.jpeg?alt=media&token=a9dad432-500d-4d52-8087-7ae3bea125c8",
          "name": "WhatsApp Image 2020-10-29 at 09.31.41.jpeg",
          "size": 145118
        },
        {
          "downloadUrl": "https://firebasestorage.googleapis.com/v0/b/onearmyworld.appspot.com/o/uploads%2Fhowtos%2FBwTSaRaM99e4OiVTxucu%2FIMG_6204.jpg?alt=media&token=dfbf0b32-6ea7-4458-afb2-b0a476b16e37",
          "size": 173594,
          "timeCreated": "2020-10-29T14:01:20.879Z",
          "name": "IMG_6204.jpg",
          "contentType": "image/jpeg",
          "fullPath": "uploads/howtos/BwTSaRaM99e4OiVTxucu/IMG_6204.jpg",
          "type": "image/jpeg",
          "updated": "2020-10-29T14:01:20.879Z"
        }
      ],
      "_animationKey": "uniquechktx",
      "title": "Bend the sheets!"
    }
  ],
  "moderation": "accepted",
  "slug": "bend-with-the-sheetpress",
  "_id": "BwTSaRaM99e4OiVTxucu",
  "difficulty_level": "Medium",
  "title": "Bend with the Sheetpress",
  "time": "< 5 hours",
  "files": [],
  "_deleted": false,
  "_createdBy": "fiction-factory",
  "_created": "2020-10-27T20:15:44.547Z",
  "_modified": "2020-11-24T16:37:25.223Z",
  "tags": [
    "melting",
    "sheetpress"
  ],
  "cover_image": {
    "name": "fictionfactory.jpg",
    "contentType": "image/jpeg",
    "updated": "2020-11-24T16:35:39.706Z",
    "size": 316096,
    "downloadUrl": "https://firebasestorage.googleapis.com/v0/b/onearmyworld.appspot.com/o/uploads%2Fhowtos%2FBwTSaRaM99e4OiVTxucu%2Ffictionfactory.jpg?alt=media&token=72e6bcda-6b3f-4dd7-8d2b-60cfe820512e",
    "fullPath": "uploads/howtos/BwTSaRaM99e4OiVTxucu/fictionfactory.jpg",
    "type": "image/jpeg",
    "timeCreated": "2020-11-24T16:35:39.706Z"
  }
}