﻿"Symbol";"Value";"Unit";
"REFERENCE";"30204";"";
"DIAMETER";"20";"";
"TraceParts.PartVersion";"1.0.2";"";
"SUPPLIER";"PRUD'HOMME TRANSMISSIONS";"";
"WIDTH";"15,25";"";
"TraceParts.PartStatus";"Published";"";
"TraceParts.PartNumber";"10-29112017-100426";"";
"TraceParts.PartLanguage";"fr";"";
"DESIGN";"Roulements à rouleaux coniques - 30204";"";
"TraceParts.InstanceId";"10-29112017-1004268YXHTZ36V0JBAQEVBO5TETEJ3";"";
"TraceParts.PartTitle";"Roulements à rouleaux coniques - 30200";"";
"TRACEPARTS";"TRACEPARTS";"";
"TraceParts.PartStatusId";"";"";
"OUTER_DIAMETER";"47";"";
"TraceParts.ClassPath";"PRUDHOMME:10-29112017-100426";"";
