﻿"Symbol";"Value";"Unit";
"REFERENCE";"DIN 6921 - d M12 x p 1.25 x l 50 - 12.9";"";
"MATERIAL";"Steel";"";
"TraceParts.PartStatus";"Published";"";
"TraceParts.PartNumber";"10-16072008-124074";"";
"STANDARD";"DIN 6921";"";
"DESIGN";"Hexagon head bolt DIN 6921 - M12 - M12 x 1.25 x 50 - 12.9";"";
"TraceParts.InstanceId";"10-16072008-1240741PNESZKD9GZJ20Q59KXC4RA1L";"";
"TraceParts.PartLanguage";"en";"";
"TraceParts.PartTitle";"Hexagon flange bolts DIN 6921";"";
"OMNICLASS23";"23.13.23.11.13";"";
"TraceParts.PartVersion";"1.3.9";"";
"TRACEPARTS";"TRACEPARTS";"";
"TraceParts.PartStatusId";"";"";
"TraceParts.ClassPath";"DIN:10-16072008-124074";"";
"TraceParts.PartStandardAcronym";"DIN";"";
