  0
SECTION
  2
HEADER
  9
$ACADVER
  1
AC1015
  9
$ACADMAINTVER
 70
     6
  9
$DWGCODEPAGE
  3
ANSI_1252
  9
$INSBASE
 10
0.0
 20
0.0
 30
0.0
  9
$EXTMIN
 10
-313.568475187
 20
-0.1826011622
 30
0.0
  9
$EXTMAX
 10
0.1542432294
 20
395.0000000001
 30
0.0
  9
$LIMMIN
 10
0.0
 20
0.0
  9
$LIMMAX
 10
420.0
 20
297.0
  9
$ORTHOMODE
 70
     0
  9
$REGENMODE
 70
     1
  9
$FILLMODE
 70
     1
  9
$QTEXTMODE
 70
     0
  9
$MIRRTEXT
 70
     1
  9
$LTSCALE
 40
1.0
  9
$ATTMODE
 70
     1
  9
$TEXTSIZE
 40
3.5
  9
$TRACEWID
 40
1.0
  9
$TEXTSTYLE
  7
Standard
  9
$CLAYER
  8
0
  9
$CELTYPE
  6
ByLayer
  9
$CECOLOR
 62
   256
  9
$CELTSCALE
 40
1.0
  9
$DISPSILH
 70
     0
  9
$DIMSCALE
 40
1.0
  9
$DIMASZ
 40
3.302
  9
$DIMEXO
 40
1.0
  9
$DIMDLI
 40
3.75
  9
$DIMRND
 40
0.0
  9
$DIMDLE
 40
0.0
  9
$DIMEXE
 40
1.0
  9
$DIMTP
 40
0.0
  9
$DIMTM
 40
0.0
  9
$DIMTXT
 40
3.5
  9
$DIMCEN
 40
2.5
  9
$DIMTSZ
 40
0.0
  9
$DIMTOL
 70
     0
  9
$DIMLIM
 70
     0
  9
$DIMTIH
 70
     1
  9
$DIMTOH
 70
     1
  9
$DIMSE1
 70
     0
  9
$DIMSE2
 70
     0
  9
$DIMTAD
 70
     1
  9
$DIMZIN
 70
     1
  9
$DIMBLK
  1

  9
$DIMASO
 70
     1
  9
$DIMSHO
 70
     1
  9
$DIMPOST
  1

  9
$DIMAPOST
  1

  9
$DIMALT
 70
     0
  9
$DIMALTD
 70
     3
  9
$DIMALTF
 40
0.0393700787
  9
$DIMLFAC
 40
1.0
  9
$DIMTOFL
 70
     1
  9
$DIMTVP
 40
0.0
  9
$DIMTIX
 70
     0
  9
$DIMSOXD
 70
     0
  9
$DIMSAH
 70
     0
  9
$DIMBLK1
  1

  9
$DIMBLK2
  1

  9
$DIMSTYLE
  2
ISO-25
  9
$DIMCLRD
 70
     0
  9
$DIMCLRE
 70
     0
  9
$DIMCLRT
 70
     0
  9
$DIMTFAC
 40
1.0
  9
$DIMGAP
 40
1.524
  9
$DIMJUST
 70
     0
  9
$DIMSD1
 70
     0
  9
$DIMSD2
 70
     0
  9
$DIMTOLJ
 70
     0
  9
$DIMTZIN
 70
     1
  9
$DIMALTZ
 70
     0
  9
$DIMALTTZ
 70
     0
  9
$DIMUPT
 70
     0
  9
$DIMDEC
 70
     2
  9
$DIMTDEC
 70
     2
  9
$DIMALTU
 70
     2
  9
$DIMALTTD
 70
     3
  9
$DIMTXSTY
  7
Standard
  9
$DIMAUNIT
 70
     0
  9
$DIMADEC
 70
     2
  9
$DIMALTRND
 40
0.0
  9
$DIMAZIN
 70
     0
  9
$DIMDSEP
 70
    44
  9
$DIMATFIT
 70
     3
  9
$DIMFRAC
 70
     0
  9
$DIMLDRBLK
  1

  9
$DIMLUNIT
 70
     2
  9
$DIMLWD
 70
    -2
  9
$DIMLWE
 70
    -2
  9
$DIMTMOVE
 70
     0
  9
$LUNITS
 70
     2
  9
$LUPREC
 70
     2
  9
$SKETCHINC
 40
1.0
  9
$FILLETRAD
 40
10.0
  9
$AUNITS
 70
     0
  9
$AUPREC
 70
     2
  9
$MENU
  1
.
  9
$ELEVATION
 40
0.0
  9
$PELEVATION
 40
0.0
  9
$THICKNESS
 40
0.0
  9
$LIMCHECK
 70
     0
  9
$CHAMFERA
 40
0.0
  9
$CHAMFERB
 40
0.0
  9
$CHAMFERC
 40
0.0
  9
$CHAMFERD
 40
0.0
  9
$SKPOLY
 70
     0
  9
$TDCREATE
 40
2459240.00268147
  9
$TDUCREATE
 40
2459239.961014803
  9
$TDUPDATE
 40
2459240.002706585
  9
$TDUUPDATE
 40
2459239.961039919
  9
$TDINDWG
 40
0.0000000116
  9
$TDUSRTIMER
 40
0.0000000116
  9
$USRTIMER
 70
     1
  9
$ANGBASE
 50
0.0
  9
$ANGDIR
 70
     0
  9
$PDMODE
 70
     0
  9
$PDSIZE
 40
-1.0
  9
$PLINEWID
 40
0.0
  9
$SPLFRAME
 70
     0
  9
$SPLINETYPE
 70
     6
  9
$SPLINESEGS
 70
     8
  9
$HANDSEED
  5
7F
  9
$SURFTAB1
 70
     6
  9
$SURFTAB2
 70
     6
  9
$SURFTYPE
 70
     6
  9
$SURFU
 70
     6
  9
$SURFV
 70
     6
  9
$UCSBASE
  2

  9
$UCSNAME
  2

  9
$UCSORG
 10
0.0
 20
0.0
 30
0.0
  9
$UCSXDIR
 10
1.0
 20
0.0
 30
0.0
  9
$UCSYDIR
 10
0.0
 20
1.0
 30
0.0
  9
$UCSORTHOREF
  2

  9
$UCSORTHOVIEW
 70
     0
  9
$UCSORGTOP
 10
0.0
 20
0.0
 30
0.0
  9
$UCSORGBOTTOM
 10
0.0
 20
0.0
 30
0.0
  9
$UCSORGLEFT
 10
0.0
 20
0.0
 30
0.0
  9
$UCSORGRIGHT
 10
0.0
 20
0.0
 30
0.0
  9
$UCSORGFRONT
 10
0.0
 20
0.0
 30
0.0
  9
$UCSORGBACK
 10
0.0
 20
0.0
 30
0.0
  9
$PUCSBASE
  2

  9
$PUCSNAME
  2

  9
$PUCSORG
 10
0.0
 20
0.0
 30
0.0
  9
$PUCSXDIR
 10
1.0
 20
0.0
 30
0.0
  9
$PUCSYDIR
 10
0.0
 20
1.0
 30
0.0
  9
$PUCSORTHOREF
  2

  9
$PUCSORTHOVIEW
 70
     0
  9
$PUCSORGTOP
 10
0.0
 20
0.0
 30
0.0
  9
$PUCSORGBOTTOM
 10
0.0
 20
0.0
 30
0.0
  9
$PUCSORGLEFT
 10
0.0
 20
0.0
 30
0.0
  9
$PUCSORGRIGHT
 10
0.0
 20
0.0
 30
0.0
  9
$PUCSORGFRONT
 10
0.0
 20
0.0
 30
0.0
  9
$PUCSORGBACK
 10
0.0
 20
0.0
 30
0.0
  9
$USERI1
 70
     0
  9
$USERI2
 70
     0
  9
$USERI3
 70
     0
  9
$USERI4
 70
     0
  9
$USERI5
 70
     0
  9
$USERR1
 40
0.0
  9
$USERR2
 40
0.0
  9
$USERR3
 40
0.0
  9
$USERR4
 40
0.0
  9
$USERR5
 40
0.0
  9
$WORLDVIEW
 70
     1
  9
$SHADEDGE
 70
     3
  9
$SHADEDIF
 70
    70
  9
$TILEMODE
 70
     1
  9
$MAXACTVP
 70
    64
  9
$PINSBASE
 10
0.0
 20
0.0
 30
0.0
  9
$PLIMCHECK
 70
     0
  9
$PEXTMIN
 10
1.0000000000E+20
 20
1.0000000000E+20
 30
1.0000000000E+20
  9
$PEXTMAX
 10
-1.0000000000E+20
 20
-1.0000000000E+20
 30
-1.0000000000E+20
  9
$PLIMMIN
 10
0.0
 20
0.0
  9
$PLIMMAX
 10
420.0
 20
297.0
  9
$UNITMODE
 70
     0
  9
$VISRETAIN
 70
     1
  9
$PLINEGEN
 70
     0
  9
$PSLTSCALE
 70
     1
  9
$TREEDEPTH
 70
  3020
  9
$CMLSTYLE
  2
Standard
  9
$CMLJUST
 70
     0
  9
$CMLSCALE
 40
20.0
  9
$PROXYGRAPHICS
 70
     1
  9
$MEASUREMENT
 70
     1
  9
$CELWEIGHT
370
    -1
  9
$ENDCAPS
280
     0
  9
$JOINSTYLE
280
     0
  9
$LWDISPLAY
290
     1
  9
$INSUNITS
 70
     4
  9
$HYPERLINKBASE
  1

  9
$STYLESHEET
  1

  9
$XEDIT
290
     1
  9
$CEPSNTYPE
380
     0
  9
$PSTYLEMODE
290
     1
  9
$FINGERPRINTGUID
  2
{22c647cd-f37c-47d4-a30c-fc8c12b11fa8}
  9
$VERSIONGUID
  2
{FAEB1C32-E019-11D5-929B-00C0DF256EC4}
  9
$EXTNAMES
290
     1
  9
$PSVPSCALE
 40
0.0
  9
$OLESTARTUP
290
     0
  0
ENDSEC
  0
SECTION
  2
CLASSES
  0
CLASS
  1
ACDBDICTIONARYWDFLT
  2
AcDbDictionaryWithDefault
  3
ObjectDBX Classes
 90
        0
280
     0
281
     0
  0
CLASS
  1
VISUALSTYLE
  2
AcDbVisualStyle
  3
ObjectDBX Classes
 90
     4095
280
     0
281
     0
  0
CLASS
  1
MATERIAL
  2
AcDbMaterial
  3
ObjectDBX Classes
 90
     1153
280
     0
281
     0
  0
CLASS
  1
SCALE
  2
AcDbScale
  3
ObjectDBX Classes
 90
     1153
280
     0
281
     0
  0
CLASS
  1
TABLESTYLE
  2
AcDbTableStyle
  3
ObjectDBX Classes
 90
     4095
280
     0
281
     0
  0
CLASS
  1
MLEADERSTYLE
  2
AcDbMLeaderStyle
  3
ACDB_MLEADERSTYLE_CLASS
 90
     4095
280
     0
281
     0
  0
CLASS
  1
SUN
  2
AcDbSun
  3
SCENEOE
 90
     1153
280
     0
281
     0
  0
CLASS
  1
ACDBPLACEHOLDER
  2
AcDbPlaceHolder
  3
ObjectDBX Classes
 90
        0
280
     0
281
     0
  0
CLASS
  1
LAYOUT
  2
AcDbLayout
  3
ObjectDBX Classes
 90
        0
280
     0
281
     0
  0
ENDSEC
  0
SECTION
  2
TABLES
  0
TABLE
  2
VPORT
  5
8
330
0
100
AcDbSymbolTable
 70
     1
  0
VPORT
  5
29
330
8
100
AcDbSymbolTableRecord
100
AcDbViewportTableRecord
  2
*Active
 70
     0
 10
0.0
 20
0.0
 11
1.0
 21
1.0
 12
-156.7071159788
 22
197.4086994189
 13
0.0
 23
0.0
 14
10.0
 24
10.0
 15
10.0
 25
10.0
 16
0.0
 26
0.0
 36
1.0
 17
0.0
 27
0.0
 37
0.0
 40
403.0862531855
 41
0.7938677399
 42
50.0
 43
0.0
 44
0.0
 50
0.0
 51
0.0
 71
     0
 72
   100
 73
     1
 74
     3
 75
     0
 76
     0
 77
     0
 78
     0
281
     0
 65
     1
110
0.0
120
0.0
130
0.0
111
1.0
121
0.0
131
0.0
112
0.0
122
1.0
132
0.0
 79
     0
146
0.0
  0
ENDTAB
  0
TABLE
  2
LTYPE
  5
5
330
0
100
AcDbSymbolTable
 70
     6
  0
LTYPE
  5
14
330
5
100
AcDbSymbolTableRecord
100
AcDbLinetypeTableRecord
  2
ByBlock
 70
     0
  3

 72
    65
 73
     0
 40
0.0
  0
LTYPE
  5
15
330
5
100
AcDbSymbolTableRecord
100
AcDbLinetypeTableRecord
  2
ByLayer
 70
     0
  3

 72
    65
 73
     0
 40
0.0
  0
LTYPE
  5
16
330
5
100
AcDbSymbolTableRecord
100
AcDbLinetypeTableRecord
  2
Continuous
 70
     0
  3
Solid line
 72
    65
 73
     0
 40
0.0
  0
LTYPE
  5
6E
330
5
100
AcDbSymbolTableRecord
100
AcDbLinetypeTableRecord
  2
HIDDEN
 70
     0
  3
Hidden __ __ __ __ __ __ __ __ __ __ __ __ __ __
 72
    65
 73
     2
 40
1.905
 49
1.27
 74
     0
 49
-0.635
 74
     0
  0
LTYPE
  5
6F
330
5
100
AcDbSymbolTableRecord
100
AcDbLinetypeTableRecord
  2
PHANTOM
 70
     0
  3
Phantom ______  __  __  ______  __  __  ______
 72
    65
 73
     6
 40
12.7
 49
6.35
 74
     0
 49
-1.27
 74
     0
 49
1.27
 74
     0
 49
-1.27
 74
     0
 49
1.27
 74
     0
 49
-1.27
 74
     0
  0
LTYPE
  5
70
330
5
100
AcDbSymbolTableRecord
100
AcDbLinetypeTableRecord
  2
CENTER
 70
     0
  3
Center ____ _ ____ _ ____ _ ____ _ ____ _ ____
 72
    65
 73
     4
 40
10.16
 49
6.35
 74
     0
 49
-1.27
 74
     0
 49
1.27
 74
     0
 49
-1.27
 74
     0
  0
LTYPE
  5
71
330
5
100
AcDbSymbolTableRecord
100
AcDbLinetypeTableRecord
  2
CENTERX2
 70
     0
  3
Center (2x) ________  __  ________  __  _____
 72
    65
 73
     4
 40
20.32
 49
12.7
 74
     0
 49
-2.54
 74
     0
 49
2.54
 74
     0
 49
-2.54
 74
     0
  0
LTYPE
  5
72
330
5
100
AcDbSymbolTableRecord
100
AcDbLinetypeTableRecord
  2
DOT2
 70
     0
  3
Dot (.5x) ........................................
 72
    65
 73
     2
 40
0.635
 49
0.0
 74
     0
 49
-0.635
 74
     0
  0
ENDTAB
  0
TABLE
  2
LAYER
  5
2
330
0
100
AcDbSymbolTable
 70
     1
  0
LAYER
  5
10
330
2
100
AcDbSymbolTableRecord
100
AcDbLayerTableRecord
  2
0
 70
     0
 62
     7
  6
Continuous
370
    -3
390
F
  0
ENDTAB
  0
TABLE
  2
STYLE
  5
3
330
0
100
AcDbSymbolTable
 70
     1
  0
STYLE
  5
11
330
3
100
AcDbSymbolTableRecord
100
AcDbTextStyleTableRecord
  2
Standard
 70
     0
 40
0.0
 41
1.0
 50
0.0
 71
     0
 42
3.5
  3
txt
  4

  0
ENDTAB
  0
TABLE
  2
VIEW
  5
6
330
0
100
AcDbSymbolTable
 70
     0
  0
ENDTAB
  0
TABLE
  2
UCS
  5
7
330
0
100
AcDbSymbolTable
 70
     0
  0
ENDTAB
  0
TABLE
  2
APPID
  5
9
330
0
100
AcDbSymbolTable
 70
     1
  0
APPID
  5
12
330
9
100
AcDbSymbolTableRecord
100
AcDbRegAppTableRecord
  2
ACAD
 70
     0
  0
ENDTAB
  0
TABLE
  2
DIMSTYLE
  5
A
330
0
100
AcDbSymbolTable
 70
     1
100
AcDbDimStyleTable
  0
DIMSTYLE
105
27
330
A
100
AcDbSymbolTableRecord
100
AcDbDimStyleTableRecord
  2
ISO-25
 70
     0
 41
2.5
 42
0.625
 43
3.75
 44
1.25
 73
     0
 74
     0
 77
     1
 78
     8
140
2.5
141
2.5
143
0.0393700787
147
0.625
171
     3
172
     1
178
     0
271
     2
272
     2
274
     3
278
    44
283
     0
284
     8
340
11
  0
ENDTAB
  0
TABLE
  2
BLOCK_RECORD
  5
1
330
0
100
AcDbSymbolTable
 70
     1
  0
BLOCK_RECORD
  5
1F
330
1
100
AcDbSymbolTableRecord
100
AcDbBlockTableRecord
  2
*Model_Space
340
22
  0
BLOCK_RECORD
  5
1B
330
1
100
AcDbSymbolTableRecord
100
AcDbBlockTableRecord
  2
*Paper_Space
340
1E
  0
BLOCK_RECORD
  5
23
330
1
100
AcDbSymbolTableRecord
100
AcDbBlockTableRecord
  2
*Paper_Space0
340
26
  0
ENDTAB
  0
ENDSEC
  0
SECTION
  2
BLOCKS
  0
BLOCK
  5
20
330
1F
100
AcDbEntity
  8
0
100
AcDbBlockBegin
  2
*Model_Space
 70
     0
 10
0.0
 20
0.0
 30
0.0
  3
*Model_Space
  1

  0
ENDBLK
  5
21
330
1F
100
AcDbEntity
  8
0
100
AcDbBlockEnd
  0
BLOCK
  5
1C
330
1B
100
AcDbEntity
 67
     1
  8
0
100
AcDbBlockBegin
  2
*Paper_Space
 70
     0
 10
0.0
 20
0.0
 30
0.0
  3
*Paper_Space
  1

  0
ENDBLK
  5
1D
330
1B
100
AcDbEntity
 67
     1
  8
0
100
AcDbBlockEnd
  0
BLOCK
  5
24
330
23
100
AcDbEntity
  8
0
100
AcDbBlockBegin
  2
*Paper_Space0
 70
     0
 10
0.0
 20
0.0
 30
0.0
  3
*Paper_Space0
  1

  0
ENDBLK
  5
25
330
23
100
AcDbEntity
  8
0
100
AcDbBlockEnd
  0
ENDSEC
  0
SECTION
  2
ENTITIES
  0
SPLINE
  5
73
330
1F
100
AcDbEntity
  8
0
  6
Continuous
 62
     7
370
    25
100
AcDbSpline
210
0.0
220
0.0
230
1.0
 70
     8
 71
     3
 72
    25
 73
    21
 74
     0
 42
0.000000001
 43
0.00000001
 40
0.0
 40
0.0
 40
0.0
 40
0.0
 40
0.1250000000000006
 40
0.1250000000000006
 40
0.1875000000000003
 40
0.1875000000000003
 40
0.2500000000000001
 40
0.2500000000000001
 40
0.3749999999999997
 40
0.3749999999999997
 40
0.4999999999999993
 40
0.4999999999999993
 40
0.624999999999999
 40
0.6874999999999991
 40
0.6874999999999991
 40
0.7499999999999991
 40
0.7499999999999991
 40
0.8749999999999996
 40
0.8749999999999996
 40
1.0
 40
1.0
 40
1.0
 40
1.0
 10
-195.5939188544299
 20
111.475943024918
 30
0.0
 10
-195.591865564967
 20
107.8235376774299
 30
0.0
 10
-195.5901682518262
 20
104.6479620784998
 30
0.0
 10
-195.5889216949938
 20
102.1399118941597
 30
0.0
 10
-195.5883784891751
 20
101.0135689303816
 30
0.0
 10
-195.5870367037882
 20
98.18023053149587
 30
0.0
 10
-195.5854683576189
 20
94.81337628876578
 30
0.0
 10
-195.5849988585682
 20
93.8009887219301
 30
0.0
 10
-195.584197827315
 20
92.04685700047472
 30
0.0
 10
-195.5816197010367
 20
86.3801802037676
 30
0.0
 10
-195.5788631742974
 20
80.30922186245898
 30
0.0
 10
-195.5762917840372
 20
74.64254518577643
 30
0.0
 10
-195.5743656249466
 20
70.39253767720804
 30
0.0
 10
-195.572443041263
 20
66.14253016705494
 30
0.0
 10
-195.571162113342
 20
63.30919182660069
 30
0.0
 10
-195.5710371582058
 20
63.03333482099792
 30
0.0
 10
-195.5675728151523
 20
55.36089058057986
 30
0.0
 10
-195.5669298250949
 20
54.00247830729105
 30
0.0
 10
-195.5651997898265
 20
49.94919862162772
 30
0.0
 10
-195.5641417966682
 20
47.11586018536529
 30
0.0
 10
-195.562890827986
 20
43.47582315567202
 30
0.0
  0
SPLINE
  5
74
330
1F
100
AcDbEntity
  8
0
  6
Continuous
 62
     7
370
    25
100
AcDbSpline
210
0.0
220
0.0
230
1.0
 70
     8
 71
     3
 72
    22
 73
    18
 74
     0
 42
0.000000001
 43
0.00000001
 40
0.0
 40
0.0
 40
0.0
 40
0.0
 40
0.0625
 40
0.0625
 40
0.125
 40
0.125
 40
0.1875
 40
0.1875
 40
0.25
 40
0.25
 40
0.5
 40
0.5
 40
0.75
 40
0.75
 40
0.875
 40
0.875
 40
1.0
 40
1.0
 40
1.0
 40
1.0
 10
-195.562890827986
 20
43.47582315567202
 30
0.0
 10
-200.3575702170165
 20
43.47242530082153
 30
0.0
 10
-203.7878902956983
 20
43.4699941763186
 30
0.0
 10
-207.9198118323645
 20
43.46706538800801
 30
0.0
 10
-208.1485325464721
 20
43.46690195483097
 30
0.0
 10
-215.2073599931695
 20
43.46187127088267
 30
0.0
 10
-215.2091125076015
 20
43.46185100797783
 30
0.0
 10
-220.1206679915521
 20
43.45844906837119
 30
0.0
 10
-222.5764457259984
 20
43.45673730213117
 30
0.0
 10
-234.8553343605862
 20
43.44812448874676
 30
0.0
 10
-244.7491309662518
 20
43.44091496093857
 30
0.0
 10
-264.2539802197156
 20
43.42615483947712
 30
0.0
 10
-274.1667410609816
 20
43.41829703018843
 30
0.0
 10
-288.8729589023599
 20
43.40609898377984
 30
0.0
 10
-292.9063247213869
 20
43.40314648004077
 30
0.0
 10
-304.5047763007512
 20
43.39122052054771
 30
0.0
 10
-306.9529701752532
 20
43.38890041827867
 30
0.0
 10
-313.4402143814377
 20
43.38380538503478
 30
0.0
  0
SPLINE
  5
75
330
1F
100
AcDbEntity
  8
0
  6
Continuous
 62
     7
370
    25
100
AcDbSpline
210
0.0
220
0.0
230
1.0
 70
     8
 71
     3
 72
    12
 73
     8
 74
     0
 42
0.000000001
 43
0.00000001
 40
0.0
 40
0.0
 40
0.0
 40
0.0
 40
0.5
 40
0.5
 40
0.75
 40
0.75
 40
1.0
 40
1.0
 40
1.0
 40
1.0
 10
-313.4402143810785
 20
43.38380488503489
 30
0.0
 10
-313.4332605386135
 20
33.70238085475104
 30
0.0
 10
-313.4307230165696
 20
31.68323619180235
 30
0.0
 10
-313.4182854690985
 20
16.55928466415525
 30
0.0
 10
-313.4170155425764
 20
14.91900074290013
 30
0.0
 10
-313.4107241027926
 20
6.49899940117395
 30
0.0
 10
-313.4090923639525
 20
4.658110211380802
 30
0.0
 10
-313.4046263126713
 20
-0.1826011622039151
 30
0.0
  0
SPLINE
  5
76
330
1F
100
AcDbEntity
  8
0
  6
Continuous
 62
     7
370
    25
100
AcDbSpline
210
0.0
220
0.0
230
1.0
 70
     8
 71
     3
 72
    46
 73
    42
 74
     0
 42
0.000000001
 43
0.00000001
 40
0.0
 40
0.0
 40
0.0
 40
0.0
 40
0.0312499999999999
 40
0.0312499999999999
 40
0.0624999999999998
 40
0.0624999999999998
 40
0.0937499999999997
 40
0.0937499999999997
 40
0.1249999999999996
 40
0.1249999999999996
 40
0.2500000000000002
 40
0.2500000000000002
 40
0.3125000000000006
 40
0.3125000000000006
 40
0.3437500000000008
 40
0.3437500000000008
 40
0.375000000000001
 40
0.375000000000001
 40
0.4375000000000014
 40
0.4375000000000014
 40
0.5000000000000019
 40
0.5000000000000019
 40
0.5625000000000024
 40
0.5625000000000024
 40
0.5937500000000024
 40
0.5937500000000024
 40
0.6250000000000027
 40
0.6250000000000027
 40
0.6875000000000022
 40
0.6875000000000022
 40
0.718750000000002
 40
0.718750000000002
 40
0.7500000000000018
 40
0.7500000000000018
 40
0.8750000000000009
 40
0.8750000000000009
 40
0.9375000000000004
 40
0.9375000000000004
 40
0.9687500000000002
 40
0.9687500000000002
 40
1.0
 40
1.0
 40
1.0
 40
1.0
 10
-313.4046258126712
 20
-0.1826011617841051
 30
0.0
 10
-309.0496424708398
 20
-0.1789451250854487
 30
0.0
 10
-305.5410460465652
 20
-0.1764029059216944
 30
0.0
 10
-301.6707791565894
 20
-0.174010252412494
 30
0.0
 10
-296.3668049302785
 20
-0.1711274343351768
 30
0.0
 10
-291.2475909567374
 20
-0.1676220085763858
 30
0.0
 10
-287.2747224981684
 20
-0.1640605696547216
 30
0.0
 10
-280.7422470327471
 20
-0.1588639428176178
 30
0.0
 10
-277.5605771586562
 20
-0.1563305544442304
 30
0.0
 10
-260.8065491871205
 20
-0.1429771991696685
 30
0.0
 10
-246.6369852085487
 20
-0.1322944902963142
 30
0.0
 10
-229.2038838605744
 20
-0.1198256664108272
 30
0.0
 10
-224.7690622799458
 20
-0.1167066835660681
 30
0.0
 10
-210.7417033272649
 20
-0.1071596560960752
 30
0.0
 10
-206.770691161742
 20
-0.1044855393784628
 30
0.0
 10
-200.2382151347711
 20
-0.1001537574878213
 30
0.0
 10
-199.8776435656394
 20
-0.0998586206587108
 30
0.0
 10
-187.7048970866715
 20
-0.0923227171317617
 30
0.0
 10
-182.5643102159055
 20
-0.0860200876090789
 30
0.0
 10
-169.8809589831091
 20
-0.0789165871088425
 30
0.0
 10
-163.1576805764508
 20
-0.077754556748529
 30
0.0
 10
-150.092726719645
 20
-0.0721891383175693
 30
0.0
 10
-143.5602494775885
 20
-0.070115243900925
 30
0.0
 10
-133.7615338729364
 20
-0.0664195818410841
 30
0.0
 10
-130.4944025268466
 20
-0.0651985697540879
 30
0.0
 10
-123.9637110542691
 20
-0.0627802797376926
 30
0.0
 10
-118.8091722454263
 20
-0.0609736409184799
 30
0.0
 10
-114.6726790802528
 20
-0.059561793000766
 30
0.0
 10
-108.1262103743736
 20
-0.0574181651259497
 30
0.0
 10
-92.68625904611127
 20
-0.0524195131106933
 30
0.0
 10
-88.47981453923175
 20
-0.0510502971473791
 30
0.0
 10
-81.94733739722213
 20
-0.0489058679709943
 30
0.0
 10
-81.31827760146471
 20
-0.0487162348313111
 30
0.0
 10
-65.90427966478357
 20
-0.0433972751905892
 30
0.0
 10
-48.74622952379368
 20
-0.036387855993293
 30
0.0
 10
-34.18780922710904
 20
-0.0296759577199695
 30
0.0
 10
-24.1171755295858
 20
-0.0251031725886395
 30
0.0
 10
-17.10619082396462
 20
-0.0209540273184819
 30
0.0
 10
-13.02948287371222
 20
-0.0179164059805957
 30
0.0
 10
-6.259460421361716
 20
-0.0135050950236729
 30
0.0
 10
-4.200741339688578
 20
-0.0124801574389138
 30
0.0
 10
0.1542432293915102
 20
-0.0104625725300673
 30
0.0
  0
SPLINE
  5
77
330
1F
100
AcDbEntity
  8
0
  6
Continuous
 62
     7
370
    25
100
AcDbSpline
210
0.0
220
0.0
230
1.0
 70
     8
 71
     3
 72
    12
 73
     8
 74
     0
 42
0.000000001
 43
0.00000001
 40
0.0
 40
0.0
 40
0.0
 40
0.0
 40
0.5000000000000002
 40
0.5000000000000002
 40
0.7500000000000001
 40
0.7500000000000001
 40
1.0
 40
1.0
 40
1.0
 40
1.0
 10
0.1542432291952826
 20
-0.0104620719591493
 30
0.0
 10
0.1504481101307562
 20
9.670969375180432
 30
0.0
 10
0.1493308131508032
 20
10.44157167236545
 30
0.0
 10
0.1405123742944762
 20
27.43835166632514
 30
0.0
 10
0.140097019564342
 20
28.24218341241693
 30
0.0
 10
0.1364848353395953
 20
37.08655375773336
 30
0.0
 10
0.1356254346970417
 20
38.71526328535488
 30
0.0
 10
0.1329173729075249
 20
43.55597878980114
 30
0.0
  0
SPLINE
  5
78
330
1F
100
AcDbEntity
  8
0
  6
Continuous
 62
     7
370
    25
100
AcDbSpline
210
0.0
220
0.0
230
1.0
 70
     8
 71
     3
 72
    22
 73
    18
 74
     0
 42
0.000000001
 43
0.00000001
 40
0.0
 40
0.0
 40
0.0
 40
0.0
 40
0.0624999999999999
 40
0.0624999999999999
 40
0.125
 40
0.125
 40
0.2499999999999999
 40
0.2499999999999999
 40
0.4999999999999998
 40
0.4999999999999998
 40
0.6249999999999998
 40
0.6249999999999998
 40
0.7499999999999999
 40
0.7499999999999999
 40
0.875
 40
0.875
 40
1.0
 40
1.0
 40
1.0
 40
1.0
 10
0.1329168729026957
 20
43.55597878956366
 30
0.0
 10
-2.728756946601487
 20
43.55461953280767
 30
0.0
 10
-5.368709087005088
 20
43.55351424366883
 30
0.0
 10
-7.242989263657224
 20
43.55285441615407
 30
0.0
 10
-10.49114741605642
 20
43.55200144085126
 30
0.0
 10
-17.25155353859037
 20
43.55032806910083
 30
0.0
 10
-20.08565438940912
 20
43.54927046484725
 30
0.0
 10
-36.69513889334821
 20
43.5414375892432
 30
0.0
 10
-43.81520724821979
 20
43.53815135503321
 30
0.0
 10
-55.15821789275125
 20
43.53331440930011
 30
0.0
 10
-59.19497516026367
 20
43.53166102790145
 30
0.0
 10
-67.77999713395899
 20
43.52827213279551
 30
0.0
 10
-74.29402148118238
 20
43.52580965913915
 30
0.0
 10
-79.97053896427138
 20
43.52371041934602
 30
0.0
 10
-85.96276181530853
 20
43.52152978569647
 30
0.0
 10
-94.0568648737359
 20
43.51859907638038
 30
0.0
 10
-98.34937596283876
 20
43.51720344916322
 30
0.0
 10
-102.8873466118307
 20
43.51587754938689
 30
0.0
  0
SPLINE
  5
79
330
1F
100
AcDbEntity
  8
0
  6
Continuous
 62
     7
370
    25
100
AcDbSpline
210
0.0
220
0.0
230
1.0
 70
     8
 71
     3
 72
    14
 73
    10
 74
     0
 42
0.000000001
 43
0.00000001
 40
0.0
 40
0.0
 40
0.0
 40
0.0
 40
0.125
 40
0.125
 40
0.25
 40
0.25
 40
0.5
 40
0.5
 40
1.0
 40
1.0
 40
1.0
 40
1.0
 10
-102.8873466119731
 20
43.5158780494004
 30
0.0
 10
-102.8883843786271
 20
47.16237275201844
 30
0.0
 10
-102.8895376551114
 20
50.70025687193755
 30
0.0
 10
-102.8905110782588
 20
53.3312233523195
 30
0.0
 10
-102.8925395777669
 20
58.39474413813429
 30
0.0
 10
-102.8951175803522
 20
64.75731872606052
 30
0.0
 10
-102.8980671284261
 20
71.8487518201021
 30
0.0
 10
-102.9052158103933
 20
88.84847587861867
 30
0.0
 10
-102.9116342990567
 20
104.0886834612327
 30
0.0
 10
-102.9145340295061
 20
111.5147747114734
 30
0.0
  0
SPLINE
  5
7A
330
1F
100
AcDbEntity
  8
0
  6
Continuous
 62
     7
370
    25
100
AcDbSpline
210
0.0
220
0.0
230
1.0
 70
     8
 71
     3
 72
    12
 73
     8
 74
     0
 42
0.000000001
 43
0.00000001
 40
0.0
 40
0.0
 40
0.0
 40
0.0
 40
0.5
 40
0.5
 40
0.75
 40
0.75
 40
1.0
 40
1.0
 40
1.0
 40
1.0
 10
-102.9145335294939
 20
111.5147747115566
 30
0.0
 10
-80.27635093191213
 20
111.5185396514641
 30
0.0
 10
-74.7422170404079
 20
111.5210837702206
 30
0.0
 10
-39.73175904442323
 20
111.5340654311817
 30
0.0
 10
-37.81688384458656
 20
111.535298425034
 30
0.0
 10
-13.47431974251101
 20
111.5450598289019
 30
0.0
 10
-11.33654266192501
 20
111.5500348712356
 30
0.0
 10
0.1107071227108196
 20
111.5524001566328
 30
0.0
  0
SPLINE
  5
7B
330
1F
100
AcDbEntity
  8
0
  6
Continuous
 62
     7
370
    25
100
AcDbSpline
210
0.0
220
0.0
230
1.0
 70
     8
 71
     3
 72
    32
 73
    28
 74
     0
 42
0.000000001
 43
0.00000001
 40
0.0
 40
0.0
 40
0.0
 40
0.0
 40
0.0624999999999999
 40
0.0624999999999999
 40
0.1249999999999998
 40
0.1249999999999998
 40
0.1874999999999998
 40
0.1874999999999998
 40
0.2499999999999998
 40
0.2499999999999998
 40
0.3749999999999997
 40
0.3749999999999997
 40
0.4999999999999996
 40
0.4999999999999996
 40
0.6249999999999994
 40
0.6249999999999994
 40
0.7499999999999993
 40
0.7499999999999993
 40
0.8124999999999994
 40
0.8124999999999994
 40
0.8749999999999997
 40
0.8749999999999997
 40
0.9062499999999998
 40
0.9062499999999998
 40
0.9374999999999998
 40
0.9374999999999998
 40
1.0
 40
1.0
 40
1.0
 40
1.0
 10
0.1107071225626101
 20
111.552400656637
 30
0.0
 10
0.1084693662723214
 20
119.1016506186445
 30
0.0
 10
0.1065187760788903
 20
126.3300491791087
 30
0.0
 10
0.1051038448115233
 20
132.205703293155
 30
0.0
 10
0.1037385902687687
 20
139.631237527394
 30
0.0
 10
0.1012415958359467
 20
154.3354679520805
 30
0.0
 10
0.1003841697000008
 20
159.0709713550803
 30
0.0
 10
0.0979068558141366
 20
170.3266863918578
 30
0.0
 10
0.0960190470234929
 20
177.6487691407898
 30
0.0
 10
0.0919963440140998
 20
191.9453761672472
 30
0.0
 10
0.0885626262016864
 20
202.6160703263496
 30
0.0
 10
0.080191358964735
 20
226.2367042608157
 30
0.0
 10
0.0746343967223005
 20
240.7205765427597
 30
0.0
 10
0.0644942919170981
 20
265.8318366457911
 30
0.0
 10
0.0596481231752797
 20
277.2297707579989
 30
0.0
 10
0.0492866945035319
 20
300.1845421590181
 30
0.0
 10
0.0447074205125412
 20
309.8262206364911
 30
0.0
 10
0.0337676613542158
 20
331.2940478937363
 30
0.0
 10
0.0313704923935263
 20
335.9484216094172
 30
0.0
 10
0.0250739127028877
 20
347.7587376288596
 30
0.0
 10
0.0211530194096895
 20
355.1190679926535
 30
0.0
 10
0.0175991676680948
 20
361.7940464663448
 30
0.0
 10
0.01572138026785
 20
365.4742117210428
 30
0.0
 10
0.012400286212519
 20
371.3793696152961
 30
0.0
 10
0.011241761909574
 20
373.7185794767395
 30
0.0
 10
0.0063710484088826
 20
384.4164247142105
 30
0.0
 10
-0.0024155589517438
 20
387.1264535564407
 30
0.0
 10
0.0000000000000095
 20
395.0
 30
0.0
  0
SPLINE
  5
7C
330
1F
100
AcDbEntity
  8
0
  6
Continuous
 62
     7
370
    25
100
AcDbSpline
210
0.0
220
0.0
230
1.0
 70
     8
 71
     3
 72
    47
 73
    43
 74
     0
 42
0.000000001
 43
0.00000001
 40
0.0
 40
0.0
 40
0.0
 40
0.0
 40
0.0312500000000001
 40
0.0312500000000001
 40
0.0625000000000001
 40
0.0625000000000001
 40
0.1250000000000003
 40
0.1250000000000003
 40
0.1875000000000004
 40
0.1875000000000004
 40
0.2500000000000006
 40
0.2500000000000006
 40
0.3125000000000006
 40
0.3437500000000006
 40
0.3437500000000006
 40
0.3750000000000004
 40
0.3750000000000004
 40
0.4062500000000004
 40
0.4062500000000004
 40
0.4375000000000004
 40
0.4375000000000004
 40
0.4687500000000003
 40
0.4687500000000003
 40
0.5000000000000003
 40
0.5000000000000003
 40
0.6250000000000004
 40
0.6250000000000004
 40
0.6875000000000003
 40
0.6875000000000003
 40
0.7500000000000002
 40
0.7500000000000002
 40
0.8125000000000002
 40
0.8125000000000002
 40
0.8750000000000001
 40
0.8750000000000001
 40
0.9062500000000001
 40
0.9062500000000001
 40
0.9375000000000001
 40
0.9375000000000001
 40
0.96875
 40
0.96875
 40
1.0
 40
1.0
 40
1.0
 40
1.0
 10
-0.0000005000850341
 20
395.0000000000622
 30
0.0
 10
-4.355118566678859
 20
395.0005414682246
 30
0.0
 10
-6.064237850399272
 20
395.0004266913983
 30
0.0
 10
-13.25272956651859
 20
394.9959618911719
 30
0.0
 10
-16.95371487004481
 20
394.9946039282716
 30
0.0
 10
-26.75272939256289
 20
394.991315884184
 30
0.0
 10
-31.24360682096431
 20
394.9896934538228
 30
0.0
 10
-47.14851355165022
 20
394.9840762771118
 30
0.0
 10
-54.39107853262048
 20
394.9814593204662
 30
0.0
 10
-67.45643172581524
 20
394.976608670595
 30
0.0
 10
-71.7321814969567
 20
394.9749928552407
 30
0.0
 10
-85.05205816805804
 20
394.9696729764131
 30
0.0
 10
-94.9465192582842
 20
394.9655519466874
 30
0.0
 10
-104.6978107288608
 20
394.9612342360548
 30
0.0
 10
-111.1668562382118
 20
394.9583120554314
 30
0.0
 10
-112.6710739108372
 20
394.9576346240418
 30
0.0
 10
-122.5052834172627
 20
394.9530140048536
 30
0.0
 10
-126.5970048460661
 20
394.9510581998942
 30
0.0
 10
-133.1296810548539
 20
394.9478555992447
 30
0.0
 10
-133.9198693603041
 20
394.9475205330476
 30
0.0
 10
-140.4525454337696
 20
394.9439124918335
 30
0.0
 10
-142.4693000100709
 20
394.9428038884269
 30
0.0
 10
-151.5011432302504
 20
394.9379394809392
 30
0.0
 10
-153.0413971898731
 20
394.9369849523554
 30
0.0
 10
-171.7555913076423
 20
394.9301644331593
 30
0.0
 10
-181.1605274062556
 20
394.9267677047064
 30
0.0
 10
-203.3901793354578
 20
394.9213632437235
 30
0.0
 10
-208.1956600816131
 20
394.9205211857489
 30
0.0
 10
-222.960991926603
 20
394.9164601021923
 30
0.0
 10
-228.9281776566699
 20
394.9147536482604
 30
0.0
 10
-241.4245351086202
 20
394.9109584684979
 30
0.0
 10
-246.5393300996884
 20
394.9093246761709
 30
0.0
 10
-263.009443057635
 20
394.903657346879
 30
0.0
 10
-270.414734413104
 20
394.9010151475187
 30
0.0
 10
-276.3512575697092
 20
394.8988025733312
 30
0.0
 10
-281.4387168399915
 20
394.8967440989597
 30
0.0
 10
-286.9041458564904
 20
394.8944905817064
 30
0.0
 10
-290.6571305153611
 20
394.8932225426453
 30
0.0
 10
-297.2837618724188
 20
394.8902772734976
 30
0.0
 10
-300.1937798652285
 20
394.8884244311789
 30
0.0
 10
-307.3451407270454
 20
394.8841488240834
 30
0.0
 10
-309.2133571526808
 20
394.8836428768062
 30
0.0
 10
-313.5684751870188
 20
394.8827917700524
 30
0.0
  0
SPLINE
  5
7D
330
1F
100
AcDbEntity
  8
0
  6
Continuous
 62
     7
370
    25
100
AcDbSpline
210
0.0
220
0.0
230
1.0
 70
     8
 71
     3
 72
    33
 73
    29
 74
     0
 42
0.000000001
 43
0.00000001
 40
0.0
 40
0.0
 40
0.0
 40
0.0
 40
0.0625
 40
0.0625
 40
0.1249999999999999
 40
0.1249999999999999
 40
0.1562499999999999
 40
0.1562499999999999
 40
0.1874999999999999
 40
0.1874999999999999
 40
0.2499999999999999
 40
0.2499999999999999
 40
0.5000000000000003
 40
0.5000000000000003
 40
0.7500000000000009
 40
0.7500000000000009
 40
0.812500000000001
 40
0.812500000000001
 40
0.8437500000000011
 40
0.859375000000001
 40
0.859375000000001
 40
0.8750000000000009
 40
0.8750000000000009
 40
0.9062500000000007
 40
0.9062500000000007
 40
0.9375000000000004
 40
0.9375000000000004
 40
1.0
 40
1.0
 40
1.0
 40
1.0
 10
-313.5684751868802
 20
394.8827912699896
 30
0.0
 10
-313.5662669540336
 20
386.918621545041
 30
0.0
 10
-313.5646411592838
 20
380.6878552299395
 30
0.0
 10
-313.5630077051919
 20
373.6468918663167
 30
0.0
 10
-313.5620843758315
 20
368.6413245615985
 30
0.0
 10
-313.5598971329316
 20
354.8572700945782
 30
0.0
 10
-313.5592922213784
 20
351.0836428484643
 30
0.0
 10
-313.5583307370991
 20
345.1785035086896
 30
0.0
 10
-313.5582772789059
 20
344.7561658941627
 30
0.0
 10
-313.5566707252758
 20
335.6972783812828
 30
0.0
 10
-313.5553450050628
 20
329.0653506715796
 30
0.0
 10
-313.5498277921415
 20
303.8441898890345
 30
0.0
 10
-313.5421568898541
 20
278.0531753665998
 30
0.0
 10
-313.524832346347
 20
228.2657189167424
 30
0.0
 10
-313.515773192253
 20
205.0274928344396
 30
0.0
 10
-313.5033249830669
 20
176.6153495112153
 30
0.0
 10
-313.5000294262251
 20
169.2957604514245
 30
0.0
 10
-313.4976005857229
 20
164.0132716490263
 30
0.0
 10
-313.4958920082776
 20
160.3292548741856
 30
0.0
 10
-313.4934421950405
 20
155.0810795388829
 30
0.0
 10
-313.4916442671512
 20
151.2347051908006
 30
0.0
 10
-313.490081908398
 20
147.8973135055541
 30
0.0
 10
-313.4886339652521
 20
144.8062070734113
 30
0.0
 10
-313.4869107331482
 20
140.9618057501517
 30
0.0
 10
-313.4839446362891
 20
135.0566669761993
 30
0.0
 10
-313.4828860905795
 20
132.7032692285712
 30
0.0
 10
-313.4783270098584
 20
122.0480453982297
 30
0.0
 10
-313.4702414875506
 20
119.3096333948254
 30
0.0
 10
-313.4731383232015
 20
111.436112992346
 30
0.0
  0
SPLINE
  5
7E
330
1F
100
AcDbEntity
  8
0
  6
Continuous
 62
     7
370
    25
100
AcDbSpline
210
0.0
220
0.0
230
1.0
 70
     8
 71
     3
 72
    22
 73
    18
 74
     0
 42
0.000000001
 43
0.00000001
 40
0.0
 40
0.0
 40
0.0
 40
0.0
 40
0.0624999999999997
 40
0.0624999999999997
 40
0.1249999999999993
 40
0.1249999999999993
 40
0.187499999999999
 40
0.187499999999999
 40
0.2499999999999987
 40
0.2499999999999987
 40
0.4999999999999993
 40
0.4999999999999993
 40
0.75
 40
0.75
 40
0.875
 40
0.875
 40
1.0
 40
1.0
 40
1.0
 40
1.0
 10
-313.4731378231016
 20
111.4361129922494
 30
0.0
 10
-310.1987149173167
 20
111.4354803888911
 30
0.0
 10
-307.7284464325772
 20
111.4355036182243
 30
0.0
 10
-304.4829265354819
 20
111.4366781925224
 30
0.0
 10
-299.8627120003043
 20
111.4393298340197
 30
0.0
 10
-297.6137595178095
 20
111.440250482299
 30
0.0
 10
-295.8236128148894
 20
111.440845815571
 30
0.0
 10
-290.9119784857041
 20
111.4423065003795
 30
0.0
 10
-285.8117519165588
 20
111.4436945268493
 30
0.0
 10
-276.7696573245617
 20
111.4460829552288
 30
0.0
 10
-265.0585323368259
 20
111.4496481129155
 30
0.0
 10
-244.0085228939198
 20
111.4564351252925
 30
0.0
 10
-234.5950996037582
 20
111.4597947402116
 30
0.0
 10
-220.2980345506179
 20
111.4655221544645
 30
0.0
 10
-216.1498089310096
 20
111.4672796338137
 30
0.0
 10
-204.5078329265222
 20
111.4725745022547
 30
0.0
 10
-202.0867491895808
 20
111.4735625628077
 30
0.0
 10
-195.5939188547111
 20
111.4759435249605
 30
0.0
  0
ENDSEC
  0
SECTION
  2
OBJECTS
  0
DICTIONARY
  5
C
330
0
100
AcDbDictionary
281
     1
  3
ACAD_GROUP
350
D
  3
ACAD_LAYOUT
350
1A
  3
ACAD_MLINESTYLE
350
17
  3
ACAD_PLOTSETTINGS
350
19
  3
ACAD_PLOTSTYLENAME
350
E
  3
ACAD_SCALELIST
350
47
  0
DICTIONARY
  5
D
102
{ACAD_REACTORS
330
C
102
}
330
C
100
AcDbDictionary
281
     1
  0
DICTIONARY
  5
1A
102
{ACAD_REACTORS
330
C
102
}
330
C
100
AcDbDictionary
281
     1
  3
Layout1
350
1E
  3
Layout2
350
26
  3
Model
350
22
  0
DICTIONARY
  5
17
102
{ACAD_REACTORS
330
C
102
}
330
C
100
AcDbDictionary
281
     1
  3
Standard
350
18
  0
DICTIONARY
  5
19
102
{ACAD_REACTORS
330
C
102
}
330
C
100
AcDbDictionary
281
     1
  0
ACDBDICTIONARYWDFLT
  5
E
102
{ACAD_REACTORS
330
C
102
}
330
C
100
AcDbDictionary
281
     1
  3
Normal
350
F
100
AcDbDictionaryWithDefault
340
F
  0
DICTIONARY
  5
47
102
{ACAD_REACTORS
330
C
102
}
330
C
100
AcDbDictionary
281
     1
  3
A0
350
48
  3
A1
350
49
  3
A2
350
4A
  3
A3
350
4B
  3
A4
350
4C
  3
A5
350
4D
  3
A6
350
4E
  3
A7
350
4F
  3
A8
350
50
  3
A9
350
51
  3
B0
350
52
  3
B1
350
53
  3
B2
350
54
  3
B3
350
55
  3
B4
350
56
  3
B5
350
57
  3
B6
350
58
  3
B7
350
59
  3
B8
350
5A
  3
B9
350
5B
  3
C0
350
5C
  3
C1
350
5D
  3
C2
350
5E
  3
C3
350
5F
  3
C4
350
60
  3
C5
350
61
  3
C6
350
62
  3
C7
350
63
  3
C8
350
64
  3
C9
350
65
  3
D0
350
66
  3
D1
350
67
  3
D2
350
68
  0
LAYOUT
  5
1E
102
{ACAD_REACTORS
330
1A
102
}
330
1A
100
AcDbPlotSettings
  1

  2
none_device
  4

  6

 40
0.0
 41
0.0
 42
0.0
 43
0.0
 44
0.0
 45
0.0
 46
0.0
 47
0.0
 48
0.0
 49
0.0
140
0.0
141
0.0
142
1.0
143
1.0
 70
   688
 72
     1
 73
     0
 74
     5
  7

 75
    16
147
1.0
148
0.0
149
0.0
100
AcDbLayout
  1
Layout1
 70
     1
 71
     1
 10
0.0
 20
0.0
 11
420.0
 21
297.0
 12
0.0
 22
0.0
 32
0.0
 14
1.0000000000E+20
 24
1.0000000000E+20
 34
1.0000000000E+20
 15
-1.0000000000E+20
 25
-1.0000000000E+20
 35
-1.0000000000E+20
146
0.0
 13
0.0
 23
0.0
 33
0.0
 16
1.0
 26
0.0
 36
0.0
 17
0.0
 27
1.0
 37
0.0
 76
     0
330
1B
  0
LAYOUT
  5
26
102
{ACAD_REACTORS
330
1A
102
}
330
1A
100
AcDbPlotSettings
  1

  2
none_device
  4

  6

 40
0.0
 41
0.0
 42
0.0
 43
0.0
 44
0.0
 45
0.0
 46
0.0
 47
0.0
 48
0.0
 49
0.0
140
0.0
141
0.0
142
1.0
143
1.0
 70
   688
 72
     1
 73
     0
 74
     5
  7

 75
    16
147
1.0
148
0.0
149
0.0
100
AcDbLayout
  1
Layout2
 70
     1
 71
     2
 10
0.0
 20
0.0
 11
0.0
 21
0.0
 12
0.0
 22
0.0
 32
0.0
 14
0.0
 24
0.0
 34
0.0
 15
0.0
 25
0.0
 35
0.0
146
0.0
 13
0.0
 23
0.0
 33
0.0
 16
1.0
 26
0.0
 36
0.0
 17
0.0
 27
1.0
 37
0.0
 76
     0
330
23
  0
LAYOUT
  5
22
102
{ACAD_REACTORS
330
1A
102
}
330
1A
100
AcDbPlotSettings
  1

  2
none_device
  4
ANSI_A_(11.00_x_8.50_Inches)
  6

 40
6.35
 41
19.05
 42
6.35000508
 43
19.05000254
 44
279.4
 45
215.9
 46
218.1076147689
 47
-17.8717384325
 48
0.0
 49
0.0
140
0.0
141
0.0
142
0.0212939537
143
1.0
 70
  1696
 72
     0
 73
     0
 74
     0
  7

 75
     0
147
0.0179189148
148
-1300.4909072572
149
0.0
100
AcDbLayout
  1
Model
 70
     1
 71
     0
 10
0.0
 20
0.0
 11
420.0
 21
297.0
 12
0.0
 22
0.0
 32
0.0
 14
-313.568475187
 24
-0.1826011622
 34
0.0
 15
0.1542432294
 25
395.0000000001
 35
0.0
146
0.0
 13
0.0
 23
0.0
 33
0.0
 16
1.0
 26
0.0
 36
0.0
 17
0.0
 27
1.0
 37
0.0
 76
     0
330
1F
331
29
  0
MLINESTYLE
  5
18
102
{ACAD_REACTORS
330
17
102
}
330
17
100
AcDbMlineStyle
  2
Standard
 70
     0
  3

 62
   256
 51
90.0
 52
90.0
 71
     2
 49
0.5
 62
   256
  6
BYLAYER
 49
-0.5
 62
   256
  6
BYLAYER
  0
ACDBPLACEHOLDER
  5
F
102
{ACAD_REACTORS
330
E
102
}
330
E
  0
SCALE
  5
48
102
{ACAD_REACTORS
330
47
102
}
330
47
100
AcDbScale
 70
     0
300
1:1
140
1.0
141
1.0
290
     1
  0
SCALE
  5
49
102
{ACAD_REACTORS
330
47
102
}
330
47
100
AcDbScale
 70
     0
300
1:2
140
1.0
141
2.0
290
     0
  0
SCALE
  5
4A
102
{ACAD_REACTORS
330
47
102
}
330
47
100
AcDbScale
 70
     0
300
1:4
140
1.0
141
4.0
290
     0
  0
SCALE
  5
4B
102
{ACAD_REACTORS
330
47
102
}
330
47
100
AcDbScale
 70
     0
300
1:5
140
1.0
141
5.0
290
     0
  0
SCALE
  5
4C
102
{ACAD_REACTORS
330
47
102
}
330
47
100
AcDbScale
 70
     0
300
1:8
140
1.0
141
8.0
290
     0
  0
SCALE
  5
4D
102
{ACAD_REACTORS
330
47
102
}
330
47
100
AcDbScale
 70
     0
300
1:10
140
1.0
141
10.0
290
     0
  0
SCALE
  5
4E
102
{ACAD_REACTORS
330
47
102
}
330
47
100
AcDbScale
 70
     0
300
1:16
140
1.0
141
16.0
290
     0
  0
SCALE
  5
4F
102
{ACAD_REACTORS
330
47
102
}
330
47
100
AcDbScale
 70
     0
300
1:20
140
1.0
141
20.0
290
     0
  0
SCALE
  5
50
102
{ACAD_REACTORS
330
47
102
}
330
47
100
AcDbScale
 70
     0
300
1:30
140
1.0
141
30.0
290
     0
  0
SCALE
  5
51
102
{ACAD_REACTORS
330
47
102
}
330
47
100
AcDbScale
 70
     0
300
1:40
140
1.0
141
40.0
290
     0
  0
SCALE
  5
52
102
{ACAD_REACTORS
330
47
102
}
330
47
100
AcDbScale
 70
     0
300
1:50
140
1.0
141
50.0
290
     0
  0
SCALE
  5
53
102
{ACAD_REACTORS
330
47
102
}
330
47
100
AcDbScale
 70
     0
300
1:100
140
1.0
141
100.0
290
     0
  0
SCALE
  5
54
102
{ACAD_REACTORS
330
47
102
}
330
47
100
AcDbScale
 70
     0
300
2:1
140
2.0
141
1.0
290
     0
  0
SCALE
  5
55
102
{ACAD_REACTORS
330
47
102
}
330
47
100
AcDbScale
 70
     0
300
4:1
140
4.0
141
1.0
290
     0
  0
SCALE
  5
56
102
{ACAD_REACTORS
330
47
102
}
330
47
100
AcDbScale
 70
     0
300
8:1
140
8.0
141
1.0
290
     0
  0
SCALE
  5
57
102
{ACAD_REACTORS
330
47
102
}
330
47
100
AcDbScale
 70
     0
300
10:1
140
10.0
141
1.0
290
     0
  0
SCALE
  5
58
102
{ACAD_REACTORS
330
47
102
}
330
47
100
AcDbScale
 70
     0
300
100:1
140
100.0
141
1.0
290
     0
  0
SCALE
  5
59
102
{ACAD_REACTORS
330
47
102
}
330
47
100
AcDbScale
 70
     0
300
1/128" = 1'-0"
140
0.0078125
141
12.0
290
     0
  0
SCALE
  5
5A
102
{ACAD_REACTORS
330
47
102
}
330
47
100
AcDbScale
 70
     0
300
1/64" = 1'-0"
140
0.015625
141
12.0
290
     0
  0
SCALE
  5
5B
102
{ACAD_REACTORS
330
47
102
}
330
47
100
AcDbScale
 70
     0
300
1/32" = 1'-0"
140
0.03125
141
12.0
290
     0
  0
SCALE
  5
5C
102
{ACAD_REACTORS
330
47
102
}
330
47
100
AcDbScale
 70
     0
300
1/16" = 1'-0"
140
0.0625
141
12.0
290
     0
  0
SCALE
  5
5D
102
{ACAD_REACTORS
330
47
102
}
330
47
100
AcDbScale
 70
     0
300
3/32" = 1'-0"
140
0.09375
141
12.0
290
     0
  0
SCALE
  5
5E
102
{ACAD_REACTORS
330
47
102
}
330
47
100
AcDbScale
 70
     0
300
1/8" = 1'-0"
140
0.125
141
12.0
290
     0
  0
SCALE
  5
5F
102
{ACAD_REACTORS
330
47
102
}
330
47
100
AcDbScale
 70
     0
300
3/16" = 1'-0"
140
0.1875
141
12.0
290
     0
  0
SCALE
  5
60
102
{ACAD_REACTORS
330
47
102
}
330
47
100
AcDbScale
 70
     0
300
1/4" = 1'-0"
140
0.25
141
12.0
290
     0
  0
SCALE
  5
61
102
{ACAD_REACTORS
330
47
102
}
330
47
100
AcDbScale
 70
     0
300
3/8" = 1'-0"
140
0.375
141
12.0
290
     0
  0
SCALE
  5
62
102
{ACAD_REACTORS
330
47
102
}
330
47
100
AcDbScale
 70
     0
300
1/2" = 1'-0"
140
0.5
141
12.0
290
     0
  0
SCALE
  5
63
102
{ACAD_REACTORS
330
47
102
}
330
47
100
AcDbScale
 70
     0
300
3/4" = 1'-0"
140
0.75
141
12.0
290
     0
  0
SCALE
  5
64
102
{ACAD_REACTORS
330
47
102
}
330
47
100
AcDbScale
 70
     0
300
1" = 1'-0"
140
1.0
141
12.0
290
     0
  0
SCALE
  5
65
102
{ACAD_REACTORS
330
47
102
}
330
47
100
AcDbScale
 70
     0
300
1-1/2" = 1'-0"
140
1.5
141
12.0
290
     0
  0
SCALE
  5
66
102
{ACAD_REACTORS
330
47
102
}
330
47
100
AcDbScale
 70
     0
300
3" = 1'-0"
140
3.0
141
12.0
290
     0
  0
SCALE
  5
67
102
{ACAD_REACTORS
330
47
102
}
330
47
100
AcDbScale
 70
     0
300
6" = 1'-0"
140
6.0
141
12.0
290
     0
  0
SCALE
  5
68
102
{ACAD_REACTORS
330
47
102
}
330
47
100
AcDbScale
 70
     0
300
1'-0" = 1'-0"
140
12.0
141
12.0
290
     0
  0
ENDSEC
  0
EOF
