{
  "cover_image": {
    "updated": "2020-03-25T20:46:42.201Z",
    "size": 54616,
    "contentType": "image/jpeg",
    "downloadUrl": "https://firebasestorage.googleapis.com/v0/b/onearmyworld.appspot.com/o/uploads%2Fv3_howtos%2F8rlcYBbp9cQIuWKvWI2r%2Fdoor-cover%20image.jpg?alt=media&token=8b15a5f6-e4e3-4532-8316-d988943a25ff",
    "fullPath": "uploads/v3_howtos/8rlcYBbp9cQIuWKvWI2r/door-cover image.jpg",
    "timeCreated": "2020-03-25T20:46:42.201Z",
    "type": "image/jpeg",
    "name": "door-cover image.jpg"
  },
  "slug": "hands-free-door-opener",
  "caption": "Door opener (for heavy doors)",
  "tags": [
    "mould",
    "product"
  ],
  "difficulty_level": "Hard",
  "files": [
    {
      "contentType": "application/x-zip-compressed",
      "updated": "2020-03-25T19:55:26.867Z",
      "size": 649725,
      "downloadUrl": "https://firebasestorage.googleapis.com/v0/b/onearmyworld.appspot.com/o/uploads%2Fv3_howtos%2F8rlcYBbp9cQIuWKvWI2r%2Fbig%20part%20ready%20to%20mill.zip?alt=media&token=2da4847b-3352-49bb-8849-1ee0e51dfa93",
      "name": "big part ready to mill.zip",
      "timeCreated": "2020-03-25T19:55:26.867Z",
      "type": "application/x-zip-compressed",
      "fullPath": "uploads/v3_howtos/8rlcYBbp9cQIuWKvWI2r/big part ready to mill.zip"
    },
    {
      "fullPath": "uploads/v3_howtos/8rlcYBbp9cQIuWKvWI2r/small.part.readytomill.zip",
      "timeCreated": "2020-03-25T19:55:24.903Z",
      "contentType": "application/x-zip-compressed",
      "updated": "2020-03-25T19:55:24.903Z",
      "size": 214613,
      "type": "application/x-zip-compressed",
      "downloadUrl": "https://firebasestorage.googleapis.com/v0/b/onearmyworld.appspot.com/o/uploads%2Fv3_howtos%2F8rlcYBbp9cQIuWKvWI2r%2Fsmall.part.readytomill.zip?alt=media&token=55ef72d2-d694-4003-90e1-4dc80ea9f96f",
      "name": "small.part.readytomill.zip"
    }
  ],
  "_deleted": false,
  "title": "Hands-Free Door Opener",
  "time": "< 1 week",
  "description": "With this How-to you can make your mould to inject a \"hands free\" door handle - to help stop the spread of COVID-19!",
  "moderation": "accepted",
  "_id": "8rlcYBbp9cQIuWKvWI2r",
  "_createdBy": "alumoulds",
  "_modified": "2020-03-27T15:57:30.214Z",
  "_created": "2020-03-22T18:36:58.384Z",
  "steps": [
    {
      "images": [
        {
          "fullPath": "uploads/v3_howtos/8rlcYBbp9cQIuWKvWI2r/mould.jpg",
          "size": 50368,
          "name": "mould.jpg",
          "contentType": "image/jpeg",
          "timeCreated": "2020-03-25T22:20:27.128Z",
          "updated": "2020-03-25T22:20:27.128Z",
          "type": "image/jpeg",
          "downloadUrl": "https://firebasestorage.googleapis.com/v0/b/onearmyworld.appspot.com/o/uploads%2Fv3_howtos%2F8rlcYBbp9cQIuWKvWI2r%2Fmould.jpg?alt=media&token=a808b1bd-4aba-41ec-b1ff-c6d04eaad7d1"
        }
      ],
      "caption": "",
      "title": "Download and mill the moulds",
      "_animationKey": "unique1",
      "text": "Attached you can find the CNC-files I created based on the 3D files provided by Materialise.\n(https://www.materialise.com/en/hands-free-door-opener/technical-information)\n\nDownload the files, CNC cut your aluminium mould and add required screws to close the mould.\n"
    },
    {
      "text": "Once you injected your parts with your injection machine, you can assemble the product.\n\nYou'll need:\n- The two injected parts\n- 2x M4 screws and Nuts\n- 1x bike tube for in between\n\nYou can find more instructions for assembly here:\nhttps://www.youtube.com/watch?time_continue=163&v=95aPYlXShTY&feature=emb_logo",
      "images": [
        {
          "type": "image/jpeg",
          "timeCreated": "2020-03-27T15:57:10.120Z",
          "fullPath": "uploads/v3_howtos/8rlcYBbp9cQIuWKvWI2r/door-step 2-1.jpg",
          "updated": "2020-03-27T15:57:10.120Z",
          "name": "door-step 2-1.jpg",
          "contentType": "image/jpeg",
          "size": 87790,
          "downloadUrl": "https://firebasestorage.googleapis.com/v0/b/onearmyworld.appspot.com/o/uploads%2Fv3_howtos%2F8rlcYBbp9cQIuWKvWI2r%2Fdoor-step%202-1.jpg?alt=media&token=f09331f7-cca3-445b-9daf-3018f032d8f9"
        },
        {
          "name": "door-step 2-2.jpg",
          "type": "image/jpeg",
          "size": 64912,
          "timeCreated": "2020-03-27T15:57:09.297Z",
          "updated": "2020-03-27T15:57:09.297Z",
          "contentType": "image/jpeg",
          "fullPath": "uploads/v3_howtos/8rlcYBbp9cQIuWKvWI2r/door-step 2-2.jpg",
          "downloadUrl": "https://firebasestorage.googleapis.com/v0/b/onearmyworld.appspot.com/o/uploads%2Fv3_howtos%2F8rlcYBbp9cQIuWKvWI2r%2Fdoor-step%202-2.jpg?alt=media&token=7bda4671-8326-4fae-ab1d-d92e55e7df3b"
        },
        {
          "name": "door-step 2-3.jpg",
          "contentType": "image/jpeg",
          "size": 63708,
          "fullPath": "uploads/v3_howtos/8rlcYBbp9cQIuWKvWI2r/door-step 2-3.jpg",
          "timeCreated": "2020-03-27T15:57:09.227Z",
          "updated": "2020-03-27T15:57:09.227Z",
          "type": "image/jpeg",
          "downloadUrl": "https://firebasestorage.googleapis.com/v0/b/onearmyworld.appspot.com/o/uploads%2Fv3_howtos%2F8rlcYBbp9cQIuWKvWI2r%2Fdoor-step%202-3.jpg?alt=media&token=8c2df737-23a1-46f3-ab73-9e6a73943f4d"
        }
      ],
      "_animationKey": "uniquev789w9",
      "title": "Inject and assemble"
    },
    {
      "text": "Do less harm, use your arm :)\n\nOh, and If you prefer to buy the mould, you can order it from me on the bazar:\nhttps://bazar.preciousplastic.com/index.php?dispatch=products.view&product_id=281\n\n\n\n\n",
      "_animationKey": "unique0rzqym",
      "title": "Use it!",
      "images": [
        {
          "updated": "2020-03-25T22:18:35.835Z",
          "timeCreated": "2020-03-25T22:18:35.835Z",
          "fullPath": "uploads/v3_howtos/8rlcYBbp9cQIuWKvWI2r/door-step 3.jpg",
          "type": "image/jpeg",
          "name": "door-step 3.jpg",
          "downloadUrl": "https://firebasestorage.googleapis.com/v0/b/onearmyworld.appspot.com/o/uploads%2Fv3_howtos%2F8rlcYBbp9cQIuWKvWI2r%2Fdoor-step%203.jpg?alt=media&token=6be473f1-4c00-41f7-bbd4-9df99235c4b6",
          "size": 48498,
          "contentType": "image/jpeg"
        }
      ]
    }
  ]
}