{
    "shredder_1p_table": [
        [
            "Motor Power",
            "Plastic thickness",
            "Results",
            "Jams"
        ],
        [
            "2.2 Kw",
            "~3 mm",
            "Ok",
            "Often"
        ],
        [
            "3 Kw",
            "~4 mm",
            "Better",
            "Occassionally"
        ]
    ]
}