{
    "slug" : "${slug}",
    "category" : "project",
    "product_name":"${name}",
    "product_3d" : "${preview-3d}",
    "product_overview": "${overview}",
    "product_perspective": "${rendering-perspective}",
    "download" : "${site}/archives/${slug}.zip"
}