  0
SECTION
  2
HEADER
  9
$ACADVER
  1
AC1015
  9
$ACADMAINTVER
 70
     6
  9
$DWGCODEPAGE
  3
ANSI_1252
  9
$INSBASE
 10
0.0
 20
0.0
 30
0.0
  9
$EXTMIN
 10
-143.1415926536
 20
-392.4225651046
 30
0.0
  9
$EXTMAX
 10
143.1415926536
 20
392.4225651046
 30
0.0
  9
$LIMMIN
 10
0.0
 20
0.0
  9
$LIMMAX
 10
420.0
 20
297.0
  9
$ORTHOMODE
 70
     0
  9
$REGENMODE
 70
     1
  9
$FILLMODE
 70
     1
  9
$QTEXTMODE
 70
     0
  9
$MIRRTEXT
 70
     1
  9
$LTSCALE
 40
1.0
  9
$ATTMODE
 70
     1
  9
$TEXTSIZE
 40
3.5
  9
$TRACEWID
 40
1.0
  9
$TEXTSTYLE
  7
Standard
  9
$CLAYER
  8
0
  9
$CELTYPE
  6
ByLayer
  9
$CECOLOR
 62
   256
  9
$CELTSCALE
 40
1.0
  9
$DISPSILH
 70
     0
  9
$DIMSCALE
 40
1.0
  9
$DIMASZ
 40
3.302
  9
$DIMEXO
 40
1.0
  9
$DIMDLI
 40
3.75
  9
$DIMRND
 40
0.0
  9
$DIMDLE
 40
0.0
  9
$DIMEXE
 40
1.0
  9
$DIMTP
 40
0.0
  9
$DIMTM
 40
0.0
  9
$DIMTXT
 40
3.5
  9
$DIMCEN
 40
2.5
  9
$DIMTSZ
 40
0.0
  9
$DIMTOL
 70
     0
  9
$DIMLIM
 70
     0
  9
$DIMTIH
 70
     1
  9
$DIMTOH
 70
     1
  9
$DIMSE1
 70
     0
  9
$DIMSE2
 70
     0
  9
$DIMTAD
 70
     1
  9
$DIMZIN
 70
     1
  9
$DIMBLK
  1

  9
$DIMASO
 70
     1
  9
$DIMSHO
 70
     1
  9
$DIMPOST
  1

  9
$DIMAPOST
  1

  9
$DIMALT
 70
     0
  9
$DIMALTD
 70
     3
  9
$DIMALTF
 40
0.0393700787
  9
$DIMLFAC
 40
1.0
  9
$DIMTOFL
 70
     1
  9
$DIMTVP
 40
0.0
  9
$DIMTIX
 70
     0
  9
$DIMSOXD
 70
     0
  9
$DIMSAH
 70
     0
  9
$DIMBLK1
  1

  9
$DIMBLK2
  1

  9
$DIMSTYLE
  2
ISO-25
  9
$DIMCLRD
 70
     0
  9
$DIMCLRE
 70
     0
  9
$DIMCLRT
 70
     0
  9
$DIMTFAC
 40
1.0
  9
$DIMGAP
 40
1.524
  9
$DIMJUST
 70
     0
  9
$DIMSD1
 70
     0
  9
$DIMSD2
 70
     0
  9
$DIMTOLJ
 70
     0
  9
$DIMTZIN
 70
     1
  9
$DIMALTZ
 70
     0
  9
$DIMALTTZ
 70
     0
  9
$DIMUPT
 70
     0
  9
$DIMDEC
 70
     2
  9
$DIMTDEC
 70
     2
  9
$DIMALTU
 70
     2
  9
$DIMALTTD
 70
     3
  9
$DIMTXSTY
  7
Standard
  9
$DIMAUNIT
 70
     0
  9
$DIMADEC
 70
     2
  9
$DIMALTRND
 40
0.0
  9
$DIMAZIN
 70
     0
  9
$DIMDSEP
 70
    44
  9
$DIMATFIT
 70
     3
  9
$DIMFRAC
 70
     0
  9
$DIMLDRBLK
  1

  9
$DIMLUNIT
 70
     2
  9
$DIMLWD
 70
    -2
  9
$DIMLWE
 70
    -2
  9
$DIMTMOVE
 70
     0
  9
$LUNITS
 70
     2
  9
$LUPREC
 70
     2
  9
$SKETCHINC
 40
1.0
  9
$FILLETRAD
 40
10.0
  9
$AUNITS
 70
     0
  9
$AUPREC
 70
     2
  9
$MENU
  1
.
  9
$ELEVATION
 40
0.0
  9
$PELEVATION
 40
0.0
  9
$THICKNESS
 40
0.0
  9
$LIMCHECK
 70
     0
  9
$CHAMFERA
 40
0.0
  9
$CHAMFERB
 40
0.0
  9
$CHAMFERC
 40
0.0
  9
$CHAMFERD
 40
0.0
  9
$SKPOLY
 70
     0
  9
$TDCREATE
 40
2459232.835173044
  9
$TDUCREATE
 40
2459232.793506377
  9
$TDUPDATE
 40
2459232.835324167
  9
$TDUUPDATE
 40
2459232.7936575
  9
$TDINDWG
 40
0.0000000116
  9
$TDUSRTIMER
 40
0.0000000116
  9
$USRTIMER
 70
     1
  9
$ANGBASE
 50
0.0
  9
$ANGDIR
 70
     0
  9
$PDMODE
 70
     0
  9
$PDSIZE
 40
-1.0
  9
$PLINEWID
 40
0.0
  9
$SPLFRAME
 70
     0
  9
$SPLINETYPE
 70
     6
  9
$SPLINESEGS
 70
     8
  9
$HANDSEED
  5
A3
  9
$SURFTAB1
 70
     6
  9
$SURFTAB2
 70
     6
  9
$SURFTYPE
 70
     6
  9
$SURFU
 70
     6
  9
$SURFV
 70
     6
  9
$UCSBASE
  2

  9
$UCSNAME
  2

  9
$UCSORG
 10
0.0
 20
0.0
 30
0.0
  9
$UCSXDIR
 10
1.0
 20
0.0
 30
0.0
  9
$UCSYDIR
 10
0.0
 20
1.0
 30
0.0
  9
$UCSORTHOREF
  2

  9
$UCSORTHOVIEW
 70
     0
  9
$UCSORGTOP
 10
0.0
 20
0.0
 30
0.0
  9
$UCSORGBOTTOM
 10
0.0
 20
0.0
 30
0.0
  9
$UCSORGLEFT
 10
0.0
 20
0.0
 30
0.0
  9
$UCSORGRIGHT
 10
0.0
 20
0.0
 30
0.0
  9
$UCSORGFRONT
 10
0.0
 20
0.0
 30
0.0
  9
$UCSORGBACK
 10
0.0
 20
0.0
 30
0.0
  9
$PUCSBASE
  2

  9
$PUCSNAME
  2

  9
$PUCSORG
 10
0.0
 20
0.0
 30
0.0
  9
$PUCSXDIR
 10
1.0
 20
0.0
 30
0.0
  9
$PUCSYDIR
 10
0.0
 20
1.0
 30
0.0
  9
$PUCSORTHOREF
  2

  9
$PUCSORTHOVIEW
 70
     0
  9
$PUCSORGTOP
 10
0.0
 20
0.0
 30
0.0
  9
$PUCSORGBOTTOM
 10
0.0
 20
0.0
 30
0.0
  9
$PUCSORGLEFT
 10
0.0
 20
0.0
 30
0.0
  9
$PUCSORGRIGHT
 10
0.0
 20
0.0
 30
0.0
  9
$PUCSORGFRONT
 10
0.0
 20
0.0
 30
0.0
  9
$PUCSORGBACK
 10
0.0
 20
0.0
 30
0.0
  9
$USERI1
 70
     0
  9
$USERI2
 70
     0
  9
$USERI3
 70
     0
  9
$USERI4
 70
     0
  9
$USERI5
 70
     0
  9
$USERR1
 40
0.0
  9
$USERR2
 40
0.0
  9
$USERR3
 40
0.0
  9
$USERR4
 40
0.0
  9
$USERR5
 40
0.0
  9
$WORLDVIEW
 70
     1
  9
$SHADEDGE
 70
     3
  9
$SHADEDIF
 70
    70
  9
$TILEMODE
 70
     1
  9
$MAXACTVP
 70
    64
  9
$PINSBASE
 10
0.0
 20
0.0
 30
0.0
  9
$PLIMCHECK
 70
     0
  9
$PEXTMIN
 10
1.0000000000E+20
 20
1.0000000000E+20
 30
1.0000000000E+20
  9
$PEXTMAX
 10
-1.0000000000E+20
 20
-1.0000000000E+20
 30
-1.0000000000E+20
  9
$PLIMMIN
 10
0.0
 20
0.0
  9
$PLIMMAX
 10
420.0
 20
297.0
  9
$UNITMODE
 70
     0
  9
$VISRETAIN
 70
     1
  9
$PLINEGEN
 70
     0
  9
$PSLTSCALE
 70
     1
  9
$TREEDEPTH
 70
  3020
  9
$CMLSTYLE
  2
Standard
  9
$CMLJUST
 70
     0
  9
$CMLSCALE
 40
20.0
  9
$PROXYGRAPHICS
 70
     1
  9
$MEASUREMENT
 70
     1
  9
$CELWEIGHT
370
    -1
  9
$ENDCAPS
280
     0
  9
$JOINSTYLE
280
     0
  9
$LWDISPLAY
290
     1
  9
$INSUNITS
 70
     4
  9
$HYPERLINKBASE
  1

  9
$STYLESHEET
  1

  9
$XEDIT
290
     1
  9
$CEPSNTYPE
380
     0
  9
$PSTYLEMODE
290
     1
  9
$FINGERPRINTGUID
  2
{6e8aa39d-4a4d-472a-800a-2c84662370f6}
  9
$VERSIONGUID
  2
{FAEB1C32-E019-11D5-929B-00C0DF256EC4}
  9
$EXTNAMES
290
     1
  9
$PSVPSCALE
 40
0.0
  9
$OLESTARTUP
290
     0
  0
ENDSEC
  0
SECTION
  2
CLASSES
  0
CLASS
  1
ACDBDICTIONARYWDFLT
  2
AcDbDictionaryWithDefault
  3
ObjectDBX Classes
 90
        0
280
     0
281
     0
  0
CLASS
  1
VISUALSTYLE
  2
AcDbVisualStyle
  3
ObjectDBX Classes
 90
     4095
280
     0
281
     0
  0
CLASS
  1
MATERIAL
  2
AcDbMaterial
  3
ObjectDBX Classes
 90
     1153
280
     0
281
     0
  0
CLASS
  1
SCALE
  2
AcDbScale
  3
ObjectDBX Classes
 90
     1153
280
     0
281
     0
  0
CLASS
  1
TABLESTYLE
  2
AcDbTableStyle
  3
ObjectDBX Classes
 90
     4095
280
     0
281
     0
  0
CLASS
  1
MLEADERSTYLE
  2
AcDbMLeaderStyle
  3
ACDB_MLEADERSTYLE_CLASS
 90
     4095
280
     0
281
     0
  0
CLASS
  1
SUN
  2
AcDbSun
  3
SCENEOE
 90
     1153
280
     0
281
     0
  0
CLASS
  1
ACDBPLACEHOLDER
  2
AcDbPlaceHolder
  3
ObjectDBX Classes
 90
        0
280
     0
281
     0
  0
CLASS
  1
LAYOUT
  2
AcDbLayout
  3
ObjectDBX Classes
 90
        0
280
     0
281
     0
  0
ENDSEC
  0
SECTION
  2
TABLES
  0
TABLE
  2
VPORT
  5
8
330
0
100
AcDbSymbolTable
 70
     1
  0
VPORT
  5
29
330
8
100
AcDbSymbolTableRecord
100
AcDbViewportTableRecord
  2
*Active
 70
     0
 10
0.0
 20
0.0
 11
1.0
 21
1.0
 12
0.0
 22
0.0
 13
0.0
 23
0.0
 14
10.0
 24
10.0
 15
10.0
 25
10.0
 16
0.0
 26
0.0
 36
1.0
 17
0.0
 27
0.0
 37
0.0
 40
800.5420328133
 41
0.3647639188
 42
50.0
 43
0.0
 44
0.0
 50
0.0
 51
0.0
 71
     0
 72
   100
 73
     1
 74
     3
 75
     0
 76
     0
 77
     0
 78
     0
281
     0
 65
     1
110
0.0
120
0.0
130
0.0
111
1.0
121
0.0
131
0.0
112
0.0
122
1.0
132
0.0
 79
     0
146
0.0
  0
ENDTAB
  0
TABLE
  2
LTYPE
  5
5
330
0
100
AcDbSymbolTable
 70
     6
  0
LTYPE
  5
14
330
5
100
AcDbSymbolTableRecord
100
AcDbLinetypeTableRecord
  2
ByBlock
 70
     0
  3

 72
    65
 73
     0
 40
0.0
  0
LTYPE
  5
15
330
5
100
AcDbSymbolTableRecord
100
AcDbLinetypeTableRecord
  2
ByLayer
 70
     0
  3

 72
    65
 73
     0
 40
0.0
  0
LTYPE
  5
16
330
5
100
AcDbSymbolTableRecord
100
AcDbLinetypeTableRecord
  2
Continuous
 70
     0
  3
Solid line
 72
    65
 73
     0
 40
0.0
  0
LTYPE
  5
6E
330
5
100
AcDbSymbolTableRecord
100
AcDbLinetypeTableRecord
  2
HIDDEN
 70
     0
  3
Hidden __ __ __ __ __ __ __ __ __ __ __ __ __ __
 72
    65
 73
     2
 40
1.905
 49
1.27
 74
     0
 49
-0.635
 74
     0
  0
LTYPE
  5
6F
330
5
100
AcDbSymbolTableRecord
100
AcDbLinetypeTableRecord
  2
PHANTOM
 70
     0
  3
Phantom ______  __  __  ______  __  __  ______
 72
    65
 73
     6
 40
12.7
 49
6.35
 74
     0
 49
-1.27
 74
     0
 49
1.27
 74
     0
 49
-1.27
 74
     0
 49
1.27
 74
     0
 49
-1.27
 74
     0
  0
LTYPE
  5
70
330
5
100
AcDbSymbolTableRecord
100
AcDbLinetypeTableRecord
  2
CENTER
 70
     0
  3
Center ____ _ ____ _ ____ _ ____ _ ____ _ ____
 72
    65
 73
     4
 40
10.16
 49
6.35
 74
     0
 49
-1.27
 74
     0
 49
1.27
 74
     0
 49
-1.27
 74
     0
  0
LTYPE
  5
71
330
5
100
AcDbSymbolTableRecord
100
AcDbLinetypeTableRecord
  2
CENTERX2
 70
     0
  3
Center (2x) ________  __  ________  __  _____
 72
    65
 73
     4
 40
20.32
 49
12.7
 74
     0
 49
-2.54
 74
     0
 49
2.54
 74
     0
 49
-2.54
 74
     0
  0
LTYPE
  5
72
330
5
100
AcDbSymbolTableRecord
100
AcDbLinetypeTableRecord
  2
DOT2
 70
     0
  3
Dot (.5x) ........................................
 72
    65
 73
     2
 40
0.635
 49
0.0
 74
     0
 49
-0.635
 74
     0
  0
ENDTAB
  0
TABLE
  2
LAYER
  5
2
330
0
100
AcDbSymbolTable
 70
     1
  0
LAYER
  5
10
330
2
100
AcDbSymbolTableRecord
100
AcDbLayerTableRecord
  2
0
 70
     0
 62
     7
  6
Continuous
370
    -3
390
F
  0
ENDTAB
  0
TABLE
  2
STYLE
  5
3
330
0
100
AcDbSymbolTable
 70
     1
  0
STYLE
  5
11
330
3
100
AcDbSymbolTableRecord
100
AcDbTextStyleTableRecord
  2
Standard
 70
     0
 40
0.0
 41
1.0
 50
0.0
 71
     0
 42
3.5
  3
txt
  4

  0
ENDTAB
  0
TABLE
  2
VIEW
  5
6
330
0
100
AcDbSymbolTable
 70
     0
  0
ENDTAB
  0
TABLE
  2
UCS
  5
7
330
0
100
AcDbSymbolTable
 70
     0
  0
ENDTAB
  0
TABLE
  2
APPID
  5
9
330
0
100
AcDbSymbolTable
 70
     1
  0
APPID
  5
12
330
9
100
AcDbSymbolTableRecord
100
AcDbRegAppTableRecord
  2
ACAD
 70
     0
  0
ENDTAB
  0
TABLE
  2
DIMSTYLE
  5
A
330
0
100
AcDbSymbolTable
 70
     1
100
AcDbDimStyleTable
  0
DIMSTYLE
105
27
330
A
100
AcDbSymbolTableRecord
100
AcDbDimStyleTableRecord
  2
ISO-25
 70
     0
 41
2.5
 42
0.625
 43
3.75
 44
1.25
 73
     0
 74
     0
 77
     1
 78
     8
140
2.5
141
2.5
143
0.0393700787
147
0.625
171
     3
172
     1
178
     0
271
     2
272
     2
274
     3
278
    44
283
     0
284
     8
340
11
  0
ENDTAB
  0
TABLE
  2
BLOCK_RECORD
  5
1
330
0
100
AcDbSymbolTable
 70
     1
  0
BLOCK_RECORD
  5
1F
330
1
100
AcDbSymbolTableRecord
100
AcDbBlockTableRecord
  2
*Model_Space
340
22
  0
BLOCK_RECORD
  5
1B
330
1
100
AcDbSymbolTableRecord
100
AcDbBlockTableRecord
  2
*Paper_Space
340
1E
  0
BLOCK_RECORD
  5
23
330
1
100
AcDbSymbolTableRecord
100
AcDbBlockTableRecord
  2
*Paper_Space0
340
26
  0
ENDTAB
  0
ENDSEC
  0
SECTION
  2
BLOCKS
  0
BLOCK
  5
20
330
1F
100
AcDbEntity
  8
0
100
AcDbBlockBegin
  2
*Model_Space
 70
     0
 10
0.0
 20
0.0
 30
0.0
  3
*Model_Space
  1

  0
ENDBLK
  5
21
330
1F
100
AcDbEntity
  8
0
100
AcDbBlockEnd
  0
BLOCK
  5
1C
330
1B
100
AcDbEntity
 67
     1
  8
0
100
AcDbBlockBegin
  2
*Paper_Space
 70
     0
 10
0.0
 20
0.0
 30
0.0
  3
*Paper_Space
  1

  0
ENDBLK
  5
1D
330
1B
100
AcDbEntity
 67
     1
  8
0
100
AcDbBlockEnd
  0
BLOCK
  5
24
330
23
100
AcDbEntity
  8
0
100
AcDbBlockBegin
  2
*Paper_Space0
 70
     0
 10
0.0
 20
0.0
 30
0.0
  3
*Paper_Space0
  1

  0
ENDBLK
  5
25
330
23
100
AcDbEntity
  8
0
100
AcDbBlockEnd
  0
ENDSEC
  0
SECTION
  2
ENTITIES
  0
CIRCLE
  5
73
330
1F
100
AcDbEntity
  8
0
  6
Continuous
 62
     7
370
    25
100
AcDbCircle
 10
-133.1415926536
 20
367.5
 30
0.0
 40
5.499999999999972
  0
CIRCLE
  5
74
330
1F
100
AcDbEntity
  8
0
  6
Continuous
 62
     7
370
    25
100
AcDbCircle
 10
-133.1415926536
 20
-367.5
 30
0.0
 40
5.499999999999972
  0
CIRCLE
  5
75
330
1F
100
AcDbEntity
  8
0
  6
Continuous
 62
     7
370
    25
100
AcDbCircle
 10
133.1415926536
 20
367.5
 30
0.0
 40
5.5
  0
CIRCLE
  5
76
330
1F
100
AcDbEntity
  8
0
  6
Continuous
 62
     7
370
    25
100
AcDbCircle
 10
133.1415926536
 20
-367.5
 30
0.0
 40
5.5
  0
SPLINE
  5
7D
330
1F
100
AcDbEntity
  8
0
  6
Continuous
 62
     7
370
    25
100
AcDbSpline
210
0.0
220
0.0
230
1.0
 70
     8
 71
     3
 72
    40
 73
    36
 74
     0
 42
0.000000001
 43
0.00000001
 40
0.0
 40
0.0
 40
0.0
 40
0.0
 40
0.0057166350092169
 40
0.0057166350092169
 40
0.0085749525138254
 40
0.0085749525138254
 40
0.0100041112661296
 40
0.0100041112661296
 40
0.0114332700184338
 40
0.0114332700184338
 40
0.0121478493945859
 40
0.0121478493945859
 40
0.012862428770738
 40
0.012862428770738
 40
0.0142915875230423
 40
0.0142915875230423
 40
0.0150061668991944
 40
0.0150061668991944
 40
0.0157207462753465
 40
0.0157207462753465
 40
0.0171499050276507
 40
0.0171499050276507
 40
0.0178644844038028
 40
0.0178644844038028
 40
0.0185790637799549
 40
0.0185790637799549
 40
0.0200082225322592
 40
0.0200082225322592
 40
0.0207228019084113
 40
0.0207228019084113
 40
0.0214373812845634
 40
0.0214373812845634
 40
0.0221519606607155
 40
0.0221519606607155
 40
0.0228665400368676
 40
0.0228665400368676
 40
0.0228665400368676
 40
0.0228665400368676
 10
-143.1415926535703
 20
-374.9343650813896
 30
0.0
 10
-141.236047650498
 20
-374.9343650814425
 30
0.0
 10
-139.3305026474257
 20
-374.9343650813896
 30
0.0
 10
-136.4721851428172
 20
-374.9343650813896
 30
0.0
 10
-135.5194126412811
 20
-374.9343650813897
 30
0.0
 10
-134.0902538889769
 20
-374.9343650813897
 30
0.0
 10
-133.6138676317285
 20
-374.9345672385035
 30
0.0
 10
-132.6610951432122
 20
-374.9341610887556
 30
0.0
 10
-132.1924377929191
 20
-374.8884187442823
 30
0.0
 10
-131.5018518929643
 20
-374.7550678144408
 30
0.0
 10
-131.2736655429974
 20
-374.699705468205
 30
0.0
 10
-130.8213551572437
 20
-374.5669154583551
 30
0.0
 10
-130.5961104568815
 20
-374.4890247079462
 30
0.0
 10
-129.9353051274594
 20
-374.2242077742607
 30
0.0
 10
-129.5178501494174
 20
-374.007995145141
 30
0.0
 10
-128.9247819871049
 20
-373.6267667619189
 30
0.0
 10
-128.7326548830033
 20
-373.4901314291878
 30
0.0
 10
-128.3598486917071
 20
-373.1971864800302
 30
0.0
 10
-128.1794785365942
 20
-373.0409223824919
 30
0.0
 10
-127.6673285220991
 20
-372.5523369008851
 30
0.0
 10
-127.360279063133
 20
-372.1972498247269
 30
0.0
 10
-126.9502235896106
 20
-371.6214768379891
 30
0.0
 10
-126.8215752138767
 20
-371.4215145902311
 30
0.0
 10
-126.5840052345193
 20
-371.010135390554
 30
0.0
 10
-126.4758958207141
 20
-370.8003110776938
 30
0.0
 10
-126.1828952095864
 20
-370.1587047645374
 30
0.0
 10
-126.029094116316
 20
-369.7148813849667
 30
0.0
 10
-125.861412303923
 20
-369.0247383675506
 30
0.0
 10
-125.8162150859799
 20
-368.7901615733813
 30
0.0
 10
-125.7490343606486
 20
-368.3220488053502
 30
0.0
 10
-125.7268555352385
 20
-368.087372927356
 30
0.0
 10
-125.7042774634526
 20
-367.6168388312697
 30
0.0
 10
-125.7072275721806
 20
-367.3807987879534
 30
0.0
 10
-125.7072275721806
 20
-366.9090390042834
 30
0.0
 10
-125.7072275721806
 20
-366.6731591124486
 30
0.0
 10
-125.7072275721806
 20
-366.4372792206135
 30
0.0
  0
SPLINE
  5
7F
330
1F
100
AcDbEntity
  8
0
  6
Continuous
 62
     7
370
    25
100
AcDbSpline
210
0.0
220
0.0
230
1.0
 70
     8
 71
     3
 72
    42
 73
    38
 74
     0
 42
0.000000001
 43
0.00000001
 40
0.0002054974992027
 40
0.0002054974992027
 40
0.0002054974992027
 40
0.0002054974992027
 40
0.0009092885765793
 40
0.0009092885765793
 40
0.0016130796539559
 40
0.0016130796539559
 40
0.003020661808709
 40
0.003020661808709
 40
0.0037244528860856
 40
0.0037244528860856
 40
0.0044282439634622
 40
0.0044282439634622
 40
0.0058358261182154
 40
0.0058358261182154
 40
0.0072434082729686
 40
0.0072434082729686
 40
0.0079471993503451
 40
0.0079471993503451
 40
0.0086509904277217
 40
0.0086509904277217
 40
0.0100585725824749
 40
0.0100585725824749
 40
0.0107623636598515
 40
0.0107623636598515
 40
0.0114661547372281
 40
0.0114661547372281
 40
0.0121699458146047
 40
0.0121699458146047
 40
0.0125218413532929
 40
0.0125218413532929
 40
0.0128737368919812
 40
0.0128737368919812
 40
0.0142813190467344
 40
0.0142813190467344
 40
0.0170964833562407
 40
0.0170964833562407
 40
0.0227268119752534
 40
0.0227268119752534
 40
0.0227268119752534
 40
0.0227268119752534
 10
-125.7072275721807
 20
366.4372792206135
 30
0.0
 10
-125.7072275721807
 20
366.672760509564
 30
0.0
 10
-125.7072275721807
 20
366.9082417985144
 30
0.0
 10
-125.7072275721807
 20
367.3792043764154
 30
0.0
 10
-125.7042478044973
 20
367.6149446272094
 30
0.0
 10
-125.7378230724316
 20
368.3184705775643
 30
0.0
 10
-125.8035219243655
 20
368.7837234835651
 30
0.0
 10
-125.9706436322016
 20
369.4756433505132
 30
0.0
 10
-126.0381337369927
 20
369.7059960237189
 30
0.0
 10
-126.1931876181328
 20
370.1543532416766
 30
0.0
 10
-126.2809715527951
 20
370.3735969950214
 30
0.0
 10
-126.5748115965968
 20
371.0166597215003
 30
0.0
 10
-126.8110544934693
 20
371.4263447868638
 30
0.0
 10
-127.3657180353315
 20
372.2046053152779
 30
0.0
 10
-127.6755569811203
 20
372.5611932552994
 30
0.0
 10
-128.1879024097767
 20
373.0484367005205
 30
0.0
 10
-128.3666411466372
 20
373.2028856512936
 30
0.0
 10
-128.7402002595537
 20
373.4956845249042
 30
0.0
 10
-128.9359295437883
 20
373.6345141755675
 30
0.0
 10
-129.5358174228614
 20
374.0183206260644
 30
0.0
 10
-129.9552648025435
 20
374.2335370833919
 30
0.0
 10
-130.6137217403824
 20
374.4953744282662
 30
0.0
 10
-130.8380866262462
 20
374.5724926060096
 30
0.0
 10
-131.2968701183164
 20
374.7057922535449
 30
0.0
 10
-131.528160798721
 20
374.7610287033033
 30
0.0
 10
-131.9928089892349
 20
374.8488752098202
 30
0.0
 10
-132.2264328795962
 20
374.8815932565058
 30
0.0
 10
-132.5788058150231
 20
374.913971075788
 30
0.0
 10
-132.6966013774997
 20
374.9218505818945
 30
0.0
 10
-132.9327790654168
 20
374.9325529823728
 30
0.0
 10
-133.0512785611857
 20
374.9343640567337
 30
0.0
 10
-133.6448255859183
 20
374.934371557189
 30
0.0
 10
-134.1196646529223
 20
374.9343650813897
 30
0.0
 10
-135.5441796003931
 20
374.9343650813895
 30
0.0
 10
-136.4938562320402
 20
374.9343650813896
 30
0.0
 10
-139.3428861269817
 20
374.9343650813896
 30
0.0
 10
-141.242239390276
 20
374.9343650813896
 30
0.0
 10
-143.1415926535703
 20
374.9343650813896
 30
0.0
  0
SPLINE
  5
89
330
1F
100
AcDbEntity
  8
0
  6
Continuous
 62
     7
370
    25
100
AcDbSpline
210
0.0
220
0.0
230
1.0
 70
     8
 71
     3
 72
    40
 73
    36
 74
     0
 42
0.000000001
 43
0.00000001
 40
0.0
 40
0.0
 40
0.0
 40
0.0
 40
0.0057166559755436
 40
0.0057166559755436
 40
0.0085749839633154
 40
0.0085749839633154
 40
0.0100041479572012
 40
0.0100041479572012
 40
0.0114333119510871
 40
0.0114333119510871
 40
0.0121478939480301
 40
0.0121478939480301
 40
0.012862475944973
 40
0.012862475944973
 40
0.0142916399388589
 40
0.0142916399388589
 40
0.0150062219358019
 40
0.0150062219358019
 40
0.0157208039327448
 40
0.0157208039327448
 40
0.0171499679266307
 40
0.0171499679266307
 40
0.0178645499235736
 40
0.0178645499235736
 40
0.0185791319205166
 40
0.0185791319205166
 40
0.0200082959144025
 40
0.0200082959144025
 40
0.0207228779113454
 40
0.0207228779113454
 40
0.0214374599082884
 40
0.0214374599082884
 40
0.0221520419052313
 40
0.0221520419052313
 40
0.0228666239021743
 40
0.0228666239021743
 40
0.0228666239021743
 40
0.0228666239021743
 10
143.1415926536093
 20
374.9343650813897
 30
0.0
 10
141.2360406617615
 20
374.9343650813897
 30
0.0
 10
139.3304886699136
 20
374.9343650813897
 30
0.0
 10
136.4721606821418
 20
374.9343650813897
 30
0.0
 10
135.5193846862179
 20
374.9343650813897
 30
0.0
 10
134.090220692332
 20
374.9343650813897
 30
0.0
 10
133.6138326911023
 20
374.9345689599646
 30
0.0
 10
132.6610567017441
 20
374.934159335879
 30
0.0
 10
132.1920414716606
 20
374.8884142432715
 30
0.0
 10
131.500399932484
 20
374.7547513004002
 30
0.0
 10
131.271777954846
 20
374.6992336754748
 30
0.0
 10
130.8184364645288
 20
374.5659753375311
 30
0.0
 10
130.5925926508242
 20
374.4877241045649
 30
0.0
 10
129.9334433513699
 20
374.2232411385853
 30
0.0
 10
129.5162945652733
 20
374.0071558364798
 30
0.0
 10
128.922844433087
 20
373.6254404201563
 30
0.0
 10
128.7304479671168
 20
373.4885301576602
 30
0.0
 10
128.3568648318696
 20
373.194707066595
 30
0.0
 10
128.1773574141749
 20
373.0390085059092
 30
0.0
 10
127.6661485928178
 20
372.5509902058993
 30
0.0
 10
127.3591004993523
 20
372.1958724562564
 30
0.0
 10
126.9485906446611
 20
371.6190440876813
 30
0.0
 10
126.8195476569107
 20
371.4182125601823
 30
0.0
 10
126.5827216089749
 20
371.0077007944144
 30
0.0
 10
126.4748417961973
 20
370.7981705812302
 30
0.0
 10
126.1822602411148
 20
370.1569767906506
 30
0.0
 10
126.0283744430424
 20
369.7128082400063
 30
0.0
 10
125.8606049256668
 20
369.0209662790871
 30
0.0
 10
125.8156705263748
 20
368.7869786023375
 30
0.0
 10
125.748797617144
 20
368.3197805081577
 30
0.0
 10
125.7267296257934
 20
368.0854916232893
 30
0.0
 10
125.7042538702865
 20
367.6155995120574
 30
0.0
 10
125.7072275722196
 20
367.3797910985018
 30
0.0
 10
125.7072275722196
 20
366.9085351595577
 30
0.0
 10
125.7072275722196
 20
366.6729071900857
 30
0.0
 10
125.7072275722196
 20
366.4372792206135
 30
0.0
  0
SPLINE
  5
8B
330
1F
100
AcDbEntity
  8
0
  6
Continuous
 62
     7
370
    25
100
AcDbSpline
210
0.0
220
0.0
230
1.0
 70
     8
 71
     3
 72
    42
 73
    38
 74
     0
 42
0.000000001
 43
0.00000001
 40
0.0002054974992032
 40
0.0002054974992032
 40
0.0002054974992032
 40
0.0002054974992032
 40
0.0009092885765767
 40
0.0009092885765767
 40
0.0016130796539502
 40
0.0016130796539502
 40
0.0030206618086973
 40
0.0030206618086973
 40
0.0037244528860708
 40
0.0037244528860708
 40
0.0044282439634443
 40
0.0044282439634443
 40
0.0058358261181913
 40
0.0058358261181913
 40
0.0072434082729384
 40
0.0072434082729384
 40
0.0079471993503119
 40
0.0079471993503119
 40
0.0086509904276854
 40
0.0086509904276854
 40
0.0100585725824324
 40
0.0100585725824324
 40
0.010762363659806
 40
0.010762363659806
 40
0.0114661547371795
 40
0.0114661547371795
 40
0.012169945814553
 40
0.012169945814553
 40
0.0125218413532398
 40
0.0125218413532398
 40
0.0128737368919265
 40
0.0128737368919265
 40
0.0142813190466736
 40
0.0142813190466736
 40
0.0170964833561676
 40
0.0170964833561676
 40
0.0227268119751558
 40
0.0227268119751558
 40
0.0227268119751558
 40
0.0227268119751558
 10
125.7072275722197
 20
-366.4372792206138
 30
0.0
 10
125.7072275722197
 20
-366.6727605095633
 30
0.0
 10
125.7072275722197
 20
-366.9082417985127
 30
0.0
 10
125.7072275722197
 20
-367.3792043764113
 30
0.0
 10
125.7042478045437
 20
-367.6149446272035
 30
0.0
 10
125.7378230724565
 20
-368.3184705775571
 30
0.0
 10
125.8035219244029
 20
-368.7837234835548
 30
0.0
 10
125.9706436322346
 20
-369.4756433505008
 30
0.0
 10
126.0381337370255
 20
-369.7059960237052
 30
0.0
 10
126.1931876181651
 20
-370.1543532416595
 30
0.0
 10
126.2809715528262
 20
-370.3735969950033
 30
0.0
 10
126.5748115966273
 20
-371.0166597214769
 30
0.0
 10
126.8110544935027
 20
-371.4263447868339
 30
0.0
 10
127.3657180353617
 20
-372.2046053152444
 30
0.0
 10
127.6755569811396
 20
-372.561193255273
 30
0.0
 10
128.1879024097829
 20
-373.048436700501
 30
0.0
 10
128.3666411466421
 20
-373.2028856512732
 30
0.0
 10
128.7402002595585
 20
-373.4956845248795
 30
0.0
 10
128.9359295437948
 20
-373.6345141755398
 30
0.0
 10
129.5358174228731
 20
-374.0183206260322
 30
0.0
 10
129.9552648025543
 20
-374.2335370833658
 30
0.0
 10
130.6137217403841
 20
-374.4953744282649
 30
0.0
 10
130.8380866262466
 20
-374.5724926060128
 30
0.0
 10
131.2968701183183
 20
-374.7057922535487
 30
0.0
 10
131.5281607987255
 20
-374.7610287033006
 30
0.0
 10
131.9928089892431
 20
-374.8488752098057
 30
0.0
 10
132.2264328796045
 20
-374.8815932564985
 30
0.0
 10
132.5788058150318
 20
-374.9139710757894
 30
0.0
 10
132.6966013775092
 20
-374.9218505818928
 30
0.0
 10
132.932779065427
 20
-374.9325529823717
 30
0.0
 10
133.0512785611961
 20
-374.9343640567337
 30
0.0
 10
133.6448255859304
 20
-374.934371557189
 30
0.0
 10
134.1196646529358
 20
-374.9343650813896
 30
0.0
 10
135.5441796004105
 20
-374.9343650813896
 30
0.0
 10
136.4938562320604
 20
-374.9343650813897
 30
0.0
 10
139.3428861270099
 20
-374.9343650813897
 30
0.0
 10
141.2422393903096
 20
-374.9343650813896
 30
0.0
 10
143.1415926536093
 20
-374.9343650813897
 30
0.0
  0
LINE
  5
8F
330
1F
100
AcDbEntity
  8
0
  6
Continuous
 62
     7
370
    25
100
AcDbLine
 10
122.4343650814
 20
-392.4225651046
 30
0.0
 11
122.4343650814
 21
-367.5
 31
0.0
  0
LINE
  5
90
330
1F
100
AcDbEntity
  8
0
  6
Continuous
 62
     7
370
    25
100
AcDbLine
 10
122.4343650814
 20
-392.4225651046
 30
0.0
 11
-122.4343650814
 21
-392.4225651046
 31
0.0
  0
LINE
  5
91
330
1F
100
AcDbEntity
  8
0
  6
Continuous
 62
     7
370
    25
100
AcDbLine
 10
-122.4343650814
 20
-367.5
 30
0.0
 11
-122.4343650814
 21
-392.4225651046
 31
0.0
  0
LINE
  5
92
330
1F
100
AcDbEntity
  8
0
  6
Continuous
 62
     7
370
    25
100
AcDbLine
 10
-125.6415926536
 20
-366.371644302
 30
0.0
 11
-122.5
 21
-366.684546095
 31
0.0
  0
LINE
  5
93
330
1F
100
AcDbEntity
  8
0
  6
Continuous
 62
     7
370
    25
100
AcDbLine
 10
-125.7072275722
 20
-366.4372792206
 30
0.0
 11
-125.6415926536
 21
-366.371644302
 31
0.0
  0
LINE
  5
94
330
1F
100
AcDbEntity
  8
0
  6
Continuous
 62
     7
370
    25
100
AcDbLine
 10
-143.1415926536
 20
-374.9343650814
 30
0.0
 11
-143.1415926536
 21
374.9343650814
 31
0.0
  0
LINE
  5
95
330
1F
100
AcDbEntity
  8
0
  6
Continuous
 62
     7
370
    25
100
AcDbLine
 10
-125.6415926536
 20
366.371644302
 30
0.0
 11
-125.7072275722
 21
366.4372792206
 31
0.0
  0
LINE
  5
96
330
1F
100
AcDbEntity
  8
0
  6
Continuous
 62
     7
370
    25
100
AcDbLine
 10
-122.5
 20
366.684546095
 30
0.0
 11
-125.6415926536
 21
366.371644302
 31
0.0
  0
LINE
  5
97
330
1F
100
AcDbEntity
  8
0
  6
Continuous
 62
     7
370
    25
100
AcDbLine
 10
-122.4343650815
 20
392.4225651046
 30
0.0
 11
-122.4343650814
 21
367.5
 31
0.0
  0
LINE
  5
98
330
1F
100
AcDbEntity
  8
0
  6
Continuous
 62
     7
370
    25
100
AcDbLine
 10
-122.4343650815
 20
392.4225651046
 30
0.0
 11
122.4343650814
 21
392.4225651046
 31
0.0
  0
LINE
  5
99
330
1F
100
AcDbEntity
  8
0
  6
Continuous
 62
     7
370
    25
100
AcDbLine
 10
122.4343650814
 20
367.5
 30
0.0
 11
122.4343650814
 21
392.4225651046
 31
0.0
  0
LINE
  5
9A
330
1F
100
AcDbEntity
  8
0
  6
Continuous
 62
     7
370
    25
100
AcDbLine
 10
125.6415926536
 20
366.371644302
 30
0.0
 11
122.5
 21
366.684546095
 31
0.0
  0
LINE
  5
9B
330
1F
100
AcDbEntity
  8
0
  6
Continuous
 62
     7
370
    25
100
AcDbLine
 10
125.7072275722
 20
366.4372792206
 30
0.0
 11
125.6415926536
 21
366.371644302
 31
0.0
  0
LINE
  5
9C
330
1F
100
AcDbEntity
  8
0
  6
Continuous
 62
     7
370
    25
100
AcDbLine
 10
143.1415926536
 20
374.9343650814
 30
0.0
 11
143.1415926536
 21
-374.9343650814
 31
0.0
  0
LINE
  5
9D
330
1F
100
AcDbEntity
  8
0
  6
Continuous
 62
     7
370
    25
100
AcDbLine
 10
125.6415926536
 20
-366.371644302
 30
0.0
 11
125.7072275722
 21
-366.4372792206
 31
0.0
  0
LINE
  5
9E
330
1F
100
AcDbEntity
  8
0
  6
Continuous
 62
     7
370
    25
100
AcDbLine
 10
122.5
 20
-366.684546095
 30
0.0
 11
125.6415926536
 21
-366.371644302
 31
0.0
  0
ARC
  5
9F
330
1F
100
AcDbEntity
  8
0
  6
Continuous
 62
     7
370
    25
100
AcDbCircle
 10
-127.5075022625
 20
-367.4979624098
 30
0.0
 40
5.073137590369021
100
AcDbArc
 50
359.9769875507
 51
9.22651068
  0
ARC
  5
A0
330
1F
100
AcDbEntity
  8
0
  6
Continuous
 62
     7
370
    25
100
AcDbCircle
 10
-127.5075022625
 20
367.4979624098
 30
0.0
 40
5.073137590370251
100
AcDbArc
 50
350.77348932
 51
0.0230124493
  0
ARC
  5
A1
330
1F
100
AcDbEntity
  8
0
  6
Continuous
 62
     7
370
    25
100
AcDbCircle
 10
127.5075022626
 20
367.4979624098
 30
0.0
 40
5.073137590367828
100
AcDbArc
 50
179.9769875507
 51
189.22651068
  0
ARC
  5
A2
330
1F
100
AcDbEntity
  8
0
  6
Continuous
 62
     7
370
    25
100
AcDbCircle
 10
127.5075022626
 20
-367.4979624098
 30
0.0
 40
5.07313759036624
100
AcDbArc
 50
170.77348932
 51
180.0230124493
  0
ENDSEC
  0
SECTION
  2
OBJECTS
  0
DICTIONARY
  5
C
330
0
100
AcDbDictionary
281
     1
  3
ACAD_GROUP
350
D
  3
ACAD_LAYOUT
350
1A
  3
ACAD_MLINESTYLE
350
17
  3
ACAD_PLOTSETTINGS
350
19
  3
ACAD_PLOTSTYLENAME
350
E
  3
ACAD_SCALELIST
350
47
  0
DICTIONARY
  5
D
102
{ACAD_REACTORS
330
C
102
}
330
C
100
AcDbDictionary
281
     1
  0
DICTIONARY
  5
1A
102
{ACAD_REACTORS
330
C
102
}
330
C
100
AcDbDictionary
281
     1
  3
Layout1
350
1E
  3
Layout2
350
26
  3
Model
350
22
  0
DICTIONARY
  5
17
102
{ACAD_REACTORS
330
C
102
}
330
C
100
AcDbDictionary
281
     1
  3
Standard
350
18
  0
DICTIONARY
  5
19
102
{ACAD_REACTORS
330
C
102
}
330
C
100
AcDbDictionary
281
     1
  0
ACDBDICTIONARYWDFLT
  5
E
102
{ACAD_REACTORS
330
C
102
}
330
C
100
AcDbDictionary
281
     1
  3
Normal
350
F
100
AcDbDictionaryWithDefault
340
F
  0
DICTIONARY
  5
47
102
{ACAD_REACTORS
330
C
102
}
330
C
100
AcDbDictionary
281
     1
  3
A0
350
48
  3
A1
350
49
  3
A2
350
4A
  3
A3
350
4B
  3
A4
350
4C
  3
A5
350
4D
  3
A6
350
4E
  3
A7
350
4F
  3
A8
350
50
  3
A9
350
51
  3
B0
350
52
  3
B1
350
53
  3
B2
350
54
  3
B3
350
55
  3
B4
350
56
  3
B5
350
57
  3
B6
350
58
  3
B7
350
59
  3
B8
350
5A
  3
B9
350
5B
  3
C0
350
5C
  3
C1
350
5D
  3
C2
350
5E
  3
C3
350
5F
  3
C4
350
60
  3
C5
350
61
  3
C6
350
62
  3
C7
350
63
  3
C8
350
64
  3
C9
350
65
  3
D0
350
66
  3
D1
350
67
  3
D2
350
68
  0
LAYOUT
  5
1E
102
{ACAD_REACTORS
330
1A
102
}
330
1A
100
AcDbPlotSettings
  1

  2
none_device
  4

  6

 40
0.0
 41
0.0
 42
0.0
 43
0.0
 44
0.0
 45
0.0
 46
0.0
 47
0.0
 48
0.0
 49
0.0
140
0.0
141
0.0
142
1.0
143
1.0
 70
   688
 72
     1
 73
     0
 74
     5
  7

 75
    16
147
1.0
148
0.0
149
0.0
100
AcDbLayout
  1
Layout1
 70
     1
 71
     1
 10
0.0
 20
0.0
 11
420.0
 21
297.0
 12
0.0
 22
0.0
 32
0.0
 14
1.0000000000E+20
 24
1.0000000000E+20
 34
1.0000000000E+20
 15
-1.0000000000E+20
 25
-1.0000000000E+20
 35
-1.0000000000E+20
146
0.0
 13
0.0
 23
0.0
 33
0.0
 16
1.0
 26
0.0
 36
0.0
 17
0.0
 27
1.0
 37
0.0
 76
     0
330
1B
  0
LAYOUT
  5
26
102
{ACAD_REACTORS
330
1A
102
}
330
1A
100
AcDbPlotSettings
  1

  2
none_device
  4

  6

 40
0.0
 41
0.0
 42
0.0
 43
0.0
 44
0.0
 45
0.0
 46
0.0
 47
0.0
 48
0.0
 49
0.0
140
0.0
141
0.0
142
1.0
143
1.0
 70
   688
 72
     1
 73
     0
 74
     5
  7

 75
    16
147
1.0
148
0.0
149
0.0
100
AcDbLayout
  1
Layout2
 70
     1
 71
     2
 10
0.0
 20
0.0
 11
0.0
 21
0.0
 12
0.0
 22
0.0
 32
0.0
 14
0.0
 24
0.0
 34
0.0
 15
0.0
 25
0.0
 35
0.0
146
0.0
 13
0.0
 23
0.0
 33
0.0
 16
1.0
 26
0.0
 36
0.0
 17
0.0
 27
1.0
 37
0.0
 76
     0
330
23
  0
LAYOUT
  5
22
102
{ACAD_REACTORS
330
1A
102
}
330
1A
100
AcDbPlotSettings
  1

  2
none_device
  4
ANSI_A_(11.00_x_8.50_Inches)
  6

 40
6.35
 41
19.05
 42
6.35000508
 43
19.05000254
 44
279.4
 45
215.9
 46
133.34999746
 47
88.89999873
 48
0.0
 49
0.0
140
0.0
141
0.0
142
0.0107218605
143
1.0
 70
  1696
 72
     0
 73
     0
 74
     0
  7

 75
     0
147
0.0179189148
148
-1300.4909072572
149
0.0
100
AcDbLayout
  1
Model
 70
     1
 71
     0
 10
0.0
 20
0.0
 11
420.0
 21
297.0
 12
0.0
 22
0.0
 32
0.0
 14
-143.1415926536
 24
-392.4225651046
 34
0.0
 15
143.1415926536
 25
392.4225651046
 35
0.0
146
0.0
 13
0.0
 23
0.0
 33
0.0
 16
1.0
 26
0.0
 36
0.0
 17
0.0
 27
1.0
 37
0.0
 76
     0
330
1F
331
29
  0
MLINESTYLE
  5
18
102
{ACAD_REACTORS
330
17
102
}
330
17
100
AcDbMlineStyle
  2
Standard
 70
     0
  3

 62
   256
 51
90.0
 52
90.0
 71
     2
 49
0.5
 62
   256
  6
BYLAYER
 49
-0.5
 62
   256
  6
BYLAYER
  0
ACDBPLACEHOLDER
  5
F
102
{ACAD_REACTORS
330
E
102
}
330
E
  0
SCALE
  5
48
102
{ACAD_REACTORS
330
47
102
}
330
47
100
AcDbScale
 70
     0
300
1:1
140
1.0
141
1.0
290
     1
  0
SCALE
  5
49
102
{ACAD_REACTORS
330
47
102
}
330
47
100
AcDbScale
 70
     0
300
1:2
140
1.0
141
2.0
290
     0
  0
SCALE
  5
4A
102
{ACAD_REACTORS
330
47
102
}
330
47
100
AcDbScale
 70
     0
300
1:4
140
1.0
141
4.0
290
     0
  0
SCALE
  5
4B
102
{ACAD_REACTORS
330
47
102
}
330
47
100
AcDbScale
 70
     0
300
1:5
140
1.0
141
5.0
290
     0
  0
SCALE
  5
4C
102
{ACAD_REACTORS
330
47
102
}
330
47
100
AcDbScale
 70
     0
300
1:8
140
1.0
141
8.0
290
     0
  0
SCALE
  5
4D
102
{ACAD_REACTORS
330
47
102
}
330
47
100
AcDbScale
 70
     0
300
1:10
140
1.0
141
10.0
290
     0
  0
SCALE
  5
4E
102
{ACAD_REACTORS
330
47
102
}
330
47
100
AcDbScale
 70
     0
300
1:16
140
1.0
141
16.0
290
     0
  0
SCALE
  5
4F
102
{ACAD_REACTORS
330
47
102
}
330
47
100
AcDbScale
 70
     0
300
1:20
140
1.0
141
20.0
290
     0
  0
SCALE
  5
50
102
{ACAD_REACTORS
330
47
102
}
330
47
100
AcDbScale
 70
     0
300
1:30
140
1.0
141
30.0
290
     0
  0
SCALE
  5
51
102
{ACAD_REACTORS
330
47
102
}
330
47
100
AcDbScale
 70
     0
300
1:40
140
1.0
141
40.0
290
     0
  0
SCALE
  5
52
102
{ACAD_REACTORS
330
47
102
}
330
47
100
AcDbScale
 70
     0
300
1:50
140
1.0
141
50.0
290
     0
  0
SCALE
  5
53
102
{ACAD_REACTORS
330
47
102
}
330
47
100
AcDbScale
 70
     0
300
1:100
140
1.0
141
100.0
290
     0
  0
SCALE
  5
54
102
{ACAD_REACTORS
330
47
102
}
330
47
100
AcDbScale
 70
     0
300
2:1
140
2.0
141
1.0
290
     0
  0
SCALE
  5
55
102
{ACAD_REACTORS
330
47
102
}
330
47
100
AcDbScale
 70
     0
300
4:1
140
4.0
141
1.0
290
     0
  0
SCALE
  5
56
102
{ACAD_REACTORS
330
47
102
}
330
47
100
AcDbScale
 70
     0
300
8:1
140
8.0
141
1.0
290
     0
  0
SCALE
  5
57
102
{ACAD_REACTORS
330
47
102
}
330
47
100
AcDbScale
 70
     0
300
10:1
140
10.0
141
1.0
290
     0
  0
SCALE
  5
58
102
{ACAD_REACTORS
330
47
102
}
330
47
100
AcDbScale
 70
     0
300
100:1
140
100.0
141
1.0
290
     0
  0
SCALE
  5
59
102
{ACAD_REACTORS
330
47
102
}
330
47
100
AcDbScale
 70
     0
300
1/128" = 1'-0"
140
0.0078125
141
12.0
290
     0
  0
SCALE
  5
5A
102
{ACAD_REACTORS
330
47
102
}
330
47
100
AcDbScale
 70
     0
300
1/64" = 1'-0"
140
0.015625
141
12.0
290
     0
  0
SCALE
  5
5B
102
{ACAD_REACTORS
330
47
102
}
330
47
100
AcDbScale
 70
     0
300
1/32" = 1'-0"
140
0.03125
141
12.0
290
     0
  0
SCALE
  5
5C
102
{ACAD_REACTORS
330
47
102
}
330
47
100
AcDbScale
 70
     0
300
1/16" = 1'-0"
140
0.0625
141
12.0
290
     0
  0
SCALE
  5
5D
102
{ACAD_REACTORS
330
47
102
}
330
47
100
AcDbScale
 70
     0
300
3/32" = 1'-0"
140
0.09375
141
12.0
290
     0
  0
SCALE
  5
5E
102
{ACAD_REACTORS
330
47
102
}
330
47
100
AcDbScale
 70
     0
300
1/8" = 1'-0"
140
0.125
141
12.0
290
     0
  0
SCALE
  5
5F
102
{ACAD_REACTORS
330
47
102
}
330
47
100
AcDbScale
 70
     0
300
3/16" = 1'-0"
140
0.1875
141
12.0
290
     0
  0
SCALE
  5
60
102
{ACAD_REACTORS
330
47
102
}
330
47
100
AcDbScale
 70
     0
300
1/4" = 1'-0"
140
0.25
141
12.0
290
     0
  0
SCALE
  5
61
102
{ACAD_REACTORS
330
47
102
}
330
47
100
AcDbScale
 70
     0
300
3/8" = 1'-0"
140
0.375
141
12.0
290
     0
  0
SCALE
  5
62
102
{ACAD_REACTORS
330
47
102
}
330
47
100
AcDbScale
 70
     0
300
1/2" = 1'-0"
140
0.5
141
12.0
290
     0
  0
SCALE
  5
63
102
{ACAD_REACTORS
330
47
102
}
330
47
100
AcDbScale
 70
     0
300
3/4" = 1'-0"
140
0.75
141
12.0
290
     0
  0
SCALE
  5
64
102
{ACAD_REACTORS
330
47
102
}
330
47
100
AcDbScale
 70
     0
300
1" = 1'-0"
140
1.0
141
12.0
290
     0
  0
SCALE
  5
65
102
{ACAD_REACTORS
330
47
102
}
330
47
100
AcDbScale
 70
     0
300
1-1/2" = 1'-0"
140
1.5
141
12.0
290
     0
  0
SCALE
  5
66
102
{ACAD_REACTORS
330
47
102
}
330
47
100
AcDbScale
 70
     0
300
3" = 1'-0"
140
3.0
141
12.0
290
     0
  0
SCALE
  5
67
102
{ACAD_REACTORS
330
47
102
}
330
47
100
AcDbScale
 70
     0
300
6" = 1'-0"
140
6.0
141
12.0
290
     0
  0
SCALE
  5
68
102
{ACAD_REACTORS
330
47
102
}
330
47
100
AcDbScale
 70
     0
300
1'-0" = 1'-0"
140
12.0
141
12.0
290
     0
  0
ENDSEC
  0
EOF
