{
    "slug" : "shredder-v33",
    "product_name":"",
    "category" : "shredder",
    "status": "rev-2",
    "product_parts": "${abs_url}/${product_rel}/drawings/parts.JPG",
    "product_dimensions": "${abs_url}/${product_rel}/drawings/dimensions.JPG",
    "product_perspective": "${abs_url}/${product_rel}/renderings/perspective.jpg",
    "download" : "${site}/archives/${slug}.zip",
    "parts": "parts.csv"    
}