Part Nr.,Description,Configuration
,,,
1,Fume Exhaust Pipe, Optional,
2,Fume Hood, Integrated fan,
3,Doors,Spring loaded,
4,Loader rollers, Optional,
5,Sheet thickness adjuster, 5cm,
6,Heatplate, 10mm 5038 precision Aluminium,
7,Lift Links,