{
  "files": [
    {
      "contentType": "application/octet-stream",
      "size": 3665484,
      "downloadUrl": "https://firebasestorage.googleapis.com/v0/b/onearmyworld.appspot.com/o/uploads%2FhowtosV1%2FUfaFhJ8fCaTwkknUcdEE%2FDaily_Spork_Download.STL?alt=media&token=1a3b8f53-7402-4bce-b773-22961509fc0f",
      "timeCreated": "2019-05-10T09:06:35.133Z",
      "fullPath": "uploads/howtosV1/UfaFhJ8fCaTwkknUcdEE/Daily_Spork_Download.STL",
      "updated": "2019-05-10T09:06:35.133Z",
      "type": "",
      "name": "Daily_Spork_Download.STL"
    }
  ],
  "difficulty_level": "Medium",
  "time": "< 1 week",
  "cover_image": {
    "name": "cover.JPG",
    "fullPath": "uploads/howtosV1/UfaFhJ8fCaTwkknUcdEE/cover.JPG",
    "updated": "2019-05-10T09:06:19.252Z",
    "type": "image/jpeg",
    "timeCreated": "2019-05-10T09:06:19.252Z",
    "downloadUrl": "https://firebasestorage.googleapis.com/v0/b/onearmyworld.appspot.com/o/uploads%2FhowtosV1%2FUfaFhJ8fCaTwkknUcdEE%2Fcover.JPG?alt=media&token=4b058204-8226-4b64-8366-880c320fb14c",
    "contentType": "image/jpeg",
    "size": 31291
  },
  "id": "UfaFhJ8fCaTwkknUcdEE",
  "slug": "make-a-3d-printed-injection-mould",
  "title": "Make a 3D-printed injection mould",
  "_created": "2020-01-10T09:06:37.043Z",
  "_deleted": false,
  "_modified": "2021-03-03T22:25:35.717Z",
  "moderation": "accepted",
  "creatorCountry": "fr",
  "tags": [
    "injection"
  ],
  "steps": [
    {
      "_animationKey": "unique1",
      "title": "3D Model",
      "images": [
        {
          "name": "1.1.jpg",
          "fullPath": "uploads/howtosV1/UfaFhJ8fCaTwkknUcdEE/1.1.jpg",
          "size": 29123,
          "updated": "2019-05-10T09:06:20.836Z",
          "downloadUrl": "https://firebasestorage.googleapis.com/v0/b/onearmyworld.appspot.com/o/uploads%2FhowtosV1%2FUfaFhJ8fCaTwkknUcdEE%2F1.1.jpg?alt=media&token=93009905-f97c-4efe-8bac-32acf05bb9ad",
          "contentType": "image/jpeg",
          "type": "image/jpeg",
          "timeCreated": "2019-05-10T09:06:20.836Z"
        }
      ],
      "text": "To begin, you need a 3D model, which you can create using a 3D modeling software such as Fusion360. Molds are also available from various designers online. The Daily Spork mold is available for download above."
    },
    {
      "images": [
        {
          "type": "image/jpeg",
          "contentType": "image/jpeg",
          "name": "2.jpg",
          "size": 39003,
          "fullPath": "uploads/howtosV1/UfaFhJ8fCaTwkknUcdEE/2.jpg",
          "timeCreated": "2019-05-10T09:06:22.150Z",
          "downloadUrl": "https://firebasestorage.googleapis.com/v0/b/onearmyworld.appspot.com/o/uploads%2FhowtosV1%2FUfaFhJ8fCaTwkknUcdEE%2F2.jpg?alt=media&token=8df1064c-925a-474f-aa81-8494f609a2de",
          "updated": "2019-05-10T09:06:22.150Z"
        }
      ],
      "text": "Once you have the 3D model, print it using a resin that’s able to withstand the high heat of the injection molding machine. The most common resin available is FormLabs’ Hi Temp resin which can withstand temperatures up to 269 degrees celsius.",
      "title": "3D print the mold using hi-temp resin",
      "_animationKey": "unique2"
    },
    {
      "text": "While the mold is printing, you can prepare your plastic by cleaning and shredding it. If you’re making Daily Sporks, be sure to use food-grade plastic which is marked with the food-grade symbol.",
      "_animationKey": "unique3",
      "images": [
        {
          "updated": "2019-05-10T09:06:22.957Z",
          "downloadUrl": "https://firebasestorage.googleapis.com/v0/b/onearmyworld.appspot.com/o/uploads%2FhowtosV1%2FUfaFhJ8fCaTwkknUcdEE%2F3.jpg?alt=media&token=2ab0c4df-ac2f-4d90-bd3c-aafb2f98cc63",
          "size": 59447,
          "contentType": "image/jpeg",
          "timeCreated": "2019-05-10T09:06:22.957Z",
          "type": "image/jpeg",
          "fullPath": "uploads/howtosV1/UfaFhJ8fCaTwkknUcdEE/3.jpg",
          "name": "3.jpg"
        }
      ],
      "title": "Shred plastic"
    },
    {
      "title": "UV cure the mold",
      "text": "Once the mold is printed, it needs to be cured so that it fully hardens and is able to withstand the injection machine’s high heat. The easiest (and least wasteful) way to do this is by leaving the mold out in the sun for about an hour or so. As the mold cures, its color will change from yellow to orange. Once the mold has cured, remove its support structures using clippers and a file.",
      "_animationKey": "unique3hyrmc",
      "images": [
        {
          "type": "image/jpeg",
          "name": "4.1.jpg",
          "updated": "2019-05-10T09:06:24.558Z",
          "contentType": "image/jpeg",
          "downloadUrl": "https://firebasestorage.googleapis.com/v0/b/onearmyworld.appspot.com/o/uploads%2FhowtosV1%2FUfaFhJ8fCaTwkknUcdEE%2F4.1.jpg?alt=media&token=64cd64be-b0d6-4cd3-853f-54d5616ad69e",
          "fullPath": "uploads/howtosV1/UfaFhJ8fCaTwkknUcdEE/4.1.jpg",
          "timeCreated": "2019-05-10T09:06:24.558Z",
          "size": 209501
        },
        {
          "timeCreated": "2019-05-10T09:06:24.583Z",
          "type": "image/jpeg",
          "size": 88421,
          "fullPath": "uploads/howtosV1/UfaFhJ8fCaTwkknUcdEE/4.2.jpg",
          "updated": "2019-05-10T09:06:24.583Z",
          "downloadUrl": "https://firebasestorage.googleapis.com/v0/b/onearmyworld.appspot.com/o/uploads%2FhowtosV1%2FUfaFhJ8fCaTwkknUcdEE%2F4.2.jpg?alt=media&token=bdccb7b2-c0d7-40f4-9b70-6a81dd652d8a",
          "name": "4.2.jpg",
          "contentType": "image/jpeg"
        }
      ]
    },
    {
      "_animationKey": "unique094i9",
      "images": [
        {
          "updated": "2019-05-10T09:06:25.918Z",
          "type": "image/jpeg",
          "timeCreated": "2019-05-10T09:06:25.918Z",
          "downloadUrl": "https://firebasestorage.googleapis.com/v0/b/onearmyworld.appspot.com/o/uploads%2FhowtosV1%2FUfaFhJ8fCaTwkknUcdEE%2F5.jpg?alt=media&token=10ba53f5-faf6-4b1a-a459-014c11ba1f96",
          "name": "5.jpg",
          "size": 35782,
          "fullPath": "uploads/howtosV1/UfaFhJ8fCaTwkknUcdEE/5.jpg",
          "contentType": "image/jpeg"
        }
      ],
      "text": "With the plastic shredded and mold cured, it’s now time to assemble the mold for injection. This can be done as pictured, using a combination of clamps. Designs may vary though, so do what makes sense for your particular molds (using pins is another common method). Generally it’s a good idea to put plastic into the injection machine beforehand so that it can begin to melt while you assemble the mold.",
      "title": "Assemble mold"
    },
    {
      "text": "Once the mold is assembled, press down on the injection lever to see if melted plastic comes out of the nozzle (Usually it takes about 10 minutes to fully melt). Once the plastic is melted, place the injection nozzle in the mold entry and inject the plastic into the mold. A nice feature of 3D printed molds is their translucency, which makes it easier to tell when the mold is completely filled.",
      "title": "Inject plastic into the mold",
      "images": [
        {
          "size": 37511,
          "fullPath": "uploads/howtosV1/UfaFhJ8fCaTwkknUcdEE/6.jpg",
          "downloadUrl": "https://firebasestorage.googleapis.com/v0/b/onearmyworld.appspot.com/o/uploads%2FhowtosV1%2FUfaFhJ8fCaTwkknUcdEE%2F6.jpg?alt=media&token=65135be7-882b-4f31-af8e-669142b0d091",
          "timeCreated": "2019-05-10T09:06:26.784Z",
          "type": "image/jpeg",
          "updated": "2019-05-10T09:06:26.784Z",
          "contentType": "image/jpeg",
          "name": "6.jpg"
        }
      ],
      "_animationKey": "unique7lvsc"
    },
    {
      "images": [
        {
          "type": "image/jpeg",
          "downloadUrl": "https://firebasestorage.googleapis.com/v0/b/onearmyworld.appspot.com/o/uploads%2FhowtosV1%2FUfaFhJ8fCaTwkknUcdEE%2F7.jpg?alt=media&token=9d2896f4-4ba2-4a06-acb1-4b79c3b58a2f",
          "contentType": "image/jpeg",
          "fullPath": "uploads/howtosV1/UfaFhJ8fCaTwkknUcdEE/7.jpg",
          "name": "7.jpg",
          "size": 32813,
          "updated": "2019-05-10T09:06:27.584Z",
          "timeCreated": "2019-05-10T09:06:27.584Z"
        }
      ],
      "text": "After the plastic has been injected, remove the mold and let it cool before opening. Cooling times vary depending on the thickness of the object. For something like the Daily Spork, a minute or two should do the trick.",
      "_animationKey": "unique67of0o",
      "title": "Let cool"
    },
    {
      "text": "Once the plastic is cool, disassemble the mold and remove the part.",
      "_animationKey": "uniquelk2omh",
      "title": "Disassemble mold",
      "images": [
        {
          "contentType": "image/jpeg",
          "updated": "2019-05-10T09:06:29.556Z",
          "size": 122422,
          "downloadUrl": "https://firebasestorage.googleapis.com/v0/b/onearmyworld.appspot.com/o/uploads%2FhowtosV1%2FUfaFhJ8fCaTwkknUcdEE%2F8.jpg?alt=media&token=bbb16932-458c-4dcf-8a16-1f09b263081b",
          "type": "image/jpeg",
          "timeCreated": "2019-05-10T09:06:29.556Z",
          "fullPath": "uploads/howtosV1/UfaFhJ8fCaTwkknUcdEE/8.jpg",
          "name": "8.jpg"
        }
      ]
    },
    {
      "images": [
        {
          "fullPath": "uploads/howtosV1/UfaFhJ8fCaTwkknUcdEE/9.jpg",
          "downloadUrl": "https://firebasestorage.googleapis.com/v0/b/onearmyworld.appspot.com/o/uploads%2FhowtosV1%2FUfaFhJ8fCaTwkknUcdEE%2F9.jpg?alt=media&token=140304e9-5ca7-4f18-b903-0456db1d6c7b",
          "type": "image/jpeg",
          "contentType": "image/jpeg",
          "timeCreated": "2019-05-10T09:06:30.263Z",
          "size": 28277,
          "updated": "2019-05-10T09:06:30.263Z",
          "name": "9.jpg"
        }
      ],
      "title": "Remove sprue and trim flash",
      "_animationKey": "uniquegq50zh",
      "text": "With your new part made, remove the sprue and any flash. This can be done using a variety of methods depending on the design. The Daily Spork’s sprue can be easily snapped off by hand. Flash (excess material) can be removed using a deburring tool or a small knife. If using a knife, be sure to cut away from yourself :-)"
    },
    {
      "_animationKey": "uniquex0v1in",
      "title": "Enjoy your new object ",
      "text": "For more info about the process, check out FormLabs’ white paper on the topic here: https://formlabs.com/media/upload/injection-molding-from-3d-printed-molds.pdf",
      "images": [
        {
          "size": 59282,
          "fullPath": "uploads/howtosV1/UfaFhJ8fCaTwkknUcdEE/10.1.jpg",
          "updated": "2019-05-10T09:06:31.040Z",
          "name": "10.1.jpg",
          "type": "image/jpeg",
          "timeCreated": "2019-05-10T09:06:31.040Z",
          "downloadUrl": "https://firebasestorage.googleapis.com/v0/b/onearmyworld.appspot.com/o/uploads%2FhowtosV1%2FUfaFhJ8fCaTwkknUcdEE%2F10.1.jpg?alt=media&token=58685aa3-7ab0-4b4b-bbc6-d8e1e477322d",
          "contentType": "image/jpeg"
        },
        {
          "updated": "2019-05-10T09:06:31.343Z",
          "contentType": "image/jpeg",
          "timeCreated": "2019-05-10T09:06:31.343Z",
          "size": 36453,
          "type": "image/jpeg",
          "name": "10.2.jpg",
          "downloadUrl": "https://firebasestorage.googleapis.com/v0/b/onearmyworld.appspot.com/o/uploads%2FhowtosV1%2FUfaFhJ8fCaTwkknUcdEE%2F10.2.jpg?alt=media&token=0250096b-7203-48cb-b5cb-e8cf17042bea",
          "fullPath": "uploads/howtosV1/UfaFhJ8fCaTwkknUcdEE/10.2.jpg"
        }
      ]
    }
  ],
  "_id": "UfaFhJ8fCaTwkknUcdEE",
  "description": "3D-printed molds are a great way to test highly detailed mold designs before investing in more expensive CNC-milled aluminum molds. 3D-printed molds can last for up to 100 shots, however results vary depending on variables like plastic temperature, injection pressure, and clamping method. A downside of 3D-printed molds is that they’re made from photocured resin, so they can’t be reused or recycled at the end of their life. They’re also quite brittle when compared to aluminum, which means small features in the mold design have a tendency to break more easily. For that reason, 3D-printed molds’ utility is limited to prototyping and small batch productions.",
  "_createdBy": "precious-plastic"
}