{
  "time": "< 1 week",
  "cover_image": {
    "size": 30568,
    "timeCreated": "2018-10-15T09:35:12.882Z",
    "type": "image/jpeg",
    "downloadUrl": "https://firebasestorage.googleapis.com/v0/b/onearmyworld.appspot.com/o/uploads%2Fv3_howtos%2F0JwnNdN6Bymb5hSi70Zi%2Fwallgrips_01.1.jpg?alt=media&token=000c88c1-a96a-431c-9643-11bdc2e1203c",
    "updated": "2020-05-09T09:35:12.882Z",
    "fullPath": "uploads/v3_howtos/0JwnNdN6Bymb5hSi70Zi/wallgrips_01.1.jpg",
    "contentType": "image/jpeg",
    "name": "wallgrips_01.1.jpg"
  },
  "description": "Johe will show you the aluminum casting techniques to make moulds and make recycled plastic wall grips.Casting your own moulds from aluminum is quite a labour intensive process but the materials and resources needed are quite basic and not expensive. ",
  "_createdBy": "precious-plastic",
  "_id": "0JwnNdN6Bymb5hSi70Zi",
  "title": "Make aluminum casted moulds",
  "creatorCountry": "fr",
  "_deleted": false,
  "_modified": "2021-03-03T22:25:35.689Z",
  "steps": [
    {
      "text": "Before you start get all your gear ready:\n- Respirator mask\n- Plastic (PP or PS)\n- Aaluminium waste\n- Rrocket stove\n- Charcoal\n- Cclay\n- Foundry sand\n- Plaster\n- Sanding paper\n- Drill \n- Injection machine\n- Plastic Type Stamp\n",
      "images": [
        {
          "timeCreated": "2020-05-09T09:35:14.390Z",
          "contentType": "image/jpeg",
          "type": "image/jpeg",
          "name": "wallgrips_02.1.jpg",
          "size": 158940,
          "updated": "2020-05-09T09:35:14.390Z",
          "downloadUrl": "https://firebasestorage.googleapis.com/v0/b/onearmyworld.appspot.com/o/uploads%2Fv3_howtos%2F0JwnNdN6Bymb5hSi70Zi%2Fwallgrips_02.1.jpg?alt=media&token=7cb61ead-6abd-44c7-8704-6fbed6f82329",
          "fullPath": "uploads/v3_howtos/0JwnNdN6Bymb5hSi70Zi/wallgrips_02.1.jpg"
        }
      ],
      "title": "Gather everything you need",
      "_animationKey": "unique1"
    },
    {
      "images": [],
      "_animationKey": "unique2",
      "videoUrl": "https://youtu.be/5LhHUBz9uL0",
      "title": "Watch video tutorial",
      "text": "Watch this video tutorial to learn how to make aluminum casted moulds to make organic products and recreate real objects."
    },
    {
      "title": "Done & Share",
      "_animationKey": "unique3",
      "images": [
        {
          "fullPath": "uploads/v3_howtos/0JwnNdN6Bymb5hSi70Zi/wallgrips_03.1.jpg",
          "updated": "2020-05-09T09:35:15.684Z",
          "timeCreated": "2020-05-09T09:35:15.684Z",
          "type": "image/jpeg",
          "size": 98131,
          "name": "wallgrips_03.1.jpg",
          "contentType": "image/jpeg",
          "downloadUrl": "https://firebasestorage.googleapis.com/v0/b/onearmyworld.appspot.com/o/uploads%2Fv3_howtos%2F0JwnNdN6Bymb5hSi70Zi%2Fwallgrips_03.1.jpg?alt=media&token=e06b2cf5-e869-4f39-88e7-0ec52ce6f4ea"
        },
        {
          "contentType": "image/jpeg",
          "downloadUrl": "https://firebasestorage.googleapis.com/v0/b/onearmyworld.appspot.com/o/uploads%2Fv3_howtos%2F0JwnNdN6Bymb5hSi70Zi%2Fwallgrips_04.1.jpg?alt=media&token=379bd9cf-f573-476f-91c7-c8d0e5b4b0e5",
          "type": "image/jpeg",
          "fullPath": "uploads/v3_howtos/0JwnNdN6Bymb5hSi70Zi/wallgrips_04.1.jpg",
          "name": "wallgrips_04.1.jpg",
          "updated": "2020-05-09T09:35:15.677Z",
          "timeCreated": "2020-05-09T09:35:15.677Z",
          "size": 183310
        },
        {
          "fullPath": "uploads/v3_howtos/0JwnNdN6Bymb5hSi70Zi/wallgrips_05.1.jpg",
          "name": "wallgrips_05.1.jpg",
          "contentType": "image/jpeg",
          "type": "image/jpeg",
          "updated": "2020-05-09T09:35:15.905Z",
          "downloadUrl": "https://firebasestorage.googleapis.com/v0/b/onearmyworld.appspot.com/o/uploads%2Fv3_howtos%2F0JwnNdN6Bymb5hSi70Zi%2Fwallgrips_05.1.jpg?alt=media&token=cd4f3334-f5e7-4cc1-bc9a-444a00db3261",
          "timeCreated": "2020-05-09T09:35:15.905Z",
          "size": 131908
        }
      ],
      "text": "After watching this video you should understand the basics of aluminium casting. You can reproduce the wall grips or try to make other products. We’re looking forward to seeing what you can come up with. Make sure to share back your new creations so the community can learn from you. Tag #preciousplastic on social media, create a new how-to or send us an email. \n"
    }
  ],
  "moderation": "accepted",
  "files": [],
  "tags": [
    "injection",
    "PP",
    "product",
    "mould"
  ],
  "_created": "2018-10-15T21:03:21.903Z",
  "slug": "make-aluminum-casted-moulds",
  "difficulty_level": "Hard"
}