{
  "_created": "2020-03-28T09:52:47.105Z",
  "_deleted": false,
  "time": "1+ months",
  "_modified": "2020-06-07T14:13:52.412Z",
  "slug": "make-outdoor-furniture-with-beams",
  "description": "We extrude the mix of all the different kinds of plastic to sticks and screw them together to furniture. For our chairs you need stickd with hard parts for the legs of the chair and a soft part in the middle.\nHARD  ..mix LDPE HDOE PP PS\nSOFT  .mix LDPE HDPE  EVA flip flops",
  "_createdBy": "pacific-beauty",
  "cover_image": {
    "fullPath": "uploads/v3_howtos/vat8toEpIvcUJZRYPtW9/Extruded furniture-title.jpg",
    "size": 278142,
    "type": "image/jpeg",
    "contentType": "image/jpeg",
    "timeCreated": "2020-05-29T12:49:36.453Z",
    "updated": "2020-05-29T12:49:36.453Z",
    "downloadUrl": "https://firebasestorage.googleapis.com/v0/b/onearmyworld.appspot.com/o/uploads%2Fv3_howtos%2Fvat8toEpIvcUJZRYPtW9%2FExtruded%20furniture-title.jpg?alt=media&token=83e7f070-1ef3-4bc7-a3ab-e166a6188a62",
    "name": "Extruded furniture-title.jpg"
  },
  "_id": "vat8toEpIvcUJZRYPtW9",
  "tags": [
    "PP",
    "LDPE",
    "HDPE",
    "extrusion",
    "product"
  ],
  "files": [],
  "steps": [
    {
      "images": [
        {
          "size": 100885,
          "contentType": "image/jpeg",
          "type": "image/jpeg",
          "name": "Extruded furniture-5.jpg",
          "timeCreated": "2020-05-29T12:47:58.217Z",
          "downloadUrl": "https://firebasestorage.googleapis.com/v0/b/onearmyworld.appspot.com/o/uploads%2Fv3_howtos%2Fvat8toEpIvcUJZRYPtW9%2FExtruded%20furniture-5.jpg?alt=media&token=bacb8b03-736f-4055-a985-0b64be5b0b32",
          "fullPath": "uploads/v3_howtos/vat8toEpIvcUJZRYPtW9/Extruded furniture-5.jpg",
          "updated": "2020-05-29T12:47:58.217Z"
        },
        {
          "updated": "2020-05-29T12:47:56.769Z",
          "downloadUrl": "https://firebasestorage.googleapis.com/v0/b/onearmyworld.appspot.com/o/uploads%2Fv3_howtos%2Fvat8toEpIvcUJZRYPtW9%2FExtruded%20furniture-3.jpg?alt=media&token=8cc25fa0-c381-45d0-af15-d2ec26121040",
          "type": "image/jpeg",
          "contentType": "image/jpeg",
          "timeCreated": "2020-05-29T12:47:56.769Z",
          "fullPath": "uploads/v3_howtos/vat8toEpIvcUJZRYPtW9/Extruded furniture-3.jpg",
          "size": 135213,
          "name": "Extruded furniture-3.jpg"
        },
        {
          "name": "20200527_100754.jpg",
          "timeCreated": "2020-05-31T05:17:09.140Z",
          "type": "image/jpeg",
          "fullPath": "uploads/v3_howtos/vat8toEpIvcUJZRYPtW9/20200527_100754.jpg",
          "updated": "2020-05-31T05:17:09.140Z",
          "size": 202617,
          "downloadUrl": "https://firebasestorage.googleapis.com/v0/b/onearmyworld.appspot.com/o/uploads%2Fv3_howtos%2Fvat8toEpIvcUJZRYPtW9%2F20200527_100754.jpg?alt=media&token=2f869477-39e1-4f59-a113-1d5713fffda5",
          "contentType": "image/jpeg"
        }
      ],
      "_animationKey": "unique1",
      "text": "We use the mix of plastic found on the beach or in the environment, about 40 % LDPE, 20% HDPE, 20 % PP, 10 % shrunk EPS and a small amount of shredded  PET, aluminium coa. ted chips bags, EVA ,  but no PVC .... we accept some downgrading which is possible for a bit lower quality in this way.\nMy friend Toan Nguyen has developed the first extruders built in Vietnam.",
      "caption": "",
      "title": "Extruding sticks"
    },
    {
      "text": "Choose a furniture design (you can just copy an existing piece of furniture which is made out of wood) and prepare the pieces you need to build it.\n\nIn most furniture it's enough to use straight beams, but you can also bend the sticks so you have round elements.",
      "title": "Prepare your pieces",
      "_animationKey": "unique2",
      "caption": "",
      "images": [
        {
          "updated": "2020-05-29T12:48:00.199Z",
          "contentType": "image/jpeg",
          "type": "image/jpeg",
          "timeCreated": "2020-05-29T12:48:00.199Z",
          "downloadUrl": "https://firebasestorage.googleapis.com/v0/b/onearmyworld.appspot.com/o/uploads%2Fv3_howtos%2Fvat8toEpIvcUJZRYPtW9%2FExtruded%20furniture-10.jpg?alt=media&token=21783210-4a30-449a-a424-254c07591f2a",
          "name": "Extruded furniture-10.jpg",
          "size": 133017,
          "fullPath": "uploads/v3_howtos/vat8toEpIvcUJZRYPtW9/Extruded furniture-10.jpg"
        },
        {
          "timeCreated": "2020-05-29T12:48:00.764Z",
          "contentType": "image/jpeg",
          "type": "image/jpeg",
          "fullPath": "uploads/v3_howtos/vat8toEpIvcUJZRYPtW9/Extruded furniture-2.jpg",
          "downloadUrl": "https://firebasestorage.googleapis.com/v0/b/onearmyworld.appspot.com/o/uploads%2Fv3_howtos%2Fvat8toEpIvcUJZRYPtW9%2FExtruded%20furniture-2.jpg?alt=media&token=d957a375-8226-4081-b5b0-4c7a26e70e48",
          "name": "Extruded furniture-2.jpg",
          "updated": "2020-05-29T12:48:00.764Z",
          "size": 203647
        }
      ]
    },
    {
      "text": "If you have all your parts ready you just need to screw them together like you would do with wood.\nThen your furniture is done!",
      "images": [
        {
          "timeCreated": "2020-05-29T12:48:02.488Z",
          "downloadUrl": "https://firebasestorage.googleapis.com/v0/b/onearmyworld.appspot.com/o/uploads%2Fv3_howtos%2Fvat8toEpIvcUJZRYPtW9%2FExtruded%20furniture-4.jpg?alt=media&token=8c009c3c-0c4d-4911-bc27-e254857610ef",
          "name": "Extruded furniture-4.jpg",
          "contentType": "image/jpeg",
          "fullPath": "uploads/v3_howtos/vat8toEpIvcUJZRYPtW9/Extruded furniture-4.jpg",
          "size": 152849,
          "updated": "2020-05-29T12:48:02.488Z",
          "type": "image/jpeg"
        },
        {
          "timeCreated": "2020-05-29T12:48:02.773Z",
          "type": "image/jpeg",
          "updated": "2020-05-29T12:48:02.773Z",
          "fullPath": "uploads/v3_howtos/vat8toEpIvcUJZRYPtW9/Extruded furniture-7.jpg",
          "name": "Extruded furniture-7.jpg",
          "size": 161255,
          "contentType": "image/jpeg",
          "downloadUrl": "https://firebasestorage.googleapis.com/v0/b/onearmyworld.appspot.com/o/uploads%2Fv3_howtos%2Fvat8toEpIvcUJZRYPtW9%2FExtruded%20furniture-7.jpg?alt=media&token=5a3ebcf6-5f8d-454a-9380-927f0f94c462"
        },
        {
          "timeCreated": "2020-05-29T12:48:02.789Z",
          "fullPath": "uploads/v3_howtos/vat8toEpIvcUJZRYPtW9/Extruded furniture-8.jpg",
          "type": "image/jpeg",
          "size": 92850,
          "downloadUrl": "https://firebasestorage.googleapis.com/v0/b/onearmyworld.appspot.com/o/uploads%2Fv3_howtos%2Fvat8toEpIvcUJZRYPtW9%2FExtruded%20furniture-8.jpg?alt=media&token=406c8b32-7093-4afa-9a4a-4f73ef08ed39",
          "contentType": "image/jpeg",
          "name": "Extruded furniture-8.jpg",
          "updated": "2020-05-29T12:48:02.789Z"
        }
      ],
      "_animationKey": "uniqueea80nr",
      "title": "Screw the parts together"
    },
    {
      "text": "In this way we can process lots of plastic and all kinds. \nWe build outdoor shelves, tables ...\nand publish on our Youtube channel PACIFIC BEAUTY plastic. \n\nYou can see more about this process in this video:\nhttps://www.youtube.com/watch?v=_0Kbeaz63OY\n\nHave fun! :)",
      "images": [
        {
          "fullPath": "uploads/v3_howtos/vat8toEpIvcUJZRYPtW9/Extruded furniture-9.jpg",
          "type": "image/jpeg",
          "timeCreated": "2020-05-29T12:48:04.671Z",
          "contentType": "image/jpeg",
          "updated": "2020-05-29T12:48:04.671Z",
          "name": "Extruded furniture-9.jpg",
          "size": 205453,
          "downloadUrl": "https://firebasestorage.googleapis.com/v0/b/onearmyworld.appspot.com/o/uploads%2Fv3_howtos%2Fvat8toEpIvcUJZRYPtW9%2FExtruded%20furniture-9.jpg?alt=media&token=eb72df71-8feb-4193-b030-c76decf83ac2"
        },
        {
          "contentType": "image/jpeg",
          "name": "20200214_163555.jpg",
          "updated": "2020-05-31T03:57:39.703Z",
          "downloadUrl": "https://firebasestorage.googleapis.com/v0/b/onearmyworld.appspot.com/o/uploads%2Fv3_howtos%2Fvat8toEpIvcUJZRYPtW9%2F20200214_163555.jpg?alt=media&token=489fe568-d944-4ffa-88f2-e491589f7864",
          "fullPath": "uploads/v3_howtos/vat8toEpIvcUJZRYPtW9/20200214_163555.jpg",
          "type": "image/jpeg",
          "timeCreated": "2020-05-31T03:57:39.703Z",
          "size": 214237
        },
        {
          "type": "image/jpeg",
          "updated": "2020-05-31T03:57:39.605Z",
          "contentType": "image/jpeg",
          "size": 105337,
          "downloadUrl": "https://firebasestorage.googleapis.com/v0/b/onearmyworld.appspot.com/o/uploads%2Fv3_howtos%2Fvat8toEpIvcUJZRYPtW9%2F2df6dc615cfa5c0d898b44dce125e440.0.jpg?alt=media&token=6054353c-9567-4053-b6fd-e749abb7fd93",
          "timeCreated": "2020-05-31T03:57:39.605Z",
          "fullPath": "uploads/v3_howtos/vat8toEpIvcUJZRYPtW9/2df6dc615cfa5c0d898b44dce125e440.0.jpg",
          "name": "2df6dc615cfa5c0d898b44dce125e440.0.jpg"
        }
      ],
      "_animationKey": "uniquei2z8jv",
      "title": "Make more!"
    }
  ],
  "moderation": "accepted",
  "difficulty_level": "Medium",
  "title": "Make outdoor furniture with beams"
}