{
  "cover_image": {
    "timeCreated": "2021-01-25T05:49:35.110Z",
    "updated": "2021-01-25T05:49:35.110Z",
    "type": "image/jpeg",
    "name": "HowToCOVER_InjectionMouldLogSplitter.png",
    "size": 122336,
    "contentType": "image/jpeg",
    "downloadUrl": "https://firebasestorage.googleapis.com/v0/b/onearmyworld.appspot.com/o/uploads%2Fhowtos%2FOClSY1mX9WWqTdNWy0vQ%2FHowToCOVER_InjectionMouldLogSplitter.png?alt=media&token=d7f4fd71-8c8f-4536-b1c7-46544811292d",
    "fullPath": "uploads/howtos/OClSY1mX9WWqTdNWy0vQ/HowToCOVER_InjectionMouldLogSplitter.png"
  },
  "slug": "log-splitter-injector-upgrade",
  "title": "Log splitter injector upgrade",
  "description": "Need a little more power, or just feeling lazy? We've upgraded our PP injection mould machine using a 5T log splitter - this has made a world of difference to our production capabilities. In these videos, we discuss how we did it, as well as our process for creating thick parts.\n\nNote: THIS UPGRADE IS DANGEROUS! Please take care with hydraulic machinery.",
  "moderation": "accepted",
  "_createdBy": "infoplasticorgau",
  "difficulty_level": "Medium",
  "creatorCountry": "au",
  "time": "< 1 week",
  "_modified": "2021-01-25T10:50:15.926Z",
  "steps": [
    {
      "text": "Here, we're covering the upgrade to the Injection Machine.\n\nYou'll need:\n• A Precious Plastic injection machine\n• A 5T log splitter\n• Ability to cut steel, weld and drill holes\n• Hopper (see .zip file attached)\n\nBelow is the direct link to the particular log splitter we used:\nwww.bunnings.com.au/homelite-2200w-5t-electric-log-splitter_p0044725",
      "title": "How we built it",
      "_animationKey": "unique1",
      "videoUrl": "https://youtu.be/uR8wmNgJvdU",
      "images": []
    },
    {
      "_animationKey": "unique2",
      "title": "How we use it",
      "images": [],
      "videoUrl": "https://youtu.be/8CqJJLTXk5w",
      "text": "In this video, we walk you through how we use our hydraulic injection moulding machine. We designed this machine to assist us in creating larger, thicker and 'trickier' products.\n\nAs safety is a concern, it may be helpful to include something to monitor pressure within the barrel. Initially, we were using a load cell, however as it reduced our stroke length, we are now either adding vents to our moulds or dosing the barrel with the correct amount of plastic for each shot."
    },
    {
      "images": [
        {
          "timeCreated": "2021-01-25T05:49:37.605Z",
          "contentType": "image/jpeg",
          "fullPath": "uploads/howtos/OClSY1mX9WWqTdNWy0vQ/Vert.PNG",
          "updated": "2021-01-25T05:49:37.605Z",
          "size": 87342,
          "downloadUrl": "https://firebasestorage.googleapis.com/v0/b/onearmyworld.appspot.com/o/uploads%2Fhowtos%2FOClSY1mX9WWqTdNWy0vQ%2FVert.PNG?alt=media&token=d2fac088-5f89-4751-911a-b59b679ea3a5",
          "type": "image/jpeg",
          "name": "Vert.PNG"
        },
        {
          "timeCreated": "2021-01-25T05:49:37.737Z",
          "type": "image/jpeg",
          "fullPath": "uploads/howtos/OClSY1mX9WWqTdNWy0vQ/V1 splitter.jpg",
          "name": "V1 splitter.jpg",
          "contentType": "image/jpeg",
          "updated": "2021-01-25T05:49:37.737Z",
          "downloadUrl": "https://firebasestorage.googleapis.com/v0/b/onearmyworld.appspot.com/o/uploads%2Fhowtos%2FOClSY1mX9WWqTdNWy0vQ%2FV1%20splitter.jpg?alt=media&token=bd55679f-1ed7-4d3b-9081-5d2b62725ce9",
          "size": 183540
        }
      ],
      "text": "This machine may not suit all workshops, however it has certainly been worth it's weight in gold for us!\n\nIf you plan on upgrading your machine, here are a few things to try:\n• Monitor pressure. We used a load cell (see second image) in our first version, however it shortened our stroke length and we are now weighing each shot\n• Change the orientation to suit your workshop.\n• Create a quick release that will work on a moving barrel (and share the How-To!)\n\nFinally, be careful. We do not accept any responsibly for loss or damages - this 'How-To' is intended to be educational not instructional. \n\nFollow us @preciousplasticmelbourne and tag us in your upgrade!",
      "_animationKey": "uniquexjfx1j",
      "title": "Build your own!"
    }
  ],
  "_id": "OClSY1mX9WWqTdNWy0vQ",
  "files": [
    {
      "updated": "2021-01-25T05:49:45.983Z",
      "name": "Injection Hopper - Log Splitter.zip",
      "size": 460044,
      "timeCreated": "2021-01-25T05:49:45.983Z",
      "downloadUrl": "https://firebasestorage.googleapis.com/v0/b/onearmyworld.appspot.com/o/uploads%2Fhowtos%2FOClSY1mX9WWqTdNWy0vQ%2FInjection%20Hopper%20-%20Log%20Splitter.zip?alt=media&token=3073f7da-afd4-4300-9d98-074aed8a4536",
      "fullPath": "uploads/howtos/OClSY1mX9WWqTdNWy0vQ/Injection Hopper - Log Splitter.zip",
      "type": "application/zip",
      "contentType": "application/zip"
    }
  ],
  "_created": "2021-01-19T03:55:27.194Z",
  "_deleted": false,
  "tags": [
    "injection",
    "hack"
  ]
}