{
  "difficulty_level": "Easy",
  "description": "This how to explain the simple process of polishing a piece of PS BEAMS to a shining and beautiful jewelry or key ring! You will need for this a machine to cut slice of the beames and then different polishing grains. It is better to have an electric polishing machine.. you will get better result with the transparency and the shine :-)",
  "_id": "SQczNFbk9Wrw8rgj9nwI",
  "_modified": "2020-10-20T14:28:59.738Z",
  "files": [],
  "tags": [
    "PS",
    "product",
    "extrusion"
  ],
  "cover_image": {
    "size": 121943,
    "fullPath": "uploads/howtos/SQczNFbk9Wrw8rgj9nwI/beam jewelry.jpg",
    "name": "beam jewelry.jpg",
    "type": "image/jpeg",
    "updated": "2020-10-13T10:21:35.029Z",
    "downloadUrl": "https://firebasestorage.googleapis.com/v0/b/onearmyworld.appspot.com/o/uploads%2Fhowtos%2FSQczNFbk9Wrw8rgj9nwI%2Fbeam%20jewelry.jpg?alt=media&token=0f5320f4-961c-4660-b03a-706daca4475f",
    "contentType": "image/jpeg",
    "timeCreated": "2020-10-13T10:21:35.029Z"
  },
  "steps": [
    {
      "_animationKey": "unique1",
      "title": "Cut the beames",
      "text": "The first step is to cut the beams, you can cut slices or little blocks as you want. Slices are better for earrings or necklaces and little blocks are better for key ring. Be sure to cut a slice a little thicker than the desired final thickness because when you polish it will become thinner. ",
      "images": [
        {
          "name": "A1.jpg",
          "contentType": "image/jpeg",
          "downloadUrl": "https://firebasestorage.googleapis.com/v0/b/onearmyworld.appspot.com/o/uploads%2Fv3_howtos%2FSQczNFbk9Wrw8rgj9nwI%2FA1.jpg?alt=media&token=6663e9a4-0ef8-42c9-9c93-06173443cb78",
          "type": "image/jpeg",
          "updated": "2020-10-07T11:43:49.216Z",
          "fullPath": "uploads/v3_howtos/SQczNFbk9Wrw8rgj9nwI/A1.jpg",
          "size": 296009,
          "timeCreated": "2020-10-07T11:43:49.216Z"
        },
        {
          "timeCreated": "2020-10-07T11:43:45.049Z",
          "name": "A3.jpg",
          "fullPath": "uploads/v3_howtos/SQczNFbk9Wrw8rgj9nwI/A3.jpg",
          "type": "image/jpeg",
          "size": 218761,
          "downloadUrl": "https://firebasestorage.googleapis.com/v0/b/onearmyworld.appspot.com/o/uploads%2Fv3_howtos%2FSQczNFbk9Wrw8rgj9nwI%2FA3.jpg?alt=media&token=e0bb169b-1c08-4506-a41c-42fc50c9bbfc",
          "contentType": "image/jpeg",
          "updated": "2020-10-07T11:43:45.049Z"
        },
        {
          "name": "A2.jpg",
          "timeCreated": "2020-10-07T11:43:50.012Z",
          "fullPath": "uploads/v3_howtos/SQczNFbk9Wrw8rgj9nwI/A2.jpg",
          "updated": "2020-10-07T11:43:50.012Z",
          "size": 374063,
          "contentType": "image/jpeg",
          "downloadUrl": "https://firebasestorage.googleapis.com/v0/b/onearmyworld.appspot.com/o/uploads%2Fv3_howtos%2FSQczNFbk9Wrw8rgj9nwI%2FA2.jpg?alt=media&token=bfebba2b-9a54-435a-ad54-1a2daec127fd",
          "type": "image/jpeg"
        }
      ]
    },
    {
      "images": [
        {
          "fullPath": "uploads/v3_howtos/SQczNFbk9Wrw8rgj9nwI/IMG_3141.jpg",
          "downloadUrl": "https://firebasestorage.googleapis.com/v0/b/onearmyworld.appspot.com/o/uploads%2Fv3_howtos%2FSQczNFbk9Wrw8rgj9nwI%2FIMG_3141.jpg?alt=media&token=9e656dc7-aa57-4436-b4e8-22b1059b55b9",
          "size": 273345,
          "name": "IMG_3141.jpg",
          "timeCreated": "2020-10-07T11:43:58.765Z",
          "updated": "2020-10-07T11:43:58.765Z",
          "contentType": "image/jpeg",
          "type": "image/jpeg"
        },
        {
          "contentType": "image/jpeg",
          "name": "IMG_3154.jpg",
          "updated": "2020-10-07T11:43:57.855Z",
          "size": 244750,
          "type": "image/jpeg",
          "fullPath": "uploads/v3_howtos/SQczNFbk9Wrw8rgj9nwI/IMG_3154.jpg",
          "timeCreated": "2020-10-07T11:43:57.855Z",
          "downloadUrl": "https://firebasestorage.googleapis.com/v0/b/onearmyworld.appspot.com/o/uploads%2Fv3_howtos%2FSQczNFbk9Wrw8rgj9nwI%2FIMG_3154.jpg?alt=media&token=a1649e62-549f-4ef1-bb35-ec0f7a706772"
        },
        {
          "contentType": "image/jpeg",
          "size": 212468,
          "timeCreated": "2020-10-07T11:43:56.898Z",
          "type": "image/jpeg",
          "updated": "2020-10-07T11:43:56.898Z",
          "fullPath": "uploads/v3_howtos/SQczNFbk9Wrw8rgj9nwI/IMG_3161.jpg",
          "downloadUrl": "https://firebasestorage.googleapis.com/v0/b/onearmyworld.appspot.com/o/uploads%2Fv3_howtos%2FSQczNFbk9Wrw8rgj9nwI%2FIMG_3161.jpg?alt=media&token=cbb939e9-42a7-4318-825f-5d034b325a29",
          "name": "IMG_3161.jpg"
        }
      ],
      "_animationKey": "unique2",
      "title": "Sculpt the slice",
      "text": "Step 2 will be to sculpt the slice to obtain the desired shape. You can sculpt it with an electric polishing machine or with different idea, it is up to you :-) I will sculpt it in a round shape to do earrings. "
    },
    {
      "title": "Polishing step",
      "_animationKey": "unique3",
      "images": [
        {
          "downloadUrl": "https://firebasestorage.googleapis.com/v0/b/onearmyworld.appspot.com/o/uploads%2Fv3_howtos%2FSQczNFbk9Wrw8rgj9nwI%2FIMG_3166.jpg?alt=media&token=4cd44e27-f716-498b-b4cc-cd192b75ea55",
          "fullPath": "uploads/v3_howtos/SQczNFbk9Wrw8rgj9nwI/IMG_3166.jpg",
          "type": "image/jpeg",
          "name": "IMG_3166.jpg",
          "timeCreated": "2020-10-07T11:44:07.932Z",
          "size": 138018,
          "updated": "2020-10-07T11:44:07.932Z",
          "contentType": "image/jpeg"
        },
        {
          "updated": "2020-10-07T11:44:07.855Z",
          "fullPath": "uploads/v3_howtos/SQczNFbk9Wrw8rgj9nwI/IMG_3175.jpg",
          "timeCreated": "2020-10-07T11:44:07.855Z",
          "contentType": "image/jpeg",
          "name": "IMG_3175.jpg",
          "size": 151600,
          "type": "image/jpeg",
          "downloadUrl": "https://firebasestorage.googleapis.com/v0/b/onearmyworld.appspot.com/o/uploads%2Fv3_howtos%2FSQczNFbk9Wrw8rgj9nwI%2FIMG_3175.jpg?alt=media&token=95718a16-856d-43cd-a8b0-5b557bdc35f9"
        },
        {
          "timeCreated": "2020-10-07T11:44:07.766Z",
          "name": "IMG_3178.jpg",
          "type": "image/jpeg",
          "downloadUrl": "https://firebasestorage.googleapis.com/v0/b/onearmyworld.appspot.com/o/uploads%2Fv3_howtos%2FSQczNFbk9Wrw8rgj9nwI%2FIMG_3178.jpg?alt=media&token=1ffb4453-d6c9-4b82-a3ee-1b8dbd77164b",
          "contentType": "image/jpeg",
          "size": 127909,
          "updated": "2020-10-07T11:44:07.766Z",
          "fullPath": "uploads/v3_howtos/SQczNFbk9Wrw8rgj9nwI/IMG_3178.jpg"
        }
      ],
      "text": "Now that you have your shape, you can start polish it. Make sure you start with the thickest grain and end with the finer grain. The thinner it is, the smoother and more transparent the surface will become. Dont forget to do polish the edges as well so that they are rounded and soft to the touch "
    },
    {
      "images": [
        {
          "size": 181358,
          "updated": "2020-10-07T11:44:14.256Z",
          "fullPath": "uploads/v3_howtos/SQczNFbk9Wrw8rgj9nwI/IMG_3184.jpg",
          "type": "image/jpeg",
          "timeCreated": "2020-10-07T11:44:14.256Z",
          "downloadUrl": "https://firebasestorage.googleapis.com/v0/b/onearmyworld.appspot.com/o/uploads%2Fv3_howtos%2FSQczNFbk9Wrw8rgj9nwI%2FIMG_3184.jpg?alt=media&token=edb55a15-1329-4093-b031-e682796cfd5a",
          "name": "IMG_3184.jpg",
          "contentType": "image/jpeg"
        },
        {
          "name": "IMG_3190.jpg",
          "size": 205844,
          "downloadUrl": "https://firebasestorage.googleapis.com/v0/b/onearmyworld.appspot.com/o/uploads%2Fv3_howtos%2FSQczNFbk9Wrw8rgj9nwI%2FIMG_3190.jpg?alt=media&token=848f9dab-fc8f-4749-8574-3596c8297508",
          "timeCreated": "2020-10-07T11:44:14.958Z",
          "type": "image/jpeg",
          "contentType": "image/jpeg",
          "updated": "2020-10-07T11:44:14.958Z",
          "fullPath": "uploads/v3_howtos/SQczNFbk9Wrw8rgj9nwI/IMG_3190.jpg"
        },
        {
          "timeCreated": "2020-10-07T11:44:14.079Z",
          "size": 151595,
          "type": "image/jpeg",
          "updated": "2020-10-07T11:44:14.079Z",
          "fullPath": "uploads/v3_howtos/SQczNFbk9Wrw8rgj9nwI/IMG_3199.jpg",
          "contentType": "image/jpeg",
          "downloadUrl": "https://firebasestorage.googleapis.com/v0/b/onearmyworld.appspot.com/o/uploads%2Fv3_howtos%2FSQczNFbk9Wrw8rgj9nwI%2FIMG_3199.jpg?alt=media&token=1dcfa396-4e45-4f0d-9cad-953ab79d08f2",
          "name": "IMG_3199.jpg"
        }
      ],
      "text": "Ok now you have your little pebble smooth to the touch and almost transparent and shining. The last step is to polish it with cotton, so for that you will have to use patinas on your cotton. it will give you a great shining and a perfect transparency. \nYou have now your earrings (or necklace or key ring) ends!\nAll you have to do next is make small holes in it to pass your accessories, I use a screwdriver with a small metal bit. \n",
      "title": "Finishes step",
      "_animationKey": "uniquexo0ge"
    },
    {
      "text": "This if a few exemple of what you can do and how it will look when its completely done :-)",
      "title": "Final result",
      "_animationKey": "uniquenzh9c",
      "images": [
        {
          "name": "5EC1CA7E-A485-4763-A21C-611041AB8663-BF14D709-0D76-43F2-9E03-13E19C0B39FF.jpg",
          "downloadUrl": "https://firebasestorage.googleapis.com/v0/b/onearmyworld.appspot.com/o/uploads%2Fhowtos%2FSQczNFbk9Wrw8rgj9nwI%2F5EC1CA7E-A485-4763-A21C-611041AB8663-BF14D709-0D76-43F2-9E03-13E19C0B39FF.jpg?alt=media&token=6340fbfe-cc02-4310-9ede-473bcc864905",
          "timeCreated": "2020-10-20T13:45:02.218Z",
          "size": 237696,
          "contentType": "image/jpeg",
          "fullPath": "uploads/howtos/SQczNFbk9Wrw8rgj9nwI/5EC1CA7E-A485-4763-A21C-611041AB8663-BF14D709-0D76-43F2-9E03-13E19C0B39FF.jpg",
          "updated": "2020-10-20T13:45:02.218Z",
          "type": "image/jpeg"
        },
        {
          "fullPath": "uploads/howtos/SQczNFbk9Wrw8rgj9nwI/A5FB9A54-8442-426B-8503-B8E9B9191D5F-398B906F-1221-40E3-9BFE-65AA1FF395D9.jpg",
          "contentType": "image/jpeg",
          "downloadUrl": "https://firebasestorage.googleapis.com/v0/b/onearmyworld.appspot.com/o/uploads%2Fhowtos%2FSQczNFbk9Wrw8rgj9nwI%2FA5FB9A54-8442-426B-8503-B8E9B9191D5F-398B906F-1221-40E3-9BFE-65AA1FF395D9.jpg?alt=media&token=c82dae59-7ae7-47d6-b0a8-d6526e4fc8c2",
          "size": 257188,
          "updated": "2020-10-20T13:45:02.183Z",
          "type": "image/jpeg",
          "timeCreated": "2020-10-20T13:45:02.183Z",
          "name": "A5FB9A54-8442-426B-8503-B8E9B9191D5F-398B906F-1221-40E3-9BFE-65AA1FF395D9.jpg"
        },
        {
          "updated": "2020-10-20T13:45:02.400Z",
          "contentType": "image/jpeg",
          "downloadUrl": "https://firebasestorage.googleapis.com/v0/b/onearmyworld.appspot.com/o/uploads%2Fhowtos%2FSQczNFbk9Wrw8rgj9nwI%2FF9E68BFB-2233-4249-9700-B011DD33B45C-68F8DB73-D9AA-4DDD-AA97-F30A43F5A190.jpg?alt=media&token=7b2cad69-4644-4ee8-bd78-8d1c43534cb2",
          "timeCreated": "2020-10-20T13:45:02.400Z",
          "name": "F9E68BFB-2233-4249-9700-B011DD33B45C-68F8DB73-D9AA-4DDD-AA97-F30A43F5A190.jpg",
          "type": "image/jpeg",
          "size": 239755,
          "fullPath": "uploads/howtos/SQczNFbk9Wrw8rgj9nwI/F9E68BFB-2233-4249-9700-B011DD33B45C-68F8DB73-D9AA-4DDD-AA97-F30A43F5A190.jpg"
        }
      ]
    }
  ],
  "time": "< 1 week",
  "_deleted": false,
  "_createdBy": "plasticfactorybe",
  "_created": "2020-10-07T11:44:15.552Z",
  "moderation": "accepted",
  "slug": "make-beam-jewelry--key-rings",
  "creatorCountry": "be",
  "title": "Make beam jewelry / key rings"
}