{
  "_deleted": false,
  "moderation": "accepted",
  "slug": "weld-a-mould-to-make-colourful-tiles-from-plastic-",
  "description": "Taco will show you a simple technique to weld a mould to make colourful recycled tiles.",
  "tags": [
    "mould",
    "product",
    "injection"
  ],
  "difficulty_level": "Medium",
  "_createdBy": "precious-plastic",
  "time": "< 1 week",
  "_modified": "2021-03-03T22:25:35.721Z",
  "_id": "g5L2TEd4GNoxHsFcDyVF",
  "_created": "2018-10-15T21:00:21.903Z",
  "files": [],
  "title": "Weld a mould to make colourful tiles from plastic ",
  "cover_image": {
    "updated": "2020-05-12T21:15:49.120Z",
    "timeCreated": "2018-10-15T21:15:49.120Z",
    "fullPath": "uploads/v3_howtos/g5L2TEd4GNoxHsFcDyVF/tile_01.jpg",
    "downloadUrl": "https://firebasestorage.googleapis.com/v0/b/onearmyworld.appspot.com/o/uploads%2Fv3_howtos%2Fg5L2TEd4GNoxHsFcDyVF%2Ftile_01.jpg?alt=media&token=0a7d8127-6ca8-4959-8560-fa5b7f318df7",
    "name": "tile_01.jpg",
    "type": "image/jpeg",
    "contentType": "image/jpeg",
    "size": 191972
  },
  "steps": [
    {
      "_animationKey": "unique1",
      "images": [
        {
          "size": 56892,
          "fullPath": "uploads/v3_howtos/g5L2TEd4GNoxHsFcDyVF/tile_02.png",
          "timeCreated": "2020-05-12T21:15:50.156Z",
          "name": "tile_02.png",
          "contentType": "image/jpeg",
          "updated": "2020-05-12T21:15:50.156Z",
          "downloadUrl": "https://firebasestorage.googleapis.com/v0/b/onearmyworld.appspot.com/o/uploads%2Fv3_howtos%2Fg5L2TEd4GNoxHsFcDyVF%2Ftile_02.png?alt=media&token=7c51d58a-d52c-4fd9-a83b-6de7be5578ed",
          "type": "image/jpeg"
        },
        {
          "timeCreated": "2020-05-12T21:15:50.937Z",
          "fullPath": "uploads/v3_howtos/g5L2TEd4GNoxHsFcDyVF/tile_03.png",
          "size": 70587,
          "contentType": "image/jpeg",
          "type": "image/jpeg",
          "downloadUrl": "https://firebasestorage.googleapis.com/v0/b/onearmyworld.appspot.com/o/uploads%2Fv3_howtos%2Fg5L2TEd4GNoxHsFcDyVF%2Ftile_03.png?alt=media&token=520383fc-de19-4c5e-97ff-a45005c2c523",
          "updated": "2020-05-12T21:15:50.937Z",
          "name": "tile_03.png"
        }
      ],
      "title": "Gather everything you need",
      "text": "Before you start get all your gear ready:\n- Respirator mask\n- Metal\n- Bolts and nuts\n- Plastic (PE, PP, PS)\n- Angle grinder\n- Drill\n- Welding machine\n- Sanding paper\n- Injection machine\n- Plastic Type Stamp"
    },
    {
      "images": [],
      "videoUrl": "https://www.youtube.com/watch?v=dYG7qcGp5mc",
      "title": "Watch this video tutorial",
      "_animationKey": "unique2",
      "text": "Watch this video tutorial to learn step-by-step how to make the octagonal mould, polish it and inject a classic recycled tile."
    },
    {
      "text": "After watching this video you should understand the basics of wedling moulds. You can reproduce the tile or try to make other products. We’re looking forward to seeing what you can come up with. Make sure to share back your new creations so the community can learn from you. Tag #preciousplastic on social media, create a new how-to or send us an email.",
      "images": [
        {
          "name": "tile_04.jpg",
          "type": "image/jpeg",
          "updated": "2020-05-12T21:15:52.506Z",
          "contentType": "image/jpeg",
          "fullPath": "uploads/v3_howtos/g5L2TEd4GNoxHsFcDyVF/tile_04.jpg",
          "downloadUrl": "https://firebasestorage.googleapis.com/v0/b/onearmyworld.appspot.com/o/uploads%2Fv3_howtos%2Fg5L2TEd4GNoxHsFcDyVF%2Ftile_04.jpg?alt=media&token=073c22fb-4d76-4bb6-b109-b9e1e303d741",
          "timeCreated": "2020-05-12T21:15:52.506Z",
          "size": 155894
        },
        {
          "downloadUrl": "https://firebasestorage.googleapis.com/v0/b/onearmyworld.appspot.com/o/uploads%2Fv3_howtos%2Fg5L2TEd4GNoxHsFcDyVF%2Frecycled-plastic-coaster.jpg?alt=media&token=675f6ea5-6be3-4b68-9f6b-fa0059dac9b2",
          "fullPath": "uploads/v3_howtos/g5L2TEd4GNoxHsFcDyVF/recycled-plastic-coaster.jpg",
          "name": "recycled-plastic-coaster.jpg",
          "type": "image/jpeg",
          "timeCreated": "2020-06-02T14:00:24.602Z",
          "updated": "2020-06-02T14:00:24.602Z",
          "contentType": "image/jpeg",
          "size": 297409
        }
      ],
      "_animationKey": "unique3",
      "title": "Done & Share"
    },
    {
      "title": "(optional) Lasercut the mould",
      "_animationKey": "uniquer1577l",
      "images": [
        {
          "size": 43970,
          "updated": "2020-06-02T14:00:27.592Z",
          "fullPath": "uploads/v3_howtos/g5L2TEd4GNoxHsFcDyVF/hexo_02.JPG",
          "downloadUrl": "https://firebasestorage.googleapis.com/v0/b/onearmyworld.appspot.com/o/uploads%2Fv3_howtos%2Fg5L2TEd4GNoxHsFcDyVF%2Fhexo_02.JPG?alt=media&token=93e8874b-4711-44ed-9262-78f2a1be3e83",
          "contentType": "image/jpeg",
          "timeCreated": "2020-06-02T14:00:27.592Z",
          "type": "image/jpeg",
          "name": "hexo_02.JPG"
        },
        {
          "updated": "2020-06-02T14:00:28.466Z",
          "size": 208793,
          "contentType": "image/jpeg",
          "name": "lasercut.jpg",
          "timeCreated": "2020-06-02T14:00:28.466Z",
          "fullPath": "uploads/v3_howtos/g5L2TEd4GNoxHsFcDyVF/lasercut.jpg",
          "type": "image/jpeg",
          "downloadUrl": "https://firebasestorage.googleapis.com/v0/b/onearmyworld.appspot.com/o/uploads%2Fv3_howtos%2Fg5L2TEd4GNoxHsFcDyVF%2Flasercut.jpg?alt=media&token=2d662330-75c9-4210-8937-df0f2f252cef"
        }
      ],
      "text": "This technique was originally released in V3. By now many community members around the world used and upgraded it. Lasercutting is a common technique for it so you can easily make many different shapes and sizes. There are also many variations for sale in our bazar. "
    }
  ],
  "creatorCountry": "fr"
}