{
    "slug": "obelix",
    "category": "shredder",
    "product_code": "OX",
    "product_name": "Dual Axis Shredder - Obelix",
    "price_total": "4400 Euro (before VAT & transport)",
    "price": "5500+ Euro",
    "shipping_eu": "180 Euro",
    "package_size": "155cm x 100cm x 80cm",
    "needs_assembly": false,
    "status": "Mature - Rev-A",
    "product_wiki": "https://library.plastic-hub.com/machines/obelix.html",
    "product_wiring": "https://library.plastic-hub.com/machines/hal-obelix.html",
    "product_bom": "https://docs.google.com/spreadsheets/d/1bsABuw7DK893pk66kJFMCaeYyWwoFdA1Yb9VoP8c17k/edit?usp=sharing",
    "product_parts": "${abs_url}/${product_rel}/drawings/parts.JPG",
    "product_dimensions": "${abs_url}/${product_rel}/drawings/dimensions.JPG",
    "download": "${site}/archives/${slug}.zip",
    "product_page": "${abs_url}/products/${slug}.html",
    "parts": "parts.csv",
    "specs": "specs.csv",
    "osr_version": "1.0.1",
    "variables": {
        "material_sknifes": "hardox450",
        "material_mknifes": "hardox450"
    },
    "configurations": {
        "2kW": {
            "weight": 250
        },
        "4kW": {
            "weight": 270
        },
        "addons": {
            "auto-plunger": {
                "weight": 10
            }
        }
    },
    "components": [
        "${CAD}/${CONFIGURATION}/100_Shredderbox",
        "${CAD}/${CONFIGURATION}/190_Sieve",
        "${CAD}/${CONFIGURATION}/300_LowerHopper",
        "${CAD}/${CONFIGURATION}/350_UpperHopper",
        "${CAD}/${CONFIGURATION}/450_EPlunger",
        "${CAD}/${CONFIGURATION}/600_Housing",
        "${CAD}/${CONFIGURATION}/700_Table",
        "${CAD}/${CONFIGURATION}/750_Bin",
        "${COMPONENTS}/900_ControlPanel-Min",
        "${COMPONENTS}/900_ControlPanel-Max"
    ],
    "opensource": true,
    "bestseller": true,
    "Preview3d": true,
    "authors": [
        {
            "name": "PlasticHub S.L.",
            "url": "${author_link}",
            "description": "Development & Testing"
        },
        {
            "name": "PreciousPlastic - Eindhoven",
            "url": "${author_link_pp}",
            "description": "Inital Version"
        },
        {
            "name": "Dan Shirley - Timberstar",
            "url": "https://tsltd.github.io/",
            "description": "CAD"
        },
        {
            "name": "Jason Knight",
            "url": "https://www.mandin.earth/jason",
            "description": "CAD - 4kW update"
        }
    ]
}