{

    "slug" : "sheetpress-cell",
    "category" : "sheetpress",
    "product_name":"Sheetpress - Cell",
    "price" : "4300 Euro",
    "price_total" : "1136 Euro (VAT & transport)",
    "shipping_eu" : "120 Euro",
    "product_cad": "https://gitlab.com/plastichub/products/tree/master/products/sheetpress-cell/cad",
    "product_drawings" : "https://gitlab.com/plastichub/products/tree/master/products/sheetpress-cell/drawings",
    "product_github" : "https://gitlab.com/plastichub/products/tree/master/products/sheetpress-cell",
    "product_3d" : "https://a360.co/2ZxZ8Jy",
    "product_wiki" : "https://library.plastic-hub.com/machines/sheetpress-cell.html",
    "product_chat" : "https://discord.gg/SN6MT5N",
    "product_overview": "${abs_url}/products/sheetpress-cell/renderings/single_cell-outline.JPG",
    "requirements" : "requirements.csv",
    "requirements-source" : "https://docs.google.com/spreadsheets/d/1lSuaTlKM3EEFC4LCiqUVU5M98ugaGAiQGYHQaabcFZo/edit?usp=sharing",
    "download" : "${site}/archives/${slug}.zip",
    "product_dimensions": "${abs_url}/${product_rel}/drawings/dimensions.JPG",
    "product_parts": "${abs_url}/${product_rel}/drawings/parts.JPG",
    "product_page" : "${abs_url}/products/${slug}.html",
    "parts" : "parts.csv",
    "keywords" : "sheetpress"
}
