Tool / Machine,Description,Price,Category
Forklift,If you don't have good crane which can lift up to 200KG up to 1.70m you might look for a forklift. ,700 Euro +,Assembly
11.75 mm Drill,This is needed for the cartridge heater blocks,20 Euro,Cartridge Heaters
11.90 mm Drill,This is needed for the cartridge heater blocks - for the final pass,20 Euro,Cartridge Heaters
Small Drillpress,That's a better choice over a hand drill which is getting very hot after 20 M6 holes alone.,250 Euro,Press Plate holes
Shop Press,This is needed to press cartridge heaters into the blocks. As alternative you try a bigger vise which is faster but may damage the heaters. Ideally you use both. ,220 Euro,Cartridge Heaters
