{
  "cover_image": {
    "timeCreated": "2020-01-07T14:38:41.912Z",
    "updated": "2020-01-07T14:38:41.912Z",
    "downloadUrl": "https://firebasestorage.googleapis.com/v0/b/onearmyworld.appspot.com/o/uploads%2Fv3_howtos%2FOXJxHRjLia2eyI9Mrixz%2Fcover-collection-3.jpg?alt=media&token=116b0fa9-ab0b-4df5-9068-28696a515b04",
    "fullPath": "uploads/v3_howtos/OXJxHRjLia2eyI9Mrixz/cover-collection-3.jpg",
    "contentType": "image/jpeg",
    "name": "cover-collection-3.jpg",
    "size": 127698,
    "type": "image/jpeg"
  },
  "_created": "2019-12-07T10:16:52.395Z",
  "_createdBy": "precious-plastic",
  "title": "Set up a Collection Point",
  "description": "In this How-to we’re going to guide you through all the steps to set up a Collection Point. Learn about plastic, how to create the space, and how to grow a collection network and connect to the Precious Plastic Universe.\n\nDownload files: \n👉 https://cutt.ly/starterkit-collection 👈\n\nStep 1-3: Intro\nStep 4-11: Learn\nStep 12-19: Set up\nStep 20-25: Run\nStep 26-29: Share",
  "_id": "OXJxHRjLia2eyI9Mrixz",
  "_modified": "2021-03-03T22:25:35.715Z",
  "files": [],
  "tags": [
    "starterkit",
    "collection"
  ],
  "_deleted": false,
  "slug": "set-up-a-collection-point",
  "moderation": "accepted",
  "difficulty_level": "Medium",
  "steps": [
    {
      "text": "First of all, make sure you had a look at the showcase page of this Starterkit!\n👉 preciousplastic.com/starterkits/showcase/collection-point  \n\nNow about your Role: \n\nCollection Points are the “catchers” of the Precious Plastic Universe. \n\nThey save plastic from going to waste while fueling the network with raw material ready to be recycled. They collect plastic from people and businesses and sort it by type. This plastic is then passed on to Shredder Workspaces. ",
      "_animationKey": "unique1",
      "images": [
        {
          "name": "collection points - role.jpg",
          "type": "image/jpeg",
          "timeCreated": "2019-12-20T21:34:59.523Z",
          "downloadUrl": "https://firebasestorage.googleapis.com/v0/b/onearmyworld.appspot.com/o/uploads%2Fv2_howtos%2FOXJxHRjLia2eyI9Mrixz%2Fcollection%20points%20-%20role.jpg?alt=media&token=d7282d33-5b48-4a04-919c-b61c207fdff4",
          "contentType": "image/jpeg",
          "updated": "2019-12-20T21:34:59.523Z",
          "fullPath": "uploads/v2_howtos/OXJxHRjLia2eyI9Mrixz/collection points - role.jpg",
          "size": 93967
        }
      ],
      "title": "Role in the Precious Plastic Universe",
      "caption": ""
    },
    {
      "text": "The outcome of a Collection Point is collected plastic, cleaned and sorted by type (and colour), ready to be shred and recycled. \n\nIt can be collected from consumers or businesses. It's crucial that the plastic is label-free and clean for further processes, to keep a good quality of the recycled material. The cleaner and purer the plastic the higher its value.",
      "images": [
        {
          "timeCreated": "2019-12-25T18:11:02.747Z",
          "name": "howto-collection-outcome.jpg",
          "contentType": "image/jpeg",
          "size": 122460,
          "updated": "2019-12-25T18:11:02.747Z",
          "fullPath": "uploads/v2_howtos/OXJxHRjLia2eyI9Mrixz/howto-collection-outcome.jpg",
          "downloadUrl": "https://firebasestorage.googleapis.com/v0/b/onearmyworld.appspot.com/o/uploads%2Fv2_howtos%2FOXJxHRjLia2eyI9Mrixz%2Fhowto-collection-outcome.jpg?alt=media&token=50e711be-70b1-4aa1-9f7c-d1b08f4e2bce",
          "type": "image/jpeg"
        }
      ],
      "title": "Outcomes",
      "caption": "",
      "_animationKey": "unique2"
    },
    {
      "caption": "",
      "_animationKey": "unique3",
      "text": "Collection Points are great for someone who wants to do something about the plastic problem without having to build machines or make products.\n\nIt helps if you have good social skills and enjoy talking to people, educating, informing, reminding, correcting and generally helping understand the Precious Plastic Collection system.   \n\nYou will also have to be very organized as running a Collection Point might quickly become a logistical challenge.",
      "images": [
        {
          "downloadUrl": "https://firebasestorage.googleapis.com/v0/b/onearmyworld.appspot.com/o/uploads%2Fv2_howtos%2FOXJxHRjLia2eyI9Mrixz%2Fimage2.png?alt=media&token=35e14bd0-4b57-4548-9fca-d417cc7f7a84",
          "name": "image2.png",
          "updated": "2019-12-07T10:15:36.226Z",
          "fullPath": "uploads/v2_howtos/OXJxHRjLia2eyI9Mrixz/image2.png",
          "type": "image/jpeg",
          "timeCreated": "2019-12-07T10:15:36.226Z",
          "contentType": "image/jpeg",
          "size": 98750
        }
      ],
      "title": "Is this for you?"
    },
    {
      "title": "Learn about Precious Plastic",
      "images": [
        {
          "downloadUrl": "https://firebasestorage.googleapis.com/v0/b/onearmyworld.appspot.com/o/uploads%2Fv2_howtos%2FOXJxHRjLia2eyI9Mrixz%2Flearn-precious-plastic-universe.jpg?alt=media&token=40b57fc0-b800-4537-88a3-70158e504e21",
          "updated": "2020-01-05T03:15:05.549Z",
          "name": "learn-precious-plastic-universe.jpg",
          "timeCreated": "2020-01-05T03:15:05.549Z",
          "type": "image/jpeg",
          "contentType": "image/jpeg",
          "fullPath": "uploads/v2_howtos/OXJxHRjLia2eyI9Mrixz/learn-precious-plastic-universe.jpg",
          "size": 90314
        }
      ],
      "_animationKey": "uniquew4n1x",
      "text": "As a start, it’s super important to really know and understand Precious Plastic. What drives the project, how it works, its philosophy and solutions. Especially as a Collection Point you will have to answer a lot of questions about the project!\n\nIf you haven’t already, dig our website, community platform and Bazar to have a deep understanding of the project.\n👉 preciousplastic.com\n👉 community.preciousplastic.com\n👉 bazar.preciousplastic.com\n\nAlso, make sure to check the Universe chapter to fully understand how the Precious Plastic Universe works.\n👉 community.preciousplastic.com/academy/universe"
    },
    {
      "text": "Get an overview of who and what is already existing in your area. Have a look on the Precious Plastic Map to see the activity around you. You can also search for more people on the Precious Plastic Bazar or search for #preciousplastic on social media. \n\n👉 community.preciousplastic.com/map",
      "_animationKey": "uniquegv386k",
      "title": "Check out your area",
      "images": [
        {
          "name": "communitypoint-step4-map-.jpg",
          "type": "image/jpeg",
          "contentType": "image/jpeg",
          "fullPath": "uploads/v2_howtos/OXJxHRjLia2eyI9Mrixz/communitypoint-step4-map-.jpg",
          "size": 169749,
          "updated": "2020-01-05T03:15:09.461Z",
          "timeCreated": "2020-01-05T03:15:09.461Z",
          "downloadUrl": "https://firebasestorage.googleapis.com/v0/b/onearmyworld.appspot.com/o/uploads%2Fv2_howtos%2FOXJxHRjLia2eyI9Mrixz%2Fcommunitypoint-step4-map-.jpg?alt=media&token=117f9bdf-08ce-4c0c-90f7-a0952b2c2a37"
        }
      ]
    },
    {
      "title": "Find your local community",
      "images": [
        {
          "name": "image21.png",
          "size": 146765,
          "type": "image/jpeg",
          "downloadUrl": "https://firebasestorage.googleapis.com/v0/b/onearmyworld.appspot.com/o/uploads%2Fv2_howtos%2FOXJxHRjLia2eyI9Mrixz%2Fimage21.png?alt=media&token=f0ab2912-6b1c-49b3-b170-d6df7fa7cb8d",
          "contentType": "image/jpeg",
          "fullPath": "uploads/v2_howtos/OXJxHRjLia2eyI9Mrixz/image21.png",
          "updated": "2019-12-07T10:15:47.143Z",
          "timeCreated": "2019-12-07T10:15:47.143Z"
        }
      ],
      "_animationKey": "uniquesuufeo",
      "text": "It is more practical and fun if you involve people from your local community, so go out there and connect! You can find community members on the Precious Plastic Map or meet them on local events and presentations about the environment and more.\n\nAlso see if there is a Community Point in the area and get in touch - they are the glue of the Precious Plastic Universe and might be able to help you in multiple ways with their overview of the people and spaces in the local recycling network.\n\n👉 community.preciousplastic.com/map"
    },
    {
      "_animationKey": "uniqueikfuhm",
      "title": "Check out the Discord",
      "text": "Day to day discussions in the Precious Plastic Universe happen on Discord.\n\nIntroduce yourself, say hi in your country channel and start to discover the different channels where people go deep into specific topics (building, collection, design etc..)\n\nJoin the Discord:\n👉 discordapp.com/invite/rnx7m4t",
      "images": [
        {
          "downloadUrl": "https://firebasestorage.googleapis.com/v0/b/onearmyworld.appspot.com/o/uploads%2Fv2_howtos%2FOXJxHRjLia2eyI9Mrixz%2Fimage18.png?alt=media&token=7dd0952a-0e3a-4999-b5f3-0d0559dd3527",
          "type": "image/jpeg",
          "timeCreated": "2019-12-07T10:15:50.313Z",
          "name": "image18.png",
          "fullPath": "uploads/v2_howtos/OXJxHRjLia2eyI9Mrixz/image18.png",
          "contentType": "image/jpeg",
          "size": 105451,
          "updated": "2019-12-07T10:15:50.313Z"
        }
      ]
    },
    {
      "images": [
        {
          "downloadUrl": "https://firebasestorage.googleapis.com/v0/b/onearmyworld.appspot.com/o/uploads%2Fv2_howtos%2FOXJxHRjLia2eyI9Mrixz%2Fresearchplastic.jpg?alt=media&token=3539b812-ae12-474e-903b-5be4188361e8",
          "updated": "2019-12-25T17:21:38.728Z",
          "fullPath": "uploads/v2_howtos/OXJxHRjLia2eyI9Mrixz/researchplastic.jpg",
          "size": 115181,
          "type": "image/jpeg",
          "name": "researchplastic.jpg",
          "contentType": "image/jpeg",
          "timeCreated": "2019-12-25T17:21:38.728Z"
        }
      ],
      "title": "Learn the basics of plastic",
      "_animationKey": "uniqueacwiw",
      "text": "Alright, so you are going to start a collection point! First, it's important to get some knowledge about the plastic topic. Head over to our Academy and dive into the plastic chapters to learn about the different types and properties etc.\n\nAs a Collection Point, you want to introduce to people the “refuse, reduce, reuse and then recycle” way of living. By knowing a lot about the plastic topic yourself, you are able to answer their questions and spread the knowledge. \n\n👉 http://tiny.cc/basics-about-plastic"
    },
    {
      "_animationKey": "uniquetaqoew",
      "title": "Learn about plastic collection",
      "text": "Next, you can get familiar with how plastic collection works around the world and the Precious Plastic plan with our Collection video.\n\n👉 community.preciousplastic.com/academy/collect\n\nThese are the main things to take from the video: \n- Educate and enable citizens to be the change.\n- Collect clean label-free plastic.\n- Use the map to help people find Collection Points.\n- All info and how it works are on the website\n👉 collect.preciousplastic.com.\n\n",
      "images": [
        {
          "type": "image/jpeg",
          "timeCreated": "2020-01-07T14:23:57.134Z",
          "contentType": "image/jpeg",
          "downloadUrl": "https://firebasestorage.googleapis.com/v0/b/onearmyworld.appspot.com/o/uploads%2Fv3_howtos%2FOXJxHRjLia2eyI9Mrixz%2Fplastic-collection-point-video.jpg?alt=media&token=6b488510-38aa-4aeb-8206-707080d41f8b",
          "fullPath": "uploads/v3_howtos/OXJxHRjLia2eyI9Mrixz/plastic-collection-point-video.jpg",
          "size": 82336,
          "name": "plastic-collection-point-video.jpg",
          "updated": "2020-01-07T14:23:57.134Z"
        }
      ]
    },
    {
      "title": "Observe plastic uses in your area",
      "text": "Check around you. There is probably a lot of plastic being used and discarded.\n\nIt’s your task to individuate sources of plastic that could be recycled in the Precious Plastic Universe. Depending on where you live could be your neighbours, colleagues, local restaurants, shops or dumpsites.",
      "images": [
        {
          "contentType": "image/jpeg",
          "downloadUrl": "https://firebasestorage.googleapis.com/v0/b/onearmyworld.appspot.com/o/uploads%2Fv2_howtos%2FOXJxHRjLia2eyI9Mrixz%2Fhowto-collection-observe.jpg?alt=media&token=a04065c1-cd9e-4088-9440-18986dcfb163",
          "size": 112139,
          "type": "image/jpeg",
          "fullPath": "uploads/v2_howtos/OXJxHRjLia2eyI9Mrixz/howto-collection-observe.jpg",
          "timeCreated": "2019-12-25T17:21:40.473Z",
          "name": "howto-collection-observe.jpg",
          "updated": "2019-12-25T17:21:40.473Z"
        }
      ],
      "_animationKey": "unique6isml"
    },
    {
      "images": [
        {
          "timeCreated": "2019-12-07T10:16:03.143Z",
          "updated": "2019-12-07T10:16:03.143Z",
          "downloadUrl": "https://firebasestorage.googleapis.com/v0/b/onearmyworld.appspot.com/o/uploads%2Fv2_howtos%2FOXJxHRjLia2eyI9Mrixz%2Fimage13.png?alt=media&token=d418b3e5-adcf-44f3-ac2d-519ea4b35571",
          "name": "image13.png",
          "fullPath": "uploads/v2_howtos/OXJxHRjLia2eyI9Mrixz/image13.png",
          "contentType": "image/jpeg",
          "type": "image/jpeg",
          "size": 233419
        }
      ],
      "_animationKey": "unique7noyi",
      "title": "Understand your local waste management",
      "text": "It’s important to understand the waste management of your local area. Are there local industrial recycling systems? Do they sort their waste and is plastic sorted separately? Or is it the informal sector taking the load.\n\nFind out why local people use plastic and what happens with their plastic after throwing it away so you can explain it to people. "
    },
    {
      "images": [
        {
          "name": "mission.jpg",
          "type": "image/jpeg",
          "updated": "2019-12-25T21:19:52.736Z",
          "size": 75548,
          "timeCreated": "2019-12-25T21:19:52.736Z",
          "fullPath": "uploads/v2_howtos/OXJxHRjLia2eyI9Mrixz/mission.jpg",
          "downloadUrl": "https://firebasestorage.googleapis.com/v0/b/onearmyworld.appspot.com/o/uploads%2Fv2_howtos%2FOXJxHRjLia2eyI9Mrixz%2Fmission.jpg?alt=media&token=ab10ece6-02b4-4c93-8bb3-56272f8fa62b",
          "contentType": "image/jpeg"
        }
      ],
      "_animationKey": "uniquexhuh1f",
      "text": "Before jumping into finding a space and start collecting, it is smart to sit down to properly plan your project and shape your vision and capture why you want to do this and what your goals are. \n\nTo help you plan we’ve made a tool called the Action Plan that helps you to craft your mission, understand your customers, revenue streams, costs and much more. With this tool you should get a step closer to create a successful project. \n\nFind the Action Plan in the Download Kit or learn more in the Academy\n👉 http://tiny.cc/business-actionplan\n",
      "title": "Start with the Action Plan"
    },
    {
      "images": [
        {
          "type": "image/jpeg",
          "downloadUrl": "https://firebasestorage.googleapis.com/v0/b/onearmyworld.appspot.com/o/uploads%2Fv2_howtos%2FOXJxHRjLia2eyI9Mrixz%2Fhowto-collection-team.jpg?alt=media&token=51d10605-435f-4c8e-85d9-4bcdbc0e503c",
          "timeCreated": "2019-12-25T21:19:54.100Z",
          "name": "howto-collection-team.jpg",
          "fullPath": "uploads/v2_howtos/OXJxHRjLia2eyI9Mrixz/howto-collection-team.jpg",
          "updated": "2019-12-25T21:19:54.100Z",
          "contentType": "image/jpeg",
          "size": 52165
        }
      ],
      "_animationKey": "unique7bg4n",
      "title": "Assemble the team",
      "text": "Alright, so now that you have a clearer idea of the subject and your vision, you'll need some more people to put this into reality.\n\nPeople are what can make a project succeed or fail, so make sure that you have a small team of people who you feel comfortable to work with and who are motivated to do this with you!"
    },
    {
      "title": "Find a space",
      "_animationKey": "uniqueczrp1v",
      "text": "As part of your planning, it is important to find a space.\n\nTo help you find the perfect place for your Collection Point in the Download Kit you will find a floor plan with all the minimum requirements and a little cardboard tool to place your machines and tools in the workspace. \n",
      "images": [
        {
          "downloadUrl": "https://firebasestorage.googleapis.com/v0/b/onearmyworld.appspot.com/o/uploads%2Fv2_howtos%2FOXJxHRjLia2eyI9Mrixz%2Fhow-to-collection-space.jpg?alt=media&token=2815a70d-84fb-4084-bc0b-08c7393e460b",
          "fullPath": "uploads/v2_howtos/OXJxHRjLia2eyI9Mrixz/how-to-collection-space.jpg",
          "size": 118680,
          "timeCreated": "2019-12-25T21:19:56.084Z",
          "contentType": "image/jpeg",
          "updated": "2019-12-25T21:19:56.084Z",
          "name": "how-to-collection-space.jpg",
          "type": "image/jpeg"
        }
      ]
    },
    {
      "_animationKey": "uniquebemut6",
      "images": [
        {
          "timeCreated": "2019-12-25T21:19:58.020Z",
          "size": 109791,
          "name": "space-setup.jpg",
          "updated": "2019-12-25T21:19:58.020Z",
          "fullPath": "uploads/v2_howtos/OXJxHRjLia2eyI9Mrixz/space-setup.jpg",
          "contentType": "image/jpeg",
          "type": "image/jpeg",
          "downloadUrl": "https://firebasestorage.googleapis.com/v0/b/onearmyworld.appspot.com/o/uploads%2Fv2_howtos%2FOXJxHRjLia2eyI9Mrixz%2Fspace-setup.jpg?alt=media&token=b1aaf5a1-ac4f-4275-b8ec-ddbb8b8e1713"
        }
      ],
      "text": "Super, you’ve got a nice space!\n\nFollow our video to get ideas how to fully set up your Collection Point with all the additional tools, bags, furniture and posters needed to make your space functional and nice.\n\n👉 http://tiny.cc/space-collection",
      "title": "Set up your space"
    },
    {
      "title": "Plan your way of transport",
      "text": "If you decide to go and pick up the plastic at certain points, you will need to figure out how to transport it. We like using our bike trailor, but have a look and see what makes sense for your area and learn from the local infrastructure and ways of transporting everything around. See if there is any way to make the collection process more efficient or learn from the existent. \n\nTip: The transportation is also a moment that people see you going around the streets, therefore it is a good opportunity to spread your message and make your collection point more known. A good way can be for example adding your logo to your transportation devices.",
      "_animationKey": "unique45l5ko",
      "images": [
        {
          "contentType": "image/jpeg",
          "downloadUrl": "https://firebasestorage.googleapis.com/v0/b/onearmyworld.appspot.com/o/uploads%2Fv2_howtos%2FOXJxHRjLia2eyI9Mrixz%2Fhowto-collection-transport.jpg?alt=media&token=c550718b-862b-4a44-a505-be26ecdf8a85",
          "name": "howto-collection-transport.jpg",
          "timeCreated": "2019-12-25T22:04:48.473Z",
          "fullPath": "uploads/v2_howtos/OXJxHRjLia2eyI9Mrixz/howto-collection-transport.jpg",
          "size": 124079,
          "type": "image/jpeg",
          "updated": "2019-12-25T22:04:48.473Z"
        }
      ]
    },
    {
      "images": [
        {
          "contentType": "image/jpeg",
          "timeCreated": "2019-12-25T22:04:50.172Z",
          "fullPath": "uploads/v2_howtos/OXJxHRjLia2eyI9Mrixz/cleaning.png",
          "downloadUrl": "https://firebasestorage.googleapis.com/v0/b/onearmyworld.appspot.com/o/uploads%2Fv2_howtos%2FOXJxHRjLia2eyI9Mrixz%2Fcleaning.png?alt=media&token=8adafe2e-4260-4293-80dd-7c01aa1936c7",
          "size": 124666,
          "name": "cleaning.png",
          "updated": "2019-12-25T22:04:50.172Z",
          "type": "image/jpeg"
        }
      ],
      "title": "Plan to get clean plastic",
      "_animationKey": "uniquenrj5o",
      "text": "It’s the Collection Point's responsibility to collect clean and label-free plastic, this is crucial for further recycling. Cleaning all the plastic yourself will require more time, space and setup, so we highly recommend to set up your collection in a way that you don't have to take care of the cleaning. \n\nThe best way to do this is by educating the people that bring you the plastic (we made some posters for you in the download kit). So they’re involved in the process and everyone is doing their part. The shredder workspace will pay less or might not even accept dirty plastic.\n\n"
    },
    {
      "text": "If you haven’t already, it’s time to create your profile on the Precious Plastic Community Platform and put your pin on the map.\n\nThis makes it easier for workspaces like the shredder guy to contact you to get plastic or even for a community builder to connect you to the local recycling community. Your Collection Point can also be an inspiration for others in your area to join the Precious Plastic community.\n\n👉 community.preciousplastic.com/sign-up\n",
      "title": "Put your Pin on the Map",
      "_animationKey": "uniques433x6",
      "images": [
        {
          "size": 111737,
          "type": "image/jpeg",
          "name": "add to the map.jpg",
          "fullPath": "uploads/v2_howtos/OXJxHRjLia2eyI9Mrixz/add to the map.jpg",
          "updated": "2019-12-25T22:10:45.970Z",
          "downloadUrl": "https://firebasestorage.googleapis.com/v0/b/onearmyworld.appspot.com/o/uploads%2Fv2_howtos%2FOXJxHRjLia2eyI9Mrixz%2Fadd%20to%20the%20map.jpg?alt=media&token=38e381a7-6a2c-4698-957e-4bb0ee694584",
          "contentType": "image/jpeg",
          "timeCreated": "2019-12-25T22:10:45.970Z"
        }
      ]
    },
    {
      "_animationKey": "uniqueejkm1j",
      "images": [
        {
          "timeCreated": "2019-12-25T22:10:47.515Z",
          "updated": "2019-12-25T22:10:47.515Z",
          "size": 86655,
          "fullPath": "uploads/v2_howtos/OXJxHRjLia2eyI9Mrixz/howto-collection-receiveplastic.jpg",
          "name": "howto-collection-receiveplastic.jpg",
          "type": "image/jpeg",
          "contentType": "image/jpeg",
          "downloadUrl": "https://firebasestorage.googleapis.com/v0/b/onearmyworld.appspot.com/o/uploads%2Fv2_howtos%2FOXJxHRjLia2eyI9Mrixz%2Fhowto-collection-receiveplastic.jpg?alt=media&token=10c22d6d-fc9a-481a-a959-25b3fc6ebfef"
        },
        {
          "type": "image/jpeg",
          "downloadUrl": "https://firebasestorage.googleapis.com/v0/b/onearmyworld.appspot.com/o/uploads%2Fv2_howtos%2FOXJxHRjLia2eyI9Mrixz%2FJulie%20collection%2015.jpg?alt=media&token=2e9fc968-39e4-464d-8a6d-a8495a10fe2a",
          "timeCreated": "2019-12-25T22:04:51.996Z",
          "fullPath": "uploads/v2_howtos/OXJxHRjLia2eyI9Mrixz/Julie collection 15.jpg",
          "name": "Julie collection 15.jpg",
          "contentType": "image/jpeg",
          "size": 130095,
          "updated": "2019-12-25T22:04:51.996Z"
        }
      ],
      "title": "Receive your plastic",
      "text": "Once you’ve learned the basics and got a space you’re ready to open the doors of your Collection Point. Now you have to get people and businesses to give you their plastic. Now is the time for the plastic to come to you (or you're going to pick it up). \n\nYou probably won't be too pleased with the quality of the plastic you collect at first. Don't be disappointed, it takes time! It is important to invest time and energy to explain out to those collecting for you how plastic should be (clean and unlabeled) and why you are asking it like this. By involving them in the process they are willing to make these extra efforts. "
    },
    {
      "_animationKey": "uniquexewvup",
      "text": "Your mission is to get people involved by collecting their plastic. We made a bunch of posters and graphic material to help you reach out to more people and communicate what you do. This is just a starting point, feel free to create your own materials and change them according to your language or needs.\n\nYou can spread the word by handing out flyers, giving presentations, or maybe even speaking on the radio. Wherever you are or whatever you are doing, make sure that you enjoy this moment and communicate a clear and precise message. :)",
      "title": "Spread the message",
      "images": [
        {
          "name": "howto-collection-spread-poster.jpg",
          "type": "image/jpeg",
          "timeCreated": "2019-12-25T22:10:49.125Z",
          "contentType": "image/jpeg",
          "fullPath": "uploads/v2_howtos/OXJxHRjLia2eyI9Mrixz/howto-collection-spread-poster.jpg",
          "downloadUrl": "https://firebasestorage.googleapis.com/v0/b/onearmyworld.appspot.com/o/uploads%2Fv2_howtos%2FOXJxHRjLia2eyI9Mrixz%2Fhowto-collection-spread-poster.jpg?alt=media&token=1a2db599-bf3a-4ce3-b72f-a98b2fd1932e",
          "size": 183426,
          "updated": "2019-12-25T22:10:49.125Z"
        },
        {
          "name": "howto-collection-spreadmessage.jpg",
          "downloadUrl": "https://firebasestorage.googleapis.com/v0/b/onearmyworld.appspot.com/o/uploads%2Fv2_howtos%2FOXJxHRjLia2eyI9Mrixz%2Fhowto-collection-spreadmessage.jpg?alt=media&token=7caf022a-2b83-4750-9ed0-1213d89f00ec",
          "type": "image/jpeg",
          "timeCreated": "2019-12-25T22:10:49.130Z",
          "fullPath": "uploads/v2_howtos/OXJxHRjLia2eyI9Mrixz/howto-collection-spreadmessage.jpg",
          "size": 106376,
          "contentType": "image/jpeg",
          "updated": "2019-12-25T22:10:49.130Z"
        }
      ]
    },
    {
      "title": "Stickers",
      "_animationKey": "uniqueekx0i",
      "text": "In the Download Kit you can find a sticker for businesses collaborating with you and giving you their plastic waste. You can put it on their window so their customers they can see they’re part of the movement and doing something about the plastic problem. ",
      "images": [
        {
          "downloadUrl": "https://firebasestorage.googleapis.com/v0/b/onearmyworld.appspot.com/o/uploads%2Fv2_howtos%2FOXJxHRjLia2eyI9Mrixz%2FSticker%20in%20Window-collection.jpg?alt=media&token=79441b9b-3c84-4e82-a9d0-2c1c939cb151",
          "type": "image/jpeg",
          "fullPath": "uploads/v2_howtos/OXJxHRjLia2eyI9Mrixz/Sticker in Window-collection.jpg",
          "contentType": "image/jpeg",
          "size": 193117,
          "timeCreated": "2020-01-05T03:15:12.952Z",
          "name": "Sticker in Window-collection.jpg",
          "updated": "2020-01-05T03:15:12.952Z"
        }
      ]
    },
    {
      "title": "Be patient ",
      "text": "Don’t be hasty. It might take some time before people get to know about your Collection Point and start bringing plastic. So be passionate and creative on ways to reach out to people. ",
      "images": [
        {
          "timeCreated": "2019-12-25T22:18:24.300Z",
          "name": "howto-collection-patient.jpg",
          "downloadUrl": "https://firebasestorage.googleapis.com/v0/b/onearmyworld.appspot.com/o/uploads%2Fv2_howtos%2FOXJxHRjLia2eyI9Mrixz%2Fhowto-collection-patient.jpg?alt=media&token=2ff1dcb1-90fd-4376-8d2f-d4bffa44294b",
          "fullPath": "uploads/v2_howtos/OXJxHRjLia2eyI9Mrixz/howto-collection-patient.jpg",
          "contentType": "image/jpeg",
          "updated": "2019-12-25T22:18:24.300Z",
          "type": "image/jpeg",
          "size": 92251
        }
      ],
      "_animationKey": "unique7oeiwj"
    },
    {
      "_animationKey": "uniqueuyrvg",
      "title": "Connect to other workspaces",
      "images": [
        {
          "updated": "2019-12-25T22:18:26.479Z",
          "name": "howto-collection-shredder.jpg",
          "size": 118962,
          "fullPath": "uploads/v2_howtos/OXJxHRjLia2eyI9Mrixz/howto-collection-shredder.jpg",
          "downloadUrl": "https://firebasestorage.googleapis.com/v0/b/onearmyworld.appspot.com/o/uploads%2Fv2_howtos%2FOXJxHRjLia2eyI9Mrixz%2Fhowto-collection-shredder.jpg?alt=media&token=87730da8-7f40-4b71-a63a-f836fc4a494f",
          "type": "image/jpeg",
          "contentType": "image/jpeg",
          "timeCreated": "2019-12-25T22:18:26.479Z"
        }
      ],
      "text": "Find shredder (or other) workspaces around you who can shred all the plastic you’ve collected. You can find them on the Precious Plastic Map or have a look on other platforms. Develop a nice relationship as you’ll want to work as partners in crime :)\n\n👉 community.preciousplastic.com/map"
    },
    {
      "images": [
        {
          "fullPath": "uploads/v2_howtos/OXJxHRjLia2eyI9Mrixz/howto-collection-collect-1.jpg",
          "timeCreated": "2019-12-25T22:18:28.011Z",
          "type": "image/jpeg",
          "size": 46473,
          "contentType": "image/jpeg",
          "downloadUrl": "https://firebasestorage.googleapis.com/v0/b/onearmyworld.appspot.com/o/uploads%2Fv2_howtos%2FOXJxHRjLia2eyI9Mrixz%2Fhowto-collection-collect-1.jpg?alt=media&token=bedf7960-8a45-4074-8907-96fed342fe69",
          "updated": "2019-12-25T22:18:28.011Z",
          "name": "howto-collection-collect-1.jpg"
        },
        {
          "name": "weight the plastic.jpg",
          "updated": "2019-12-25T22:18:28.504Z",
          "size": 54709,
          "type": "image/jpeg",
          "contentType": "image/jpeg",
          "timeCreated": "2019-12-25T22:18:28.504Z",
          "downloadUrl": "https://firebasestorage.googleapis.com/v0/b/onearmyworld.appspot.com/o/uploads%2Fv2_howtos%2FOXJxHRjLia2eyI9Mrixz%2Fweight%20the%20plastic.jpg?alt=media&token=abf9ebab-a92f-42e4-b1cd-ba5de853b908",
          "fullPath": "uploads/v2_howtos/OXJxHRjLia2eyI9Mrixz/weight the plastic.jpg"
        }
      ],
      "_animationKey": "uniquej6pov",
      "text": "It's nice to see your plastic collection growing! By weighing the plastic coming in, and writing it down, you will be able to have a concrete impact measure of how much plastic you are collecting and providing to other workspaces.\n\nTake a moment every now and then to upload your kilograms to our website - like that we can track how much impact our community makes and inspire the world with how much plastic waste we could save and recycle :)\n\n(Also, when you weigh it, you will understand how a few kilograms of plastic take up so much space. Incredible huh? Think globally about how much space you saved from our planet. Thank you for that!)\n\n👉 upload.preciousplastic.com ",
      "title": "upload.preciousplastic.com"
    },
    {
      "text": "To help you communicate with citizens and people around you how the Precious Plastic collection system works we made a little website to explain it, how to prepare plastic for recycling and how to find Collection Points near you. \n\nYou can use this to get more and more people to bring you plastic.\n\n👉 collect.preciousplastic.com",
      "_animationKey": "unique9f2mlo",
      "title": "collect.preciousplastic.com",
      "images": [
        {
          "timeCreated": "2019-12-25T22:18:32.310Z",
          "fullPath": "uploads/v2_howtos/OXJxHRjLia2eyI9Mrixz/collect.pp.jpg",
          "updated": "2019-12-25T22:18:32.310Z",
          "size": 73665,
          "type": "image/jpeg",
          "contentType": "image/jpeg",
          "downloadUrl": "https://firebasestorage.googleapis.com/v0/b/onearmyworld.appspot.com/o/uploads%2Fv2_howtos%2FOXJxHRjLia2eyI9Mrixz%2Fcollect.pp.jpg?alt=media&token=1d401cad-cf6f-48cb-b0db-b57180bb3504",
          "name": "collect.pp.jpg"
        }
      ]
    },
    {
      "_animationKey": "uniqueejttmj",
      "images": [
        {
          "size": 89374,
          "downloadUrl": "https://firebasestorage.googleapis.com/v0/b/onearmyworld.appspot.com/o/uploads%2Fv2_howtos%2FOXJxHRjLia2eyI9Mrixz%2Fhowto-collection-howtos.jpg?alt=media&token=692483ea-c9f9-4025-a9ce-733c6d5ea197",
          "type": "image/jpeg",
          "fullPath": "uploads/v2_howtos/OXJxHRjLia2eyI9Mrixz/howto-collection-howtos.jpg",
          "name": "howto-collection-howtos.jpg",
          "updated": "2019-12-25T22:10:50.558Z",
          "contentType": "image/jpeg",
          "timeCreated": "2019-12-25T22:10:50.558Z"
        },
        {
          "fullPath": "uploads/v2_howtos/OXJxHRjLia2eyI9Mrixz/howto-collection-howto.jpg",
          "type": "image/jpeg",
          "timeCreated": "2020-01-05T03:15:14.952Z",
          "name": "howto-collection-howto.jpg",
          "contentType": "image/jpeg",
          "size": 130974,
          "downloadUrl": "https://firebasestorage.googleapis.com/v0/b/onearmyworld.appspot.com/o/uploads%2Fv2_howtos%2FOXJxHRjLia2eyI9Mrixz%2Fhowto-collection-howto.jpg?alt=media&token=1b6f3661-7ab0-4529-9d41-9c4debc838d4",
          "updated": "2020-01-05T03:15:14.952Z"
        }
      ],
      "text": "Share to the world how you run your Collection Point so other people can learn from you and start using your solution to tackle the plastic problem. \n\nMake sure to document and create How-to's for your best processes and techniques. This can also help you create a name for yourself in the Precious Plastic community. \n\n👉 community.preciousplastic.com/how-to\n",
      "title": "Create How-to's!"
    },
    {
      "images": [
        {
          "timeCreated": "2019-12-25T22:05:01.372Z",
          "updated": "2019-12-25T22:05:01.372Z",
          "fullPath": "uploads/v2_howtos/OXJxHRjLia2eyI9Mrixz/howto-collection-discord.jpg",
          "size": 110585,
          "downloadUrl": "https://firebasestorage.googleapis.com/v0/b/onearmyworld.appspot.com/o/uploads%2Fv2_howtos%2FOXJxHRjLia2eyI9Mrixz%2Fhowto-collection-discord.jpg?alt=media&token=126390e1-935f-4bc0-a179-6df29a64afb6",
          "type": "image/jpeg",
          "name": "howto-collection-discord.jpg",
          "contentType": "image/jpeg"
        }
      ],
      "title": "Learn and improve together",
      "text": "Precious Plastic is nothing without the people. Working together and helping each other. Participate in the community, share back and make use of it, it can really pay off!",
      "_animationKey": "uniqueyv0qsj"
    },
    {
      "text": "Starting off will take some time in the beginning. It’s normal. Be patient, work smart and reach out to your Precious Plastic community if you need help. Everything will take off. \n\nEvery  bit of plastic you collect is already saved from getting burnt! And keep in mind that because of your Collection Point people around you get more aware, and get the possibility to actually start working with recycled plastic.\n\nYou’re changing the world by changing your local area :)\n",
      "images": [
        {
          "timeCreated": "2019-12-25T22:05:03.171Z",
          "contentType": "image/jpeg",
          "size": 106435,
          "updated": "2019-12-25T22:05:03.171Z",
          "fullPath": "uploads/v2_howtos/OXJxHRjLia2eyI9Mrixz/howto-collect-end.jpg",
          "type": "image/jpeg",
          "name": "howto-collect-end.jpg",
          "downloadUrl": "https://firebasestorage.googleapis.com/v0/b/onearmyworld.appspot.com/o/uploads%2Fv2_howtos%2FOXJxHRjLia2eyI9Mrixz%2Fhowto-collect-end.jpg?alt=media&token=4aaa0386-e599-4243-8211-92afed866b1e"
        }
      ],
      "title": "Good things take time",
      "_animationKey": "uniquenu0tmv"
    },
    {
      "title": "Download and start!",
      "text": "Ready and excited to start?\nYou're a hero!\n\nDownload your Collection Point package and start your recycling journey!\n\n👉 https://cutt.ly/starterkit-collection 👈",
      "images": [
        {
          "updated": "2020-01-07T13:47:19.190Z",
          "fullPath": "uploads/v3_howtos/OXJxHRjLia2eyI9Mrixz/Collection Starter Kit.jpg",
          "downloadUrl": "https://firebasestorage.googleapis.com/v0/b/onearmyworld.appspot.com/o/uploads%2Fv3_howtos%2FOXJxHRjLia2eyI9Mrixz%2FCollection%20Starter%20Kit.jpg?alt=media&token=f9e013bc-d04c-4477-b2d7-2bd6e0b7ab75",
          "timeCreated": "2020-01-07T13:47:19.190Z",
          "name": "Collection Starter Kit.jpg",
          "contentType": "image/jpeg",
          "type": "image/jpeg",
          "size": 169988
        }
      ],
      "_animationKey": "uniquetyjbaq"
    }
  ],
  "creatorCountry": "fr",
  "time": "3-4 weeks"
}