﻿"Symbol";"Value";"Unit";
"TraceParts.PartStandardAcronym";"DIN";"";
"MASS";"1.86";"kg";
"DESIGN";"Welding neck flange - PN 16, DN 40, pipe DIN series, double nesting female, shape N";"";
"TraceParts.PartNumber";"22-06032003-079042";"";
"TraceParts.PartLanguage";"en";"";
"STANDARD";"DIN 2633";"";
"TraceParts.InstanceId";"22-06032003-07904260EIYFXP4DAFOMH4OJ261TSWP";"";
"TraceParts.PartTitle";"Welding neck flange - PN 16";"";
"TraceParts.PartVersion";"1.4.1";"";
"TRACEPARTS";"TRACEPARTS";"";
"TraceParts.PartStatusId";"";"";
"TraceParts.ClassPath";"DIN:22-06032003-079042";"";
"TraceParts.PartStatus";"Published";"";
