{
    "slug": "elena-xmax",
    "product_name": "Arbor - Injection - 'Elena-XMAX'",
    "price": "840 Euro",
    "price_total": "1280 Euro (before VAT & transport)",
    "shipping_eu": "120 Euro",
    "category": "injection",
    "product_cad": "https://gitlab.com/plastichub/products/tree/master/products/elena-xmax/cad",
    "product_drawings": "https://gitlab.com/plastichub/products/tree/master/products/elena-xmax/drawings",
    "product_github": "https://gitlab.com/plastichub/products/tree/master/products/elena-xmax/",
    "product_3d": "https://myhub.autodesk360.com/ue2b6df80/g/shares/SH7f1edQT22b515c761e2cc46804b9803c4c",
    "product_forum": "https://davehakkens.nl/community/forums/topic/arbor-press-v14/",
    "product_wiki": "https://library.plastic-hub.com/machines/elena-xmax.html",
    "product_chat": "https://discord.gg/SN6MT5N",
    "product_wiring": "${abs_url}/products/elena-xmax/electrics/wiring.png",
    "product_overview": "${abs_url}/products/elena-xmax/drawings/overview.JPG",
    "product_parts": "${abs_url}/${product_rel}/drawings/parts.JPG",
    "product_dimensions": "${abs_url}/${product_rel}/drawings/dimensions.JPG",
    "product_preview": "${abs_url}/products/elena-xmax/media/teaser.png",
    "product_perspective": "${abs_url}/${product_rel}/renderings/perspective.JPG",
    "download": "${site}/archives/${slug}.zip",
    "product_page": "${abs_url}/products/${slug}.html",
    "parts": "parts.csv",
    "opensource": true,
    "bestseller": true,
    "Preview3d": true,
    "version" : "rev1",
    "status": "testing",
    "components": [],
    "authors": [
        {
            "name": "PlasticHub S.L.",
            "url": "${author_link}"
        },
        {
            "name": "PrecisousPlastic - Eindhoven",
            "url": "${author_link_pp}"
        },
        {
            "name": "David Basetti - 3D Seed",
            "url": "https://www.facebook.com/david.bassetti.79"
        },
        {
            "name": "Dan Shirley - Timberstar",
            "url": "https://www.facebook.com/dan.shirley.33"
        }
    ]
}