{
  "moderation": "accepted",
  "files": [
    {
      "type": "application/x-zip-compressed",
      "downloadUrl": "https://firebasestorage.googleapis.com/v0/b/onearmyworld.appspot.com/o/uploads%2Fhowtos%2FjhmdpHYJOwCXQrvQKs1y%2FMould%203D%20data%20%2B%20blueprints.zip?alt=media&token=27ed9402-98ed-4200-b2f3-9a8b9d313213",
      "contentType": "application/x-zip-compressed",
      "fullPath": "uploads/howtos/jhmdpHYJOwCXQrvQKs1y/Mould 3D data + blueprints.zip",
      "size": 80112,
      "timeCreated": "2021-01-13T22:05:22.529Z",
      "name": "Mould 3D data + blueprints.zip",
      "updated": "2021-01-13T22:05:22.529Z"
    }
  ],
  "_id": "jhmdpHYJOwCXQrvQKs1y",
  "cover_image": {
    "name": "clipboard.jpg",
    "updated": "2021-01-13T22:04:29.569Z",
    "downloadUrl": "https://firebasestorage.googleapis.com/v0/b/onearmyworld.appspot.com/o/uploads%2Fhowtos%2FjhmdpHYJOwCXQrvQKs1y%2Fclipboard.jpg?alt=media&token=8bc1b528-19c4-4c82-91e1-c5e28e31d941",
    "type": "image/jpeg",
    "size": 78768,
    "fullPath": "uploads/howtos/jhmdpHYJOwCXQrvQKs1y/clipboard.jpg",
    "contentType": "image/jpeg",
    "timeCreated": "2021-01-13T22:04:29.569Z"
  },
  "slug": "make-a4-size-clipboard",
  "description": "Make original clipboard from recycled plastic material. Board size is 315x230 mm thickness 5mm, 4x radius R8 in corners.",
  "tags": [
    "HDPE",
    "compression",
    "mould"
  ],
  "_createdBy": "plastmakers",
  "time": "< 5 hours",
  "steps": [
    {
      "text": "I share with you 3D data and blueprints for personal use. \nMaterial steel, thickness 5mm.\nYou can also buy mould or mini press on Bazar.\n\nRecommended mould fasterners: \nM6x45 (at least 4 pieces) \nM6 washers\nM6 nuts",
      "videoUrl": "https://www.youtube.com/watch?v=SIElQvtsrxg",
      "_animationKey": "unique1",
      "title": "Prepare your mould",
      "images": []
    },
    {
      "_animationKey": "unique2",
      "text": "I have already tested HDPE, PP or PLA with good results. \nYou can play with different colours and bottle cap design. :) \nYou need between 320 - 350 g / clipboard. \n\nBefore testing new material type, make a note/ picture how many material did you use. It will help you with future production. \n\nClean mould from impurities, dust or remaining plastic particles from previous production. (I use smooth sand paper)\nTo avoid sticking use mould release or oil. \nMake sure your oil will not get to its smoke point: \nhttps://en.wikipedia.org/wiki/Template:Smoke_point_of_cooking_oils\nI recommend oil with smoke point above 230 deg. Celsius",
      "title": "Prepare material + mould",
      "images": [
        {
          "size": 97941,
          "downloadUrl": "https://firebasestorage.googleapis.com/v0/b/onearmyworld.appspot.com/o/uploads%2Fhowtos%2FjhmdpHYJOwCXQrvQKs1y%2Fmaterial.jpg?alt=media&token=654d12d7-85cf-45e4-909c-523314d8d60d",
          "type": "image/jpeg",
          "timeCreated": "2021-01-13T22:04:59.483Z",
          "name": "material.jpg",
          "updated": "2021-01-13T22:04:59.483Z",
          "fullPath": "uploads/howtos/jhmdpHYJOwCXQrvQKs1y/material.jpg",
          "contentType": "image/jpeg"
        },
        {
          "contentType": "image/jpeg",
          "name": "coca.jpg",
          "fullPath": "uploads/howtos/jhmdpHYJOwCXQrvQKs1y/coca.jpg",
          "size": 193619,
          "type": "image/jpeg",
          "downloadUrl": "https://firebasestorage.googleapis.com/v0/b/onearmyworld.appspot.com/o/uploads%2Fhowtos%2FjhmdpHYJOwCXQrvQKs1y%2Fcoca.jpg?alt=media&token=e58700b2-0ef9-4238-8bfe-a9ce680c894b",
          "timeCreated": "2021-01-13T22:04:59.348Z",
          "updated": "2021-01-13T22:04:59.348Z"
        }
      ]
    },
    {
      "text": "I use IKEA Görlig electric oven.\nSet up temperature according to your material type.\nFor HDPE and PP I use temperature 225 deg Celsius.\nI put mould in the oven for 35 min. \nSet up timer. \n\n\nAttention - use heat resistent gloves when you operate with mould from oven :) \n\nAfter baking process, press mould. \nCooling process take 20 - 30 min. \nIf you open mould earlier, there is risk of deformation.\n\n",
      "title": "Baking + pressing",
      "_animationKey": "unique3",
      "images": [
        {
          "size": 79628,
          "type": "image/jpeg",
          "contentType": "image/jpeg",
          "updated": "2021-01-13T22:05:15.804Z",
          "name": "Snímek5_40y4-uz.png",
          "downloadUrl": "https://firebasestorage.googleapis.com/v0/b/onearmyworld.appspot.com/o/uploads%2Fhowtos%2FjhmdpHYJOwCXQrvQKs1y%2FSn%C3%ADmek5_40y4-uz.png?alt=media&token=0ecdf4dd-fd45-4f6e-9c4f-f1d70b66cb63",
          "fullPath": "uploads/howtos/jhmdpHYJOwCXQrvQKs1y/Snímek5_40y4-uz.png",
          "timeCreated": "2021-01-13T22:05:15.804Z"
        },
        {
          "timeCreated": "2021-01-13T22:05:16.063Z",
          "type": "image/jpeg",
          "downloadUrl": "https://firebasestorage.googleapis.com/v0/b/onearmyworld.appspot.com/o/uploads%2Fhowtos%2FjhmdpHYJOwCXQrvQKs1y%2FSn%C3%ADmek6_vimf-i4.png?alt=media&token=42677a33-2c2a-48d6-b627-3ef2c223abbf",
          "fullPath": "uploads/howtos/jhmdpHYJOwCXQrvQKs1y/Snímek6_vimf-i4.png",
          "updated": "2021-01-13T22:05:16.063Z",
          "size": 99042,
          "contentType": "image/jpeg",
          "name": "Snímek6_vimf-i4.png"
        }
      ]
    },
    {
      "_animationKey": "uniqueq4k8r",
      "images": [
        {
          "size": 10245,
          "type": "image/jpeg",
          "updated": "2021-01-13T22:05:16.787Z",
          "fullPath": "uploads/howtos/jhmdpHYJOwCXQrvQKs1y/2.jpg",
          "downloadUrl": "https://firebasestorage.googleapis.com/v0/b/onearmyworld.appspot.com/o/uploads%2Fhowtos%2FjhmdpHYJOwCXQrvQKs1y%2F2.jpg?alt=media&token=b7a0c56e-ee57-4a4c-8ef8-4008a1a0f9b6",
          "name": "2.jpg",
          "contentType": "image/jpeg",
          "timeCreated": "2021-01-13T22:05:16.787Z"
        },
        {
          "fullPath": "uploads/howtos/jhmdpHYJOwCXQrvQKs1y/3.jpg",
          "size": 13833,
          "name": "3.jpg",
          "updated": "2021-01-13T22:05:16.874Z",
          "downloadUrl": "https://firebasestorage.googleapis.com/v0/b/onearmyworld.appspot.com/o/uploads%2Fhowtos%2FjhmdpHYJOwCXQrvQKs1y%2F3.jpg?alt=media&token=ac00790b-3a58-4773-ad50-b48147ce48dc",
          "type": "image/jpeg",
          "timeCreated": "2021-01-13T22:05:16.874Z",
          "contentType": "image/jpeg"
        },
        {
          "contentType": "image/jpeg",
          "name": "sroubovaci-nyt-na-popruhy-duhovy.jpg",
          "type": "image/jpeg",
          "fullPath": "uploads/howtos/jhmdpHYJOwCXQrvQKs1y/sroubovaci-nyt-na-popruhy-duhovy.jpg",
          "timeCreated": "2021-01-13T22:05:17.028Z",
          "downloadUrl": "https://firebasestorage.googleapis.com/v0/b/onearmyworld.appspot.com/o/uploads%2Fhowtos%2FjhmdpHYJOwCXQrvQKs1y%2Fsroubovaci-nyt-na-popruhy-duhovy.jpg?alt=media&token=2e40776c-2508-49e2-8397-f59dc1b190cc",
          "size": 30918,
          "updated": "2021-01-13T22:05:17.028Z"
        }
      ],
      "title": "Postprocessing",
      "text": "Cut out edges with knife,\nYou can sand surface.\nDrill 2 holes M4 (size and location of holes depends on your clip design).\nI prefer screw type rivets - you do not need special tools and you can make easy and quick change board design with clip.\n\nRivet size:\n\nA: 4mm\nB: 6mm\nC: 10mm\nS: 4mm\n"
    },
    {
      "_animationKey": "uniquerhrzo6",
      "title": "Follow Plastmakers",
      "text": "To provide more open source content, I will be happy for share, subscribe, like, follow or comment. <3\n\nMore information: https://linktr.ee/plastmakers\n\nThank you.\n\nTom",
      "images": [
        {
          "fullPath": "uploads/howtos/jhmdpHYJOwCXQrvQKs1y/coca cola.jpg",
          "size": 138611,
          "downloadUrl": "https://firebasestorage.googleapis.com/v0/b/onearmyworld.appspot.com/o/uploads%2Fhowtos%2FjhmdpHYJOwCXQrvQKs1y%2Fcoca%20cola.jpg?alt=media&token=5a9b2766-5063-4de1-9a96-388b5e19499e",
          "type": "image/jpeg",
          "updated": "2021-01-13T22:05:19.570Z",
          "timeCreated": "2021-01-13T22:05:19.570Z",
          "contentType": "image/jpeg",
          "name": "coca cola.jpg"
        },
        {
          "size": 78768,
          "fullPath": "uploads/howtos/jhmdpHYJOwCXQrvQKs1y/clipboard.jpg",
          "type": "image/jpeg",
          "name": "clipboard.jpg",
          "downloadUrl": "https://firebasestorage.googleapis.com/v0/b/onearmyworld.appspot.com/o/uploads%2Fhowtos%2FjhmdpHYJOwCXQrvQKs1y%2Fclipboard.jpg?alt=media&token=2d445ae0-016b-413a-b23b-075285032798",
          "updated": "2021-01-13T22:05:19.773Z",
          "timeCreated": "2021-01-13T22:05:19.773Z",
          "contentType": "image/jpeg"
        }
      ]
    }
  ],
  "title": "Make A4 size clipboard",
  "creatorCountry": "cz",
  "_created": "2021-01-13T22:05:21.478Z",
  "difficulty_level": "Easy",
  "_deleted": false,
  "_modified": "2021-01-13T22:40:23.345Z"
}