{
    "slug" : "scp2021min",
    "name" : "Shredder - Control Panel - 2021 - Minimal",
    "category": "shredder",
    "parts": "parts.csv",
    "specs": "specs.csv",
    "osr_version": "1.0.0",
    "variables": {        
    },
    "components": [],
    "authors": [
        {
            "name": "PlasticHub S.L.",
            "url": "${author_link}",
            "description" : "Development & Testing"
        },
        {
            "name": "Dan Shirley - Timberstar",
            "url": "https://tsltd.github.io/",
            "description" : "CAD"
        }
    ]
}