{
    "slug" : "extrusion-pro",
    "category" : "extrusion",
    "product_name":"Precious Plastic Extrusion v4",
    "price" : "3154 Euro",
    "price_total" : "3400 Euro (VAT & transport)",
    "shipping_eu" : "120 Euro",
    "product_cad": "https://gitlab.com/plastichub/products/tree/master/v4/extrusion-pro/cad",
    "product_drawings" : "https://gitlab.com/plastichub/products/tree/master/v4/extrusion-pro/drawings",
    "product_github" : "https://gitlab.com/plastichub/products/tree/master/v4/extrusion-pro/",
    "product_3d" : "https://a360.co/3efibwd",
    "product_forum" : "https://davehakkens.nl/community/forums/topic/arbor-press-v14/",
    "product_wiki" : "https://precious-plastic.org/home/library/machines/lydia-v4/",
    "product_chat" : "https://discord.gg/SN6MT5N",
    "product_wiring" : "https://precious-plastic.org/products/v4/extrusion-pro/resources/circuit_1.jpg",
    "product_overview": "https://precious-plastic.org/products/v4/extrusion-pro/drawings/overview.JPG",
    "product_perspective": "https://precious-plastic.org/products/v4/extrusion-pro/renderings/perspective.JPG",
    "product_download": "https://precious-plastic.org/products/v4/extrusion-pro/renderings/perspective.JPG",
    "product_bom" : "https://docs.google.com/spreadsheets/d/14AzvGXF-KGlYrc79eihJhmff0n_5hrI9Y-tWOBZUC9M/edit#gid=346553992",
    "product_exploded": "https://precious-plastic.org/products/v4/extrusion-pro/drawings/exploded.JPG",
    "production_section_1": "https://precious-plastic.org/products/v4/extrusion-pro/renderings/section_1.JPG",
    "download" : "${site}/archives/${slug}.zip",
    "product_build" : "https://community.preciousplastic.com/academy/build/extrusionpro"
}