{
  "moderation": "accepted",
  "slug": "make-a-durable-tote-bag-from-plastic-bags",
  "difficulty_level": "Easy",
  "_deleted": false,
  "_created": "2018-10-15T21:02:21.903Z",
  "_createdBy": "precious-plastic",
  "steps": [
    {
      "title": "Gather everything you need",
      "_animationKey": "unique1",
      "text": "Before you start get all your gear ready:\n- Respirator mask\n- Lots of plastic PE bags from shopping or supermarkets\n- Baking paper\n- Cotton sheet\n- Iron\n- Sewing machine ",
      "images": [
        {
          "size": 86217,
          "contentType": "image/jpeg",
          "name": "bag_02.jpg",
          "type": "image/jpeg",
          "fullPath": "uploads/v3_howtos/6smRk8lkfUyQ3E0681dj/bag_02.jpg",
          "timeCreated": "2020-05-12T20:47:55.816Z",
          "updated": "2020-05-12T20:47:55.816Z",
          "downloadUrl": "https://firebasestorage.googleapis.com/v0/b/onearmyworld.appspot.com/o/uploads%2Fv3_howtos%2F6smRk8lkfUyQ3E0681dj%2Fbag_02.jpg?alt=media&token=91e0725a-2a50-4a7a-b687-2184b924d71d"
        },
        {
          "contentType": "image/jpeg",
          "name": "bag_03.jpg",
          "downloadUrl": "https://firebasestorage.googleapis.com/v0/b/onearmyworld.appspot.com/o/uploads%2Fv3_howtos%2F6smRk8lkfUyQ3E0681dj%2Fbag_03.jpg?alt=media&token=dcc1e74d-b9de-45ce-aede-8fa6d0fc87a7",
          "timeCreated": "2020-05-12T20:47:55.707Z",
          "size": 99377,
          "fullPath": "uploads/v3_howtos/6smRk8lkfUyQ3E0681dj/bag_03.jpg",
          "type": "image/jpeg",
          "updated": "2020-05-12T20:47:55.707Z"
        }
      ]
    },
    {
      "text": "Watch this video tutorial to learn step-by-step how to transform lots of shopping bags into a more durable and cool tote bag.",
      "title": "Watch this video tutorial",
      "images": [],
      "_animationKey": "unique2",
      "videoUrl": "https://youtu.be/Pp4vmfVlm2k"
    },
    {
      "images": [
        {
          "fullPath": "uploads/v3_howtos/6smRk8lkfUyQ3E0681dj/bag_05.jpg",
          "contentType": "image/jpeg",
          "downloadUrl": "https://firebasestorage.googleapis.com/v0/b/onearmyworld.appspot.com/o/uploads%2Fv3_howtos%2F6smRk8lkfUyQ3E0681dj%2Fbag_05.jpg?alt=media&token=366ac4e3-1770-483e-9fa5-8e6402b87876",
          "size": 95351,
          "name": "bag_05.jpg",
          "updated": "2020-05-12T20:47:59.786Z",
          "type": "image/jpeg",
          "timeCreated": "2020-05-12T20:47:59.786Z"
        },
        {
          "downloadUrl": "https://firebasestorage.googleapis.com/v0/b/onearmyworld.appspot.com/o/uploads%2Fv3_howtos%2F6smRk8lkfUyQ3E0681dj%2Fbag_04.jpg?alt=media&token=18eb9e5d-206f-4a36-a1b5-66304456c702",
          "type": "image/jpeg",
          "name": "bag_04.jpg",
          "fullPath": "uploads/v3_howtos/6smRk8lkfUyQ3E0681dj/bag_04.jpg",
          "updated": "2020-05-12T20:47:59.759Z",
          "contentType": "image/jpeg",
          "size": 96249,
          "timeCreated": "2020-05-12T20:47:59.759Z"
        }
      ],
      "_animationKey": "unique3",
      "text": "After watching this video you should understand the basics of this simple technique. You can reproduce the tote bag or try to make other products. We’re looking forward to seeing what you can come up with. Make sure to share back your new creations so the community can learn from you. Tag #preciousplastic on social media, create a new how-to or send us an email.",
      "title": "Done & Share"
    }
  ],
  "time": "< 1 week",
  "description": "Bjorn will show you a very simple technique to turn plastic bags into flat sheets (like fabric) to create a tote bag. ",
  "title": "Make a durable tote bag from plastic bags",
  "_modified": "2021-03-03T22:25:35.694Z",
  "_id": "6smRk8lkfUyQ3E0681dj",
  "tags": [
    "product",
    "LDPE"
  ],
  "files": [],
  "creatorCountry": "fr",
  "cover_image": {
    "size": 131213,
    "fullPath": "uploads/v3_howtos/6smRk8lkfUyQ3E0681dj/bag_01.jpg",
    "updated": "2020-05-12T20:47:53.018Z",
    "contentType": "image/jpeg",
    "timeCreated": "2020-05-12T20:47:53.018Z",
    "downloadUrl": "https://firebasestorage.googleapis.com/v0/b/onearmyworld.appspot.com/o/uploads%2Fv3_howtos%2F6smRk8lkfUyQ3E0681dj%2Fbag_01.jpg?alt=media&token=1e0a0d88-14be-465b-9581-f0c7f9805398",
    "type": "image/jpeg",
    "name": "bag_01.jpg"
  }
}