ISO-10303-21;
HEADER;
FILE_DESCRIPTION( ( 'STEP AP203' ), '1' );
FILE_NAME( 'D:/export/antriebselemente/spannbuchsen_und_spannsaetze/taper-spannbuchsen_1008_bis_5050/taper-spannbuchsen_62250124Isometric_14.stp', '2018-12-11T11:10:57', ( '' ), ( '' ), ' ', 'PARTsolutions', ' ' );
FILE_SCHEMA( ( 'CONFIG_CONTROL_DESIGN' ) );
ENDSEC;
DATA;
#1 = DESIGN_CONTEXT( '', #27, 'design' );
#2 = APPLICATION_PROTOCOL_DEFINITION( 'international standard', 'config_control_design', 1994, #27 );
#3 = PRODUCT_CATEGORY_RELATIONSHIP( 'NONE', 'NONE', #28, #29 );
#4 = DATE_AND_TIME( #30, #31 );
#5 = DATE_TIME_ROLE( 'creation_date' );
#6 = DATE_TIME_ROLE( 'classification_date' );
#7 = PERSON_AND_ORGANIZATION_ROLE( 'creator' );
#8 = PERSON_AND_ORGANIZATION_ROLE( 'design_supplier' );
#9 = PERSON_AND_ORGANIZATION_ROLE( 'classification_officer' );
#10 = PERSON_AND_ORGANIZATION_ROLE( 'design_owner' );
#11 = APPROVAL_PERSON_ORGANIZATION( #32, #33, #34 );
#12 = APPROVAL_DATE_TIME( #4, #33 );
#13 = CC_DESIGN_APPROVAL( #33, ( #35, #36, #37 ) );
#14 = CC_DESIGN_DATE_AND_TIME_ASSIGNMENT( #4, #5, ( #37 ) );
#15 = CC_DESIGN_DATE_AND_TIME_ASSIGNMENT( #4, #6, ( #35 ) );
#16 = CC_DESIGN_PERSON_AND_ORGANIZATION_ASSIGNMENT( #32, #10, ( #38 ) );
#17 = CC_DESIGN_PERSON_AND_ORGANIZATION_ASSIGNMENT( #32, #7, ( #37 ) );
#18 = CC_DESIGN_PERSON_AND_ORGANIZATION_ASSIGNMENT( #32, #7, ( #36 ) );
#19 = CC_DESIGN_PERSON_AND_ORGANIZATION_ASSIGNMENT( #32, #8, ( #36 ) );
#20 = CC_DESIGN_SECURITY_CLASSIFICATION( #35, ( #36 ) );
#21 = CC_DESIGN_PERSON_AND_ORGANIZATION_ASSIGNMENT( #32, #9, ( #35 ) );
#22 = SHAPE_DEFINITION_REPRESENTATION( #39, #40 );
#23 =  ( GEOMETRIC_REPRESENTATION_CONTEXT( 3 )GLOBAL_UNCERTAINTY_ASSIGNED_CONTEXT( ( #43 ) )GLOBAL_UNIT_ASSIGNED_CONTEXT( ( #45, #46, #47 ) )REPRESENTATION_CONTEXT( 'NONE', 'WORKSPACE' ) );
#27 = APPLICATION_CONTEXT( 'configuration controlled 3D designs of mechanical parts and assemblies' );
#28 = PRODUCT_CATEGORY( 'part', 'NONE' );
#29 = PRODUCT_RELATED_PRODUCT_CATEGORY( 'detail', ' ', ( #38 ) );
#30 = CALENDAR_DATE( 2018, 11, 11 );
#31 = LOCAL_TIME( 12, 10, 57.0000000000000, #49 );
#32 = PERSON_AND_ORGANIZATION( #50, #51 );
#33 = APPROVAL( #52, 'SOLID MODEL' );
#34 = APPROVAL_ROLE( 'APPROVED' );
#35 = SECURITY_CLASSIFICATION( '', '', #53 );
#36 = PRODUCT_DEFINITION_FORMATION_WITH_SPECIFIED_SOURCE( ' ', 'NONE', #38, .NOT_KNOWN. );
#37 = PRODUCT_DEFINITION( 'NONE', 'NONE', #36, #1 );
#38 = PRODUCT( '_taper-spannbuchsen_62250124', '_taper-spannbuchsen_62250124', 'PART-_taper-spannbuchsen_62250124-DESC', ( #54 ) );
#39 = PRODUCT_DEFINITION_SHAPE( 'NONE', 'NONE', #37 );
#40 = ADVANCED_BREP_SHAPE_REPRESENTATION( '_taper-spannbuchsen_62250124', ( #55, #56 ), #23 );
#43 = UNCERTAINTY_MEASURE_WITH_UNIT( LENGTH_MEASURE( 0.00100000000000000 ), #45, '', '' );
#45 =  ( CONVERSION_BASED_UNIT( 'MILLIMETRE', #59 )LENGTH_UNIT(  )NAMED_UNIT( #62 ) );
#46 =  ( NAMED_UNIT( #64 )PLANE_ANGLE_UNIT(  )SI_UNIT( $, .RADIAN. ) );
#47 =  ( NAMED_UNIT( #64 )SI_UNIT( $, .STERADIAN. )SOLID_ANGLE_UNIT(  ) );
#49 = COORDINATED_UNIVERSAL_TIME_OFFSET( 1, 0, .AHEAD. );
#50 = PERSON( '', 'UNSPECIFIED', $, $, $, $ );
#51 = ORGANIZATION( 'UNSPECIFIED', 'UNSPECIFIED', 'UNSPECIFIED' );
#52 = APPROVAL_STATUS( 'approved' );
#53 = SECURITY_CLASSIFICATION_LEVEL( 'unclassified' );
#54 = MECHANICAL_CONTEXT( '', #27, 'mechanical' );
#55 = MANIFOLD_SOLID_BREP( '_taper-spannbuchsen_62250124', #70 );
#56 = AXIS2_PLACEMENT_3D( '', #71, #72, #73 );
#59 = LENGTH_MEASURE_WITH_UNIT( LENGTH_MEASURE( 1.00000000000000 ), #74 );
#62 = DIMENSIONAL_EXPONENTS( 1.00000000000000, 0.000000000000000, 0.000000000000000, 0.000000000000000, 0.000000000000000, 0.000000000000000, 0.000000000000000 );
#64 = DIMENSIONAL_EXPONENTS( 0.000000000000000, 0.000000000000000, 0.000000000000000, 0.000000000000000, 0.000000000000000, 0.000000000000000, 0.000000000000000 );
#70 = CLOSED_SHELL( '', ( #75, #76, #77, #78, #79, #80, #81, #82, #83, #84, #85, #86, #87, #88, #89, #90 ) );
#71 = CARTESIAN_POINT( '', ( 0.000000000000000, 0.000000000000000, 0.000000000000000 ) );
#72 = DIRECTION( '', ( 0.000000000000000, 0.000000000000000, 1.00000000000000 ) );
#73 = DIRECTION( '', ( 1.00000000000000, 0.000000000000000, 0.000000000000000 ) );
#74 =  ( LENGTH_UNIT(  )NAMED_UNIT( #62 )SI_UNIT( .MILLI., .METRE. ) );
#75 = ADVANCED_FACE( '', ( #92 ), #93, .F. );
#76 = ADVANCED_FACE( '', ( #94 ), #95, .F. );
#77 = ADVANCED_FACE( '', ( #96 ), #97, .F. );
#78 = ADVANCED_FACE( '', ( #98 ), #99, .F. );
#79 = ADVANCED_FACE( '', ( #100 ), #101, .F. );
#80 = ADVANCED_FACE( '', ( #102 ), #103, .F. );
#81 = ADVANCED_FACE( '', ( #104 ), #105, .F. );
#82 = ADVANCED_FACE( '', ( #106 ), #107, .F. );
#83 = ADVANCED_FACE( '', ( #108 ), #109, .F. );
#84 = ADVANCED_FACE( '', ( #110 ), #111, .T. );
#85 = ADVANCED_FACE( '', ( #112 ), #113, .T. );
#86 = ADVANCED_FACE( '', ( #114 ), #115, .F. );
#87 = ADVANCED_FACE( '', ( #116 ), #117, .F. );
#88 = ADVANCED_FACE( '', ( #118 ), #119, .F. );
#89 = ADVANCED_FACE( '', ( #120 ), #121, .F. );
#90 = ADVANCED_FACE( '', ( #122 ), #123, .F. );
#92 = FACE_OUTER_BOUND( '', #124, .T. );
#93 = CONICAL_SURFACE( '', #125, 866.025403784400, 1.04719755120000 );
#94 = FACE_OUTER_BOUND( '', #126, .T. );
#95 = CYLINDRICAL_SURFACE( '', #127, 2.55000000000000 );
#96 = FACE_OUTER_BOUND( '', #128, .T. );
#97 = PLANE( '', #129 );
#98 = FACE_OUTER_BOUND( '', #130, .T. );
#99 = PLANE( '', #131 );
#100 = FACE_OUTER_BOUND( '', #132, .T. );
#101 = PLANE( '', #133 );
#102 = FACE_OUTER_BOUND( '', #134, .T. );
#103 = CYLINDRICAL_SURFACE( '', #135, 12.0000000000000 );
#104 = FACE_OUTER_BOUND( '', #136, .T. );
#105 = PLANE( '', #137 );
#106 = FACE_OUTER_BOUND( '', #138, .T. );
#107 = PLANE( '', #139 );
#108 = FACE_OUTER_BOUND( '', #140, .T. );
#109 = PLANE( '', #141 );
#110 = FACE_OUTER_BOUND( '', #142, .T. );
#111 = CONICAL_SURFACE( '', #143, 16.0406320937000, 0.0698131701000000 );
#112 = FACE_OUTER_BOUND( '', #144, .T. );
#113 = CONICAL_SURFACE( '', #145, 16.0406320937000, 0.0698131701000000 );
#114 = FACE_OUTER_BOUND( '', #146, .T. );
#115 = CYLINDRICAL_SURFACE( '', #147, 12.0000000000000 );
#116 = FACE_OUTER_BOUND( '', #148, .T. );
#117 = CYLINDRICAL_SURFACE( '', #149, 3.30000000000000 );
#118 = FACE_OUTER_BOUND( '', #150, .T. );
#119 = CONICAL_SURFACE( '', #151, 866.025403784400, 1.04719755120000 );
#120 = FACE_OUTER_BOUND( '', #152, .T. );
#121 = CYLINDRICAL_SURFACE( '', #153, 3.30000000000000 );
#122 = FACE_OUTER_BOUND( '', #154, .T. );
#123 = PLANE( '', #155 );
#124 = EDGE_LOOP( '', ( #156, #157 ) );
#125 = AXIS2_PLACEMENT_3D( '', #158, #159, #160 );
#126 = EDGE_LOOP( '', ( #161, #162, #163, #164 ) );
#127 = AXIS2_PLACEMENT_3D( '', #165, #166, #167 );
#128 = EDGE_LOOP( '', ( #168, #169, #170, #171 ) );
#129 = AXIS2_PLACEMENT_3D( '', #172, #173, #174 );
#130 = EDGE_LOOP( '', ( #175, #176, #177, #178 ) );
#131 = AXIS2_PLACEMENT_3D( '', #179, #180, #181 );
#132 = EDGE_LOOP( '', ( #182, #183, #184, #185 ) );
#133 = AXIS2_PLACEMENT_3D( '', #186, #187, #188 );
#134 = EDGE_LOOP( '', ( #189, #190, #191, #192 ) );
#135 = AXIS2_PLACEMENT_3D( '', #193, #194, #195 );
#136 = EDGE_LOOP( '', ( #196, #197, #198, #199 ) );
#137 = AXIS2_PLACEMENT_3D( '', #200, #201, #202 );
#138 = EDGE_LOOP( '', ( #203, #204, #205, #206, #207, #208, #209, #210, #211, #212, #213, #214, #215, #216 ) );
#139 = AXIS2_PLACEMENT_3D( '', #217, #218, #219 );
#140 = EDGE_LOOP( '', ( #220, #221, #222, #223, #224, #225, #226, #227, #228, #229 ) );
#141 = AXIS2_PLACEMENT_3D( '', #230, #231, #232 );
#142 = EDGE_LOOP( '', ( #233, #234, #235, #236, #237, #238, #239, #240 ) );
#143 = AXIS2_PLACEMENT_3D( '', #241, #242, #243 );
#144 = EDGE_LOOP( '', ( #244, #245, #246, #247, #248, #249, #250, #251 ) );
#145 = AXIS2_PLACEMENT_3D( '', #252, #253, #254 );
#146 = EDGE_LOOP( '', ( #255, #256, #257, #258 ) );
#147 = AXIS2_PLACEMENT_3D( '', #259, #260, #261 );
#148 = EDGE_LOOP( '', ( #262, #263, #264, #265 ) );
#149 = AXIS2_PLACEMENT_3D( '', #266, #267, #268 );
#150 = EDGE_LOOP( '', ( #269, #270 ) );
#151 = AXIS2_PLACEMENT_3D( '', #271, #272, #273 );
#152 = EDGE_LOOP( '', ( #274, #275, #276, #277 ) );
#153 = AXIS2_PLACEMENT_3D( '', #278, #279, #280 );
#154 = EDGE_LOOP( '', ( #281, #282, #283, #284 ) );
#155 = AXIS2_PLACEMENT_3D( '', #285, #286, #287 );
#156 = ORIENTED_EDGE( '', *, *, #288, .T. );
#157 = ORIENTED_EDGE( '', *, *, #289, .T. );
#158 = CARTESIAN_POINT( '', ( 486.594744111671, -1.46988160144044, 16.8650000000000 ) );
#159 = DIRECTION( '', ( 1.00000000000000, -2.36862034615667E-15, -0.000000000000000 ) );
#160 = DIRECTION( '', ( 2.36862034615667E-15, 1.00000000000000, 0.000000000000000 ) );
#161 = ORIENTED_EDGE( '', *, *, #290, .T. );
#162 = ORIENTED_EDGE( '', *, *, #291, .T. );
#163 = ORIENTED_EDGE( '', *, *, #292, .T. );
#164 = ORIENTED_EDGE( '', *, *, #293, .F. );
#165 = CARTESIAN_POINT( '', ( 0.000000000000000, 16.8650000000000, 0.000000000000000 ) );
#166 = DIRECTION( '', ( -1.00000000000000, 1.55580580805095E-16, 0.000000000000000 ) );
#167 = DIRECTION( '', ( 1.55580580805095E-16, 1.00000000000000, 0.000000000000000 ) );
#168 = ORIENTED_EDGE( '', *, *, #294, .F. );
#169 = ORIENTED_EDGE( '', *, *, #295, .F. );
#170 = ORIENTED_EDGE( '', *, *, #296, .T. );
#171 = ORIENTED_EDGE( '', *, *, #297, .F. );
#172 = CARTESIAN_POINT( '', ( -22.3000000000000, 0.000000000000000, 0.750000000000000 ) );
#173 = DIRECTION( '', ( -0.000000000000000, 0.000000000000000, 1.00000000000000 ) );
#174 = DIRECTION( '', ( 1.00000000000000, 0.000000000000000, 0.000000000000000 ) );
#175 = ORIENTED_EDGE( '', *, *, #298, .T. );
#176 = ORIENTED_EDGE( '', *, *, #299, .F. );
#177 = ORIENTED_EDGE( '', *, *, #300, .F. );
#178 = ORIENTED_EDGE( '', *, *, #301, .T. );
#179 = CARTESIAN_POINT( '', ( -22.3000000000000, 4.35195842631295, -13.1890279344478 ) );
#180 = DIRECTION( '', ( 0.000000000000000, 0.573576436351046, -0.819152044288992 ) );
#181 = DIRECTION( '', ( 0.000000000000000, 0.819152044288992, 0.573576436351046 ) );
#182 = ORIENTED_EDGE( '', *, *, #302, .T. );
#183 = ORIENTED_EDGE( '', *, *, #301, .F. );
#184 = ORIENTED_EDGE( '', *, *, #303, .F. );
#185 = ORIENTED_EDGE( '', *, *, #304, .T. );
#186 = CARTESIAN_POINT( '', ( -22.3000000000000, 3.21266842560626, -11.5619531908373 ) );
#187 = DIRECTION( '', ( 0.000000000000000, -0.819152044288992, -0.573576436351046 ) );
#188 = DIRECTION( '', ( 0.000000000000000, 0.573576436351046, -0.819152044288992 ) );
#189 = ORIENTED_EDGE( '', *, *, #305, .F. );
#190 = ORIENTED_EDGE( '', *, *, #306, .T. );
#191 = ORIENTED_EDGE( '', *, *, #307, .F. );
#192 = ORIENTED_EDGE( '', *, *, #304, .F. );
#193 = CARTESIAN_POINT( '', ( -22.3000000000000, 1.08420217248550E-15, 6.50521303491303E-16 ) );
#194 = DIRECTION( '', ( -1.00000000000000, -0.000000000000000, -0.000000000000000 ) );
#195 = DIRECTION( '', ( 0.000000000000000, 0.000000000000000, -1.00000000000000 ) );
#196 = ORIENTED_EDGE( '', *, *, #308, .T. );
#197 = ORIENTED_EDGE( '', *, *, #309, .F. );
#198 = ORIENTED_EDGE( '', *, *, #310, .F. );
#199 = ORIENTED_EDGE( '', *, *, #299, .T. );
#200 = CARTESIAN_POINT( '', ( -22.3000000000000, 10.9051747806249, -8.60041644363941 ) );
#201 = DIRECTION( '', ( -0.000000000000000, 0.819152044288992, 0.573576436351046 ) );
#202 = DIRECTION( '', ( 0.000000000000000, -0.573576436351046, 0.819152044288992 ) );
#203 = ORIENTED_EDGE( '', *, *, #311, .T. );
#204 = ORIENTED_EDGE( '', *, *, #312, .F. );
#205 = ORIENTED_EDGE( '', *, *, #313, .T. );
#206 = ORIENTED_EDGE( '', *, *, #291, .F. );
#207 = ORIENTED_EDGE( '', *, *, #314, .T. );
#208 = ORIENTED_EDGE( '', *, *, #315, .F. );
#209 = ORIENTED_EDGE( '', *, *, #316, .T. );
#210 = ORIENTED_EDGE( '', *, *, #296, .F. );
#211 = ORIENTED_EDGE( '', *, *, #317, .F. );
#212 = ORIENTED_EDGE( '', *, *, #308, .F. );
#213 = ORIENTED_EDGE( '', *, *, #298, .F. );
#214 = ORIENTED_EDGE( '', *, *, #302, .F. );
#215 = ORIENTED_EDGE( '', *, *, #307, .T. );
#216 = ORIENTED_EDGE( '', *, *, #318, .F. );
#217 = CARTESIAN_POINT( '', ( -2.06967602000370E-14, 17.6000000000000, 0.000000000000000 ) );
#218 = DIRECTION( '', ( -1.00000000000000, -2.54903223591067E-15, 0.000000000000000 ) );
#219 = DIRECTION( '', ( 2.54903223591067E-15, -1.00000000000000, 0.000000000000000 ) );
#220 = ORIENTED_EDGE( '', *, *, #293, .T. );
#221 = ORIENTED_EDGE( '', *, *, #319, .F. );
#222 = ORIENTED_EDGE( '', *, *, #320, .T. );
#223 = ORIENTED_EDGE( '', *, *, #305, .T. );
#224 = ORIENTED_EDGE( '', *, *, #303, .T. );
#225 = ORIENTED_EDGE( '', *, *, #300, .T. );
#226 = ORIENTED_EDGE( '', *, *, #310, .T. );
#227 = ORIENTED_EDGE( '', *, *, #321, .T. );
#228 = ORIENTED_EDGE( '', *, *, #294, .T. );
#229 = ORIENTED_EDGE( '', *, *, #322, .F. );
#230 = CARTESIAN_POINT( '', ( -22.3000000000000, 5.21125275594158E-29, 0.000000000000000 ) );
#231 = DIRECTION( '', ( 1.00000000000000, 2.54903223591067E-15, -0.000000000000000 ) );
#232 = DIRECTION( '', ( -2.54903223591067E-15, 1.00000000000000, 0.000000000000000 ) );
#233 = ORIENTED_EDGE( '', *, *, #323, .F. );
#234 = ORIENTED_EDGE( '', *, *, #311, .F. );
#235 = ORIENTED_EDGE( '', *, *, #324, .T. );
#236 = ORIENTED_EDGE( '', *, *, #319, .T. );
#237 = ORIENTED_EDGE( '', *, *, #292, .F. );
#238 = ORIENTED_EDGE( '', *, *, #313, .F. );
#239 = ORIENTED_EDGE( '', *, *, #325, .F. );
#240 = ORIENTED_EDGE( '', *, *, #326, .F. );
#241 = CARTESIAN_POINT( '', ( -22.3000000000000, 0.000000000000000, 0.000000000000000 ) );
#242 = DIRECTION( '', ( 1.00000000000000, 2.54903223591067E-15, -0.000000000000000 ) );
#243 = DIRECTION( '', ( -2.54903223591067E-15, 1.00000000000000, 0.000000000000000 ) );
#244 = ORIENTED_EDGE( '', *, *, #327, .F. );
#245 = ORIENTED_EDGE( '', *, *, #314, .F. );
#246 = ORIENTED_EDGE( '', *, *, #290, .F. );
#247 = ORIENTED_EDGE( '', *, *, #322, .T. );
#248 = ORIENTED_EDGE( '', *, *, #297, .T. );
#249 = ORIENTED_EDGE( '', *, *, #316, .F. );
#250 = ORIENTED_EDGE( '', *, *, #328, .F. );
#251 = ORIENTED_EDGE( '', *, *, #288, .F. );
#252 = CARTESIAN_POINT( '', ( -22.3000000000000, 0.000000000000000, 0.000000000000000 ) );
#253 = DIRECTION( '', ( 1.00000000000000, 2.54903223591067E-15, -0.000000000000000 ) );
#254 = DIRECTION( '', ( -2.54903223591067E-15, 1.00000000000000, 0.000000000000000 ) );
#255 = ORIENTED_EDGE( '', *, *, #317, .T. );
#256 = ORIENTED_EDGE( '', *, *, #295, .T. );
#257 = ORIENTED_EDGE( '', *, *, #321, .F. );
#258 = ORIENTED_EDGE( '', *, *, #309, .T. );
#259 = CARTESIAN_POINT( '', ( -22.3000000000000, 1.08420217248550E-15, 6.50521303491303E-16 ) );
#260 = DIRECTION( '', ( -1.00000000000000, -0.000000000000000, -0.000000000000000 ) );
#261 = DIRECTION( '', ( 0.000000000000000, 0.000000000000000, -1.00000000000000 ) );
#262 = ORIENTED_EDGE( '', *, *, #323, .T. );
#263 = ORIENTED_EDGE( '', *, *, #329, .F. );
#264 = ORIENTED_EDGE( '', *, *, #325, .T. );
#265 = ORIENTED_EDGE( '', *, *, #312, .T. );
#266 = CARTESIAN_POINT( '', ( 300.000000000000, -1.46988160144000, -16.8650000000000 ) );
#267 = DIRECTION( '', ( -1.00000000000000, 2.38524477946811E-15, 0.000000000000000 ) );
#268 = DIRECTION( '', ( 2.38524477946811E-15, 1.00000000000000, 0.000000000000000 ) );
#269 = ORIENTED_EDGE( '', *, *, #326, .T. );
#270 = ORIENTED_EDGE( '', *, *, #329, .T. );
#271 = CARTESIAN_POINT( '', ( 486.594744111678, -1.46988160144044, -16.8650000000000 ) );
#272 = DIRECTION( '', ( 1.00000000000000, -2.38524477946811E-15, -0.000000000000000 ) );
#273 = DIRECTION( '', ( 2.38524477946811E-15, 1.00000000000000, 0.000000000000000 ) );
#274 = ORIENTED_EDGE( '', *, *, #315, .T. );
#275 = ORIENTED_EDGE( '', *, *, #327, .T. );
#276 = ORIENTED_EDGE( '', *, *, #289, .F. );
#277 = ORIENTED_EDGE( '', *, *, #328, .T. );
#278 = CARTESIAN_POINT( '', ( 300.000000000000, -1.46988160143999, 16.8650000000000 ) );
#279 = DIRECTION( '', ( -1.00000000000000, 2.36862034615667E-15, 0.000000000000000 ) );
#280 = DIRECTION( '', ( 2.36862034615667E-15, 1.00000000000000, 0.000000000000000 ) );
#281 = ORIENTED_EDGE( '', *, *, #318, .T. );
#282 = ORIENTED_EDGE( '', *, *, #306, .F. );
#283 = ORIENTED_EDGE( '', *, *, #320, .F. );
#284 = ORIENTED_EDGE( '', *, *, #324, .F. );
#285 = CARTESIAN_POINT( '', ( -22.3000000000000, -17.5999999999999, -0.750000000000000 ) );
#286 = DIRECTION( '', ( 0.000000000000000, 0.000000000000000, -1.00000000000000 ) );
#287 = DIRECTION( '', ( -1.00000000000000, 0.000000000000000, 0.000000000000000 ) );
#288 = EDGE_CURVE( '', #330, #331, #332, .T. );
#289 = EDGE_CURVE( '', #331, #330, #333, .T. );
#290 = EDGE_CURVE( '', #334, #335, #336, .T. );
#291 = EDGE_CURVE( '', #335, #337, #338, .F. );
#292 = EDGE_CURVE( '', #337, #339, #340, .T. );
#293 = EDGE_CURVE( '', #334, #339, #341, .T. );
#294 = EDGE_CURVE( '', #342, #343, #344, .T. );
#295 = EDGE_CURVE( '', #345, #342, #346, .F. );
#296 = EDGE_CURVE( '', #345, #347, #348, .T. );
#297 = EDGE_CURVE( '', #343, #347, #349, .T. );
#298 = EDGE_CURVE( '', #350, #351, #352, .T. );
#299 = EDGE_CURVE( '', #353, #351, #354, .T. );
#300 = EDGE_CURVE( '', #355, #353, #356, .T. );
#301 = EDGE_CURVE( '', #355, #350, #357, .T. );
#302 = EDGE_CURVE( '', #358, #350, #359, .T. );
#303 = EDGE_CURVE( '', #360, #355, #361, .T. );
#304 = EDGE_CURVE( '', #360, #358, #362, .T. );
#305 = EDGE_CURVE( '', #363, #360, #364, .T. );
#306 = EDGE_CURVE( '', #363, #365, #366, .T. );
#307 = EDGE_CURVE( '', #358, #365, #367, .T. );
#308 = EDGE_CURVE( '', #351, #368, #369, .T. );
#309 = EDGE_CURVE( '', #370, #368, #371, .T. );
#310 = EDGE_CURVE( '', #353, #370, #372, .T. );
#311 = EDGE_CURVE( '', #373, #374, #375, .T. );
#312 = EDGE_CURVE( '', #376, #374, #377, .F. );
#313 = EDGE_CURVE( '', #376, #337, #378, .T. );
#314 = EDGE_CURVE( '', #335, #379, #380, .T. );
#315 = EDGE_CURVE( '', #381, #379, #382, .F. );
#316 = EDGE_CURVE( '', #381, #347, #383, .T. );
#317 = EDGE_CURVE( '', #368, #345, #384, .T. );
#318 = EDGE_CURVE( '', #373, #365, #385, .T. );
#319 = EDGE_CURVE( '', #386, #339, #387, .T. );
#320 = EDGE_CURVE( '', #386, #363, #388, .T. );
#321 = EDGE_CURVE( '', #370, #342, #389, .T. );
#322 = EDGE_CURVE( '', #334, #343, #390, .T. );
#323 = EDGE_CURVE( '', #374, #391, #392, .T. );
#324 = EDGE_CURVE( '', #373, #386, #393, .T. );
#325 = EDGE_CURVE( '', #394, #376, #395, .T. );
#326 = EDGE_CURVE( '', #391, #394, #396, .T. );
#327 = EDGE_CURVE( '', #379, #330, #397, .T. );
#328 = EDGE_CURVE( '', #331, #381, #398, .T. );
#329 = EDGE_CURVE( '', #394, #391, #399, .T. );
#330 = VERTEX_POINT( '', #400 );
#331 = VERTEX_POINT( '', #401 );
#332 = B_SPLINE_CURVE_WITH_KNOTS( '', 3, ( #402, #403, #404, #405, #406, #407, #408, #409, #410, #411, #412, #413, #414, #415, #416, #417, #418, #419, #420, #421, #422, #423 ), .UNSPECIFIED., .F., .F., ( 4, 2, 2, 2, 2, 2, 2, 2, 2, 2, 4 ), ( 0.000000000000000, 0.00187134994796402, 0.00280682504357929, 0.00327456259138692, 0.00350843136529073, 0.00374230013919455, 0.00397616891309836, 0.00421003768700218, 0.00467777523480981, 0.00561325033042508, 0.00748420052165560 ), .UNSPECIFIED. );
#333 = CIRCLE( '', #424, 3.30000000000000 );
#334 = VERTEX_POINT( '', #425 );
#335 = VERTEX_POINT( '', #426 );
#336 = B_SPLINE_CURVE_WITH_KNOTS( '', 3, ( #427, #428, #429, #430, #431, #432 ), .UNSPECIFIED., .F., .F., ( 4, 2, 4 ), ( 0.000000000000000, 0.0111790905165411, 0.0223579805143134 ), .UNSPECIFIED. );
#337 = VERTEX_POINT( '', #433 );
#338 = CIRCLE( '', #434, 2.55000000000000 );
#339 = VERTEX_POINT( '', #435 );
#340 = B_SPLINE_CURVE_WITH_KNOTS( '', 3, ( #436, #437, #438, #439, #440, #441 ), .UNSPECIFIED., .F., .F., ( 4, 2, 4 ), ( 0.000000000000000, 0.0111790993365432, 0.0223579981177341 ), .UNSPECIFIED. );
#341 = CIRCLE( '', #442, 2.55000000000000 );
#342 = VERTEX_POINT( '', #443 );
#343 = VERTEX_POINT( '', #444 );
#344 = LINE( '', #445, #446 );
#345 = VERTEX_POINT( '', #447 );
#346 = LINE( '', #448, #449 );
#347 = VERTEX_POINT( '', #450 );
#348 = LINE( '', #451, #452 );
#349 = B_SPLINE_CURVE_WITH_KNOTS( '', 3, ( #453, #454, #455, #456, #457, #458, #459 ), .UNSPECIFIED., .F., .F., ( 4, 3, 4 ), ( 0.0277427888366040, 0.0303262352826726, 0.0500973517455525 ), .UNSPECIFIED. );
#350 = VERTEX_POINT( '', #460 );
#351 = VERTEX_POINT( '', #461 );
#352 = LINE( '', #462, #463 );
#353 = VERTEX_POINT( '', #464 );
#354 = LINE( '', #465, #466 );
#355 = VERTEX_POINT( '', #467 );
#356 = LINE( '', #468, #469 );
#357 = LINE( '', #470, #471 );
#358 = VERTEX_POINT( '', #472 );
#359 = LINE( '', #473, #474 );
#360 = VERTEX_POINT( '', #475 );
#361 = LINE( '', #476, #477 );
#362 = LINE( '', #478, #479 );
#363 = VERTEX_POINT( '', #480 );
#364 = CIRCLE( '', #481, 12.0000000000000 );
#365 = VERTEX_POINT( '', #482 );
#366 = LINE( '', #483, #484 );
#367 = CIRCLE( '', #485, 12.0000000000000 );
#368 = VERTEX_POINT( '', #486 );
#369 = LINE( '', #487, #488 );
#370 = VERTEX_POINT( '', #489 );
#371 = LINE( '', #490, #491 );
#372 = LINE( '', #492, #493 );
#373 = VERTEX_POINT( '', #494 );
#374 = VERTEX_POINT( '', #495 );
#375 = CIRCLE( '', #496, 17.6000000000000 );
#376 = VERTEX_POINT( '', #497 );
#377 = CIRCLE( '', #498, 3.30000000000000 );
#378 = CIRCLE( '', #499, 17.6000000000000 );
#379 = VERTEX_POINT( '', #500 );
#380 = CIRCLE( '', #501, 17.6000000000000 );
#381 = VERTEX_POINT( '', #502 );
#382 = CIRCLE( '', #503, 3.30000000000000 );
#383 = CIRCLE( '', #504, 17.6000000000000 );
#384 = CIRCLE( '', #505, 12.0000000000000 );
#385 = LINE( '', #506, #507 );
#386 = VERTEX_POINT( '', #508 );
#387 = CIRCLE( '', #509, 16.0406320937000 );
#388 = LINE( '', #510, #511 );
#389 = CIRCLE( '', #512, 12.0000000000000 );
#390 = CIRCLE( '', #513, 16.0406320937000 );
#391 = VERTEX_POINT( '', #514 );
#392 = B_SPLINE_CURVE_WITH_KNOTS( '', 3, ( #515, #516, #517, #518 ), .UNSPECIFIED., .F., .F., ( 4, 4 ), ( 0.000000000000000, 0.0115292662524895 ), .UNSPECIFIED. );
#393 = B_SPLINE_CURVE_WITH_KNOTS( '', 3, ( #519, #520, #521, #522, #523, #524, #525 ), .UNSPECIFIED., .F., .F., ( 4, 3, 4 ), ( 0.0105551188187192, 0.0303262352818698, 0.0329096817279952 ), .UNSPECIFIED. );
#394 = VERTEX_POINT( '', #526 );
#395 = B_SPLINE_CURVE_WITH_KNOTS( '', 3, ( #527, #528, #529, #530 ), .UNSPECIFIED., .F., .F., ( 4, 4 ), ( 0.000000000000000, 0.0115292752361583 ), .UNSPECIFIED. );
#396 = B_SPLINE_CURVE_WITH_KNOTS( '', 3, ( #531, #532, #533, #534, #535, #536, #537, #538, #539, #540, #541, #542, #543, #544, #545, #546, #547, #548, #549, #550, #551, #552 ), .UNSPECIFIED., .F., .F., ( 4, 2, 2, 2, 2, 2, 2, 2, 2, 2, 4 ), ( 0.000000000000000, 0.00187134994796408, 0.00280682504357935, 0.00327456259138699, 0.00350843136529081, 0.00374230013919463, 0.00397616891309845, 0.00421003768700227, 0.00467777523480991, 0.00561325033042519, 0.00748420052165575 ), .UNSPECIFIED. );
#397 = B_SPLINE_CURVE_WITH_KNOTS( '', 3, ( #553, #554, #555, #556 ), .UNSPECIFIED., .F., .F., ( 4, 4 ), ( 0.000000000000000, 0.0115292662524894 ), .UNSPECIFIED. );
#398 = B_SPLINE_CURVE_WITH_KNOTS( '', 3, ( #557, #558, #559, #560 ), .UNSPECIFIED., .F., .F., ( 4, 4 ), ( 0.000000000000000, 0.0115292752361583 ), .UNSPECIFIED. );
#399 = CIRCLE( '', #561, 3.30000000000000 );
#400 = CARTESIAN_POINT( '', ( -11.5000000000000, 1.82580396833743, 16.6963090839263 ) );
#401 = CARTESIAN_POINT( '', ( -11.5000000000000, -4.68669267826440, 16.1287076015501 ) );
#402 = CARTESIAN_POINT( '', ( -11.5000000000000, 1.82580396833743, 16.6963090839263 ) );
#403 = CARTESIAN_POINT( '', ( -11.8120147211113, 1.28656599363153, 16.7333285166041 ) );
#404 = CARTESIAN_POINT( '', ( -12.1241867137942, 0.746487704532669, 16.7442886216140 ) );
#405 = CARTESIAN_POINT( '', ( -12.5901169337750, -0.0650064130310692, 16.7216730571252 ) );
#406 = CARTESIAN_POINT( '', ( -12.7453587668819, -0.335310342619135, 16.7076170763508 ) );
#407 = CARTESIAN_POINT( '', ( -12.9725170060709, -0.743381111183144, 16.6768696419102 ) );
#408 = CARTESIAN_POINT( '', ( -13.0477688297670, -0.879526999394064, 16.6650030520906 ) );
#409 = CARTESIAN_POINT( '', ( -13.1517880149293, -1.08831354645581, 16.6449425211380 ) );
#410 = CARTESIAN_POINT( '', ( -13.1851009009050, -1.15845665490905, 16.6378868247878 ) );
#411 = CARTESIAN_POINT( '', ( -13.2391833120789, -1.30408381105408, 16.6233129489097 ) );
#412 = CARTESIAN_POINT( '', ( -13.2591491705659, -1.37963313933405, 16.6158378187664 ) );
#413 = CARTESIAN_POINT( '', ( -13.2555367937423, -1.53646663939497, 16.6023235581273 ) );
#414 = CARTESIAN_POINT( '', ( -13.2329022524477, -1.61150005319781, 16.5967706955931 ) );
#415 = CARTESIAN_POINT( '', ( -13.1765172263096, -1.75629062736119, 16.5860386862061 ) );
#416 = CARTESIAN_POINT( '', ( -13.1429715421020, -1.82600333999659, 16.5808543747708 ) );
#417 = CARTESIAN_POINT( '', ( -13.0387505976793, -2.03326662081970, 16.5644929603067 ) );
#418 = CARTESIAN_POINT( '', ( -12.9638511871465, -2.16862523683723, 16.5525733201092 ) );
#419 = CARTESIAN_POINT( '', ( -12.7376236058068, -2.57353452545283, 16.5121489154194 ) );
#420 = CARTESIAN_POINT( '', ( -12.5833010913950, -2.84058654222772, 16.4792170263353 ) );
#421 = CARTESIAN_POINT( '', ( -12.1204663771125, -3.63824398186440, 16.3614300018429 ) );
#422 = CARTESIAN_POINT( '', ( -11.8103706763037, -4.16475417199887, 16.2577719618471 ) );
#423 = CARTESIAN_POINT( '', ( -11.5000000000000, -4.68669267826439, 16.1287076015501 ) );
#424 = AXIS2_PLACEMENT_3D( '', #562, #563, #564 );
#425 = CARTESIAN_POINT( '', ( -22.3000000000000, 15.8679989019907, 2.34701700261596 ) );
#426 = CARTESIAN_POINT( '', ( -3.09879916551393E-16, 17.4232352505188, 2.48814658030394 ) );
#427 = CARTESIAN_POINT( '', ( -22.3000000000000, 15.8679989019907, 2.34701700261598 ) );
#428 = CARTESIAN_POINT( '', ( -18.5833437487774, 16.1151891064388, 2.45202216660805 ) );
#429 = CARTESIAN_POINT( '', ( -14.8659436673024, 16.3684378206887, 2.51469775538257 ) );
#430 = CARTESIAN_POINT( '', ( -7.43242443746714, 16.8868646601358, 2.56316225305493 ) );
#431 = CARTESIAN_POINT( '', ( -3.71603360300102, 17.1520602288994, 2.54898682875529 ) );
#432 = CARTESIAN_POINT( '', ( -1.82697931349539E-14, 17.4232352505192, 2.48814658030419 ) );
#433 = CARTESIAN_POINT( '', ( -3.09879916551393E-16, 17.4232352505188, -2.48814658030394 ) );
#434 = AXIS2_PLACEMENT_3D( '', #565, #566, #567 );
#435 = CARTESIAN_POINT( '', ( -22.3000000000000, 15.8679989019911, -2.34701700261611 ) );
#436 = CARTESIAN_POINT( '', ( -2.35643552953013E-15, 17.4232352505189, -2.48814658030397 ) );
#437 = CARTESIAN_POINT( '', ( -3.71598121777954, 17.1520640516749, -2.54898597108522 ) );
#438 = CARTESIAN_POINT( '', ( -7.43306718350033, 16.8868191396293, -2.56316262497411 ) );
#439 = CARTESIAN_POINT( '', ( -14.8665895316184, 16.3683934713402, -2.51468898128792 ) );
#440 = CARTESIAN_POINT( '', ( -18.5833281795672, 16.1151901419280, -2.45202260647878 ) );
#441 = CARTESIAN_POINT( '', ( -22.3000000000000, 15.8679989019910, -2.34701700261624 ) );
#442 = AXIS2_PLACEMENT_3D( '', #568, #569, #570 );
#443 = CARTESIAN_POINT( '', ( -22.3000000000000, -11.9765395670035, 0.750000000000000 ) );
#444 = CARTESIAN_POINT( '', ( -22.3000000000000, -16.0230889020858, 0.750000000000000 ) );
#445 = CARTESIAN_POINT( '', ( -22.3000000000000, 0.000000000000000, 0.750000000000000 ) );
#446 = VECTOR( '', #571, 1000.00000000000 );
#447 = CARTESIAN_POINT( '', ( 0.000000000000000, -11.9765395670035, 0.750000000000000 ) );
#448 = CARTESIAN_POINT( '', ( -22.3000000000000, -11.9765395670035, 0.750000000000000 ) );
#449 = VECTOR( '', #572, 1000.00000000000 );
#450 = CARTESIAN_POINT( '', ( 0.000000000000000, -17.5840126251091, 0.750000000000000 ) );
#451 = CARTESIAN_POINT( '', ( 0.000000000000000, 0.000000000000000, 0.750000000000000 ) );
#452 = VECTOR( '', #573, 1000.00000000000 );
#453 = CARTESIAN_POINT( '', ( -22.3000000000000, -16.0230889020858, 0.750000000000000 ) );
#454 = CARTESIAN_POINT( '', ( -21.4409534789811, -16.0832250558446, 0.750000000000000 ) );
#455 = CARTESIAN_POINT( '', ( -20.5819069064109, -16.1433604731946, 0.750000000000000 ) );
#456 = CARTESIAN_POINT( '', ( -19.7228602839939, -16.2034951784617, 0.750000000000000 ) );
#457 = CARTESIAN_POINT( '', ( -13.1485762131383, -16.6637060967359, 0.750000000000000 ) );
#458 = CARTESIAN_POINT( '', ( -6.57428924038128, -17.1238755613859, 0.750000000000000 ) );
#459 = CARTESIAN_POINT( '', ( -2.70619804912766E-15, -17.5840126251091, 0.750000000000000 ) );
#460 = CARTESIAN_POINT( '', ( 1.30729248339760E-14, 4.35195842631295, -13.1890279344478 ) );
#461 = CARTESIAN_POINT( '', ( 0.000000000000000, 10.9051747806249, -8.60041644363941 ) );
#462 = CARTESIAN_POINT( '', ( 0.000000000000000, 4.35195842631295, -13.1890279344478 ) );
#463 = VECTOR( '', #574, 1000.00000000000 );
#464 = CARTESIAN_POINT( '', ( -22.3000000000000, 10.9051747806249, -8.60041644363940 ) );
#465 = CARTESIAN_POINT( '', ( -22.3000000000000, 10.9051747806249, -8.60041644363941 ) );
#466 = VECTOR( '', #575, 1000.00000000000 );
#467 = CARTESIAN_POINT( '', ( -22.3000000000000, 4.35195842631295, -13.1890279344478 ) );
#468 = CARTESIAN_POINT( '', ( -22.3000000000000, 4.35195842631295, -13.1890279344478 ) );
#469 = VECTOR( '', #576, 1000.00000000000 );
#470 = CARTESIAN_POINT( '', ( -22.3000000000000, 4.35195842631295, -13.1890279344478 ) );
#471 = VECTOR( '', #577, 1000.00000000000 );
#472 = CARTESIAN_POINT( '', ( 0.000000000000000, 3.21266842560625, -11.5619531908373 ) );
#473 = CARTESIAN_POINT( '', ( 0.000000000000000, 3.21266842560626, -11.5619531908373 ) );
#474 = VECTOR( '', #578, 1000.00000000000 );
#475 = CARTESIAN_POINT( '', ( -22.3000000000000, 3.21266842560625, -11.5619531908373 ) );
#476 = CARTESIAN_POINT( '', ( -22.3000000000000, 3.21266842560626, -11.5619531908373 ) );
#477 = VECTOR( '', #579, 1000.00000000000 );
#478 = CARTESIAN_POINT( '', ( -22.3000000000000, 3.21266842560625, -11.5619531908373 ) );
#479 = VECTOR( '', #580, 1000.00000000000 );
#480 = CARTESIAN_POINT( '', ( -22.3000000000000, -11.9765395670035, -0.750000000000000 ) );
#481 = AXIS2_PLACEMENT_3D( '', #581, #582, #583 );
#482 = CARTESIAN_POINT( '', ( 5.48147140946268E-14, -11.9765395670035, -0.750000000000000 ) );
#483 = CARTESIAN_POINT( '', ( -22.3000000000000, -11.9765395670035, -0.750000000000000 ) );
#484 = VECTOR( '', #584, 1000.00000000000 );
#485 = AXIS2_PLACEMENT_3D( '', #585, #586, #587 );
#486 = CARTESIAN_POINT( '', ( 0.000000000000000, 9.76588477991819, -6.97334170002893 ) );
#487 = CARTESIAN_POINT( '', ( 0.000000000000000, 10.9051747806249, -8.60041644363941 ) );
#488 = VECTOR( '', #588, 1000.00000000000 );
#489 = CARTESIAN_POINT( '', ( -22.3000000000000, 9.76588477991819, -6.97334170002893 ) );
#490 = CARTESIAN_POINT( '', ( -22.3000000000000, 9.76588477991819, -6.97334170002893 ) );
#491 = VECTOR( '', #589, 1000.00000000000 );
#492 = CARTESIAN_POINT( '', ( -22.3000000000000, 10.9051747806249, -8.60041644363941 ) );
#493 = VECTOR( '', #590, 1000.00000000000 );
#494 = CARTESIAN_POINT( '', ( 0.000000000000000, -17.5840126251091, -0.750000000000000 ) );
#495 = CARTESIAN_POINT( '', ( -7.86918875484253E-15, -4.76899321571868, -16.9415673332908 ) );
#496 = AXIS2_PLACEMENT_3D( '', #591, #592, #593 );
#497 = CARTESIAN_POINT( '', ( 4.71818898873582E-14, 1.76624100106155, -17.5111505254843 ) );
#498 = AXIS2_PLACEMENT_3D( '', #594, #595, #596 );
#499 = AXIS2_PLACEMENT_3D( '', #597, #598, #599 );
#500 = CARTESIAN_POINT( '', ( 7.66514583894083E-15, 1.76624100106151, 17.5111505254843 ) );
#501 = AXIS2_PLACEMENT_3D( '', #600, #601, #602 );
#502 = CARTESIAN_POINT( '', ( 6.38404125751573E-14, -4.76899321571861, 16.9415673332908 ) );
#503 = AXIS2_PLACEMENT_3D( '', #603, #604, #605 );
#504 = AXIS2_PLACEMENT_3D( '', #606, #607, #608 );
#505 = AXIS2_PLACEMENT_3D( '', #609, #610, #611 );
#506 = CARTESIAN_POINT( '', ( 0.000000000000000, -17.5999999999999, -0.750000000000000 ) );
#507 = VECTOR( '', #612, 1000.00000000000 );
#508 = CARTESIAN_POINT( '', ( -22.3000000000000, -16.0230889020858, -0.750000000000000 ) );
#509 = AXIS2_PLACEMENT_3D( '', #613, #614, #615 );
#510 = CARTESIAN_POINT( '', ( -22.3000000000000, -17.5999999999999, -0.750000000000000 ) );
#511 = VECTOR( '', #616, 1000.00000000000 );
#512 = AXIS2_PLACEMENT_3D( '', #617, #618, #619 );
#513 = AXIS2_PLACEMENT_3D( '', #620, #621, #622 );
#514 = CARTESIAN_POINT( '', ( -11.5000000000000, -4.68669267826443, -16.1287076015501 ) );
#515 = CARTESIAN_POINT( '', ( -1.00033735585034E-14, -4.76899321571868, -16.9415673332909 ) );
#516 = CARTESIAN_POINT( '', ( -3.83283820517842, -4.77549775304412, -16.6613016675874 ) );
#517 = CARTESIAN_POINT( '', ( -7.66631970832111, -4.74660571862506, -16.3904635727974 ) );
#518 = CARTESIAN_POINT( '', ( -11.5000000000000, -4.68669267826444, -16.1287076015501 ) );
#519 = CARTESIAN_POINT( '', ( 7.63133317144543E-16, -17.5840126251091, -0.750000000000000 ) );
#520 = CARTESIAN_POINT( '', ( -6.57428924038127, -17.1238755613859, -0.750000000000000 ) );
#521 = CARTESIAN_POINT( '', ( -13.1485762131383, -16.6637060967359, -0.750000000000000 ) );
#522 = CARTESIAN_POINT( '', ( -19.7228602839939, -16.2034951784617, -0.750000000000000 ) );
#523 = CARTESIAN_POINT( '', ( -20.5819069064109, -16.1433604731946, -0.750000000000000 ) );
#524 = CARTESIAN_POINT( '', ( -21.4409534789811, -16.0832250558446, -0.750000000000000 ) );
#525 = CARTESIAN_POINT( '', ( -22.3000000000000, -16.0230889020858, -0.750000000000000 ) );
#526 = CARTESIAN_POINT( '', ( -11.5000000000000, 1.82580396833746, -16.6963090839263 ) );
#527 = CARTESIAN_POINT( '', ( -11.5000000000000, 1.82580396833748, -16.6963090839263 ) );
#528 = CARTESIAN_POINT( '', ( -7.66632071549831, 1.83953055716174, -16.9644831016110 ) );
#529 = CARTESIAN_POINT( '', ( -3.83283648391256, 1.82113266494445, -17.2362360169072 ) );
#530 = CARTESIAN_POINT( '', ( 4.71109439336548E-14, 1.76624100106156, -17.5111505254843 ) );
#531 = CARTESIAN_POINT( '', ( -11.5000000000000, -4.68669267826443, -16.1287076015501 ) );
#532 = CARTESIAN_POINT( '', ( -11.8120147211113, -4.16198944466929, -16.2584556204772 ) );
#533 = CARTESIAN_POINT( '', ( -12.1241867137943, -3.63195037139344, -16.3626825990320 ) );
#534 = CARTESIAN_POINT( '', ( -12.5901169337750, -2.82877929738481, -16.4807943786035 ) );
#535 = CARTESIAN_POINT( '', ( -12.7453587668820, -2.56011928556555, -16.5137122004567 ) );
#536 = CARTESIAN_POINT( '', ( -12.9725170060710, -2.15288206619096, -16.5540235392729 ) );
#537 = CARTESIAN_POINT( '', ( -13.0477688297671, -2.01673605795264, -16.5658887519325 ) );
#538 = CARTESIAN_POINT( '', ( -13.1517880149293, -1.80762711568520, -16.5822502127434 ) );
#539 = CARTESIAN_POINT( '', ( -13.1851009009050, -1.73732098806181, -16.5874354738817 ) );
#540 = CARTESIAN_POINT( '', ( -13.2391833120790, -1.59136831435891, -16.5982744546443 ) );
#541 = CARTESIAN_POINT( '', ( -13.2591491705659, -1.51566491940386, -16.6039818679371 ) );
#542 = CARTESIAN_POINT( '', ( -13.2555367937423, -1.35885817849861, -16.6178031554550 ) );
#543 = CARTESIAN_POINT( '', ( -13.2329022524477, -1.28399546646182, -16.6253146011034 ) );
#544 = CARTESIAN_POINT( '', ( -13.1765172263096, -1.13953139381816, -16.6397927953020 ) );
#545 = CARTESIAN_POINT( '', ( -13.1429715421021, -1.06997291730710, -16.6467467678001 ) );
#546 = CARTESIAN_POINT( '', ( -13.0387505976793, -0.863004211350655, -16.6664880498137 ) );
#547 = CARTESIAN_POINT( '', ( -12.9638511871465, -0.727624427463937, -16.6781648159501 ) );
#548 = CARTESIAN_POINT( '', ( -12.7376236058068, -0.321826929683388, -16.7083981633792 ) );
#549 = CARTESIAN_POINT( '', ( -12.5833010913950, -0.0531043166549594, -16.7221621101010 ) );
#550 = CARTESIAN_POINT( '', ( -12.1204663771126, 0.752903117766892, -16.7441436888255 ) );
#551 = CARTESIAN_POINT( '', ( -11.8103706763037, 1.28940730634012, -16.7331334565574 ) );
#552 = CARTESIAN_POINT( '', ( -11.5000000000000, 1.82580396833746, -16.6963090839263 ) );
#553 = CARTESIAN_POINT( '', ( 5.97273212381775E-15, 1.76624100106151, 17.5111505254843 ) );
#554 = CARTESIAN_POINT( '', ( -3.83283820517840, 1.82113268959538, 17.2362358934475 ) );
#555 = CARTESIAN_POINT( '', ( -7.66631970832109, 1.83953056076792, 16.9644831720652 ) );
#556 = CARTESIAN_POINT( '', ( -11.5000000000000, 1.82580396833743, 16.6963090839263 ) );
#557 = CARTESIAN_POINT( '', ( -11.5000000000000, -4.68669267826440, 16.1287076015501 ) );
#558 = CARTESIAN_POINT( '', ( -7.66632071549832, -4.74660570288477, 16.3904635040294 ) );
#559 = CARTESIAN_POINT( '', ( -3.83283648391255, -4.77549775012299, 16.6613017934502 ) );
#560 = CARTESIAN_POINT( '', ( 6.21172104493770E-14, -4.76899321571862, 16.9415673332909 ) );
#561 = AXIS2_PLACEMENT_3D( '', #623, #624, #625 );
#562 = CARTESIAN_POINT( '', ( -11.5000000000000, -1.46988160143926, 16.8650000000000 ) );
#563 = DIRECTION( '', ( 1.00000000000000, -2.36862034615667E-15, -0.000000000000000 ) );
#564 = DIRECTION( '', ( 2.36862034615667E-15, 1.00000000000000, 0.000000000000000 ) );
#565 = CARTESIAN_POINT( '', ( -1.88232215066426E-14, 16.8650000000000, 0.000000000000000 ) );
#566 = DIRECTION( '', ( -1.00000000000000, -2.54903223591067E-15, 0.000000000000000 ) );
#567 = DIRECTION( '', ( 2.54903223591067E-15, -1.00000000000000, 0.000000000000000 ) );
#568 = CARTESIAN_POINT( '', ( -22.3000000000000, 16.8650000000000, 0.000000000000000 ) );
#569 = DIRECTION( '', ( 1.00000000000000, -1.55580580805095E-16, -0.000000000000000 ) );
#570 = DIRECTION( '', ( 1.55580580805095E-16, 1.00000000000000, 0.000000000000000 ) );
#571 = DIRECTION( '', ( 0.000000000000000, -1.00000000000000, 0.000000000000000 ) );
#572 = DIRECTION( '', ( 1.00000000000000, 0.000000000000000, 0.000000000000000 ) );
#573 = DIRECTION( '', ( 0.000000000000000, -1.00000000000000, 0.000000000000000 ) );
#574 = DIRECTION( '', ( 0.000000000000000, 0.819152044288992, 0.573576436351046 ) );
#575 = DIRECTION( '', ( 1.00000000000000, 0.000000000000000, 0.000000000000000 ) );
#576 = DIRECTION( '', ( 0.000000000000000, 0.819152044288992, 0.573576436351046 ) );
#577 = DIRECTION( '', ( 1.00000000000000, 0.000000000000000, 0.000000000000000 ) );
#578 = DIRECTION( '', ( 0.000000000000000, 0.573576436351045, -0.819152044288992 ) );
#579 = DIRECTION( '', ( 0.000000000000000, 0.573576436351045, -0.819152044288992 ) );
#580 = DIRECTION( '', ( 1.00000000000000, 0.000000000000000, 0.000000000000000 ) );
#581 = CARTESIAN_POINT( '', ( -22.3000000000000, 1.08420217248550E-15, 6.50521303491303E-16 ) );
#582 = DIRECTION( '', ( 1.00000000000000, 0.000000000000000, 0.000000000000000 ) );
#583 = DIRECTION( '', ( 0.000000000000000, 0.000000000000000, -1.00000000000000 ) );
#584 = DIRECTION( '', ( 1.00000000000000, 0.000000000000000, 0.000000000000000 ) );
#585 = CARTESIAN_POINT( '', ( 2.42861286636753E-14, 1.08420217248550E-15, 6.50521303491303E-16 ) );
#586 = DIRECTION( '', ( -1.00000000000000, -2.54903223591067E-15, 0.000000000000000 ) );
#587 = DIRECTION( '', ( 2.54903223591067E-15, -1.00000000000000, 0.000000000000000 ) );
#588 = DIRECTION( '', ( 0.000000000000000, -0.573576436351046, 0.819152044288991 ) );
#589 = DIRECTION( '', ( 1.00000000000000, 0.000000000000000, 0.000000000000000 ) );
#590 = DIRECTION( '', ( 0.000000000000000, -0.573576436351046, 0.819152044288991 ) );
#591 = CARTESIAN_POINT( '', ( 5.55111512312578E-14, 5.68434188608083E-14, 0.000000000000000 ) );
#592 = DIRECTION( '', ( 1.00000000000000, 2.54903223591067E-15, -0.000000000000000 ) );
#593 = DIRECTION( '', ( -2.54903223591067E-15, 1.00000000000000, 0.000000000000000 ) );
#594 = CARTESIAN_POINT( '', ( 5.55111512312578E-14, -1.46988160143928, -16.8650000000000 ) );
#595 = DIRECTION( '', ( -1.00000000000000, -2.54903223591067E-15, 0.000000000000000 ) );
#596 = DIRECTION( '', ( 2.54903223591067E-15, -1.00000000000000, 0.000000000000000 ) );
#597 = CARTESIAN_POINT( '', ( 5.55111512312578E-14, 5.68434188608083E-14, 0.000000000000000 ) );
#598 = DIRECTION( '', ( 1.00000000000000, 2.54903223591067E-15, -0.000000000000000 ) );
#599 = DIRECTION( '', ( -2.54903223591067E-15, 1.00000000000000, 0.000000000000000 ) );
#600 = CARTESIAN_POINT( '', ( 5.55111512312578E-14, 5.68434188608083E-14, 0.000000000000000 ) );
#601 = DIRECTION( '', ( 1.00000000000000, 2.54903223591067E-15, -0.000000000000000 ) );
#602 = DIRECTION( '', ( -2.54903223591067E-15, 1.00000000000000, 0.000000000000000 ) );
#603 = CARTESIAN_POINT( '', ( 5.55111512312578E-14, -1.46988160143928, 16.8650000000000 ) );
#604 = DIRECTION( '', ( -1.00000000000000, -2.54903223591067E-15, 0.000000000000000 ) );
#605 = DIRECTION( '', ( 2.54903223591067E-15, -1.00000000000000, 0.000000000000000 ) );
#606 = CARTESIAN_POINT( '', ( 5.55111512312578E-14, 5.68434188608083E-14, 0.000000000000000 ) );
#607 = DIRECTION( '', ( 1.00000000000000, 2.54903223591067E-15, -0.000000000000000 ) );
#608 = DIRECTION( '', ( -2.54903223591067E-15, 1.00000000000000, 0.000000000000000 ) );
#609 = CARTESIAN_POINT( '', ( 0.000000000000000, 1.08420217248550E-15, 6.50521303491303E-16 ) );
#610 = DIRECTION( '', ( 1.00000000000000, 0.000000000000000, 0.000000000000000 ) );
#611 = DIRECTION( '', ( 0.000000000000000, 0.000000000000000, -1.00000000000000 ) );
#612 = DIRECTION( '', ( 0.000000000000000, 1.00000000000000, 0.000000000000000 ) );
#613 = CARTESIAN_POINT( '', ( -22.3000000000000, 0.000000000000000, 0.000000000000000 ) );
#614 = DIRECTION( '', ( 1.00000000000000, 2.54903223591067E-15, -0.000000000000000 ) );
#615 = DIRECTION( '', ( -2.54903223591067E-15, 1.00000000000000, 0.000000000000000 ) );
#616 = DIRECTION( '', ( 0.000000000000000, 1.00000000000000, 0.000000000000000 ) );
#617 = CARTESIAN_POINT( '', ( -22.3000000000000, 1.08420217248550E-15, 6.50521303491303E-16 ) );
#618 = DIRECTION( '', ( 1.00000000000000, 0.000000000000000, 0.000000000000000 ) );
#619 = DIRECTION( '', ( 0.000000000000000, 0.000000000000000, -1.00000000000000 ) );
#620 = CARTESIAN_POINT( '', ( -22.3000000000000, 0.000000000000000, 0.000000000000000 ) );
#621 = DIRECTION( '', ( 1.00000000000000, 2.54903223591067E-15, -0.000000000000000 ) );
#622 = DIRECTION( '', ( -2.54903223591067E-15, 1.00000000000000, 0.000000000000000 ) );
#623 = CARTESIAN_POINT( '', ( -11.5000000000000, -1.46988160143926, -16.8650000000000 ) );
#624 = DIRECTION( '', ( 1.00000000000000, -2.38524477946811E-15, -0.000000000000000 ) );
#625 = DIRECTION( '', ( 2.38524477946811E-15, 1.00000000000000, 0.000000000000000 ) );
ENDSEC;
END-ISO-10303-21;
