{
  "_deleted": false,
  "description": "The technique of extruding angled beams provides many applications in furniture design. In this How-To, we will take you through the steps of making a bench from angled PP beams and wood.\n",
  "steps": [
    {
      "_animationKey": "unique1",
      "images": [
        {
          "size": 167725,
          "contentType": "image/jpeg",
          "fullPath": "uploads/v2_howtos/zqSMRG1EjVIAfdQX1tvQ/howto-bench-1.jpg",
          "downloadUrl": "https://firebasestorage.googleapis.com/v0/b/onearmyworld.appspot.com/o/uploads%2Fv2_howtos%2FzqSMRG1EjVIAfdQX1tvQ%2Fhowto-bench-1.jpg?alt=media&token=2fc277b9-3d20-4cc7-85d8-0e73aa449ed9",
          "timeCreated": "2019-10-08T14:49:21.312Z",
          "name": "howto-bench-1.jpg",
          "type": "image/jpeg",
          "updated": "2019-10-08T14:49:21.312Z"
        }
      ],
      "text": "Okay, before jumping into the building process make sure you're ready to make this How-to.\nAs the bench is made with extruded beams, you’ll need to make or find an extrusion machine to produce the beams, or otherwise commission a workspace to make them for you :) For the rest you will need access to a wood and metal workshop.\n\nTo make the beams you will need a 80x80x3mm square tube for the mould and around 10kg plastic..\n\nOther  materials needed for the bench:\n- 6mm threaded rod\n- 10mm Barrel nuts\n- Wood\n- 4x70mm wood screws\n- Tamper-proof nuts (optional)\n",
      "title": "Get ready"
    },
    {
      "_animationKey": "unique2",
      "images": [
        {
          "fullPath": "uploads/v2_howtos/zqSMRG1EjVIAfdQX1tvQ/howto-bench-3.jpg",
          "downloadUrl": "https://firebasestorage.googleapis.com/v0/b/onearmyworld.appspot.com/o/uploads%2Fv2_howtos%2FzqSMRG1EjVIAfdQX1tvQ%2Fhowto-bench-3.jpg?alt=media&token=c01c0187-2ea6-46f9-ae9a-99c35f96da00",
          "type": "image/jpeg",
          "updated": "2019-10-08T14:49:23.089Z",
          "size": 121907,
          "timeCreated": "2019-10-08T14:49:23.089Z",
          "contentType": "image/jpeg",
          "name": "howto-bench-3.jpg"
        }
      ],
      "title": "Make your moulds",
      "text": "Let's start with making the moulds for our angles beams! Make sure you're familiar with the process of the How-to \"Make angled beams\" as this step is based on that process. For this bench, two moulds will be needed to make the four components. \n\nTake your 80x80x3mm metal tube, cut it to the measurements shown in the image and weld the mounting brackets.\n"
    },
    {
      "text": "Let's start making the angled beams. Get your cleaned and sorted plastic shredded into a size that works well with your extrusion machine. PP and HDPE should work quite well for this product (PS is probably to brittle for a furniture like that).\n\n(In this case we used PP and made a mixture of yellow and orange (1:4) to achieve a zesty orange.)\n\nPro tip: Let your plastic dry fully before melting it, as moisture can cause a large air pockets in your part.\n",
      "title": "Prepare your material",
      "_animationKey": "unique3",
      "images": [
        {
          "updated": "2019-10-08T14:49:24.710Z",
          "name": "howto-bench-2.jpg",
          "size": 116040,
          "type": "image/jpeg",
          "contentType": "image/jpeg",
          "downloadUrl": "https://firebasestorage.googleapis.com/v0/b/onearmyworld.appspot.com/o/uploads%2Fv2_howtos%2FzqSMRG1EjVIAfdQX1tvQ%2Fhowto-bench-2.jpg?alt=media&token=cb1b9876-6832-4f2d-9440-d601e84daff3",
          "fullPath": "uploads/v2_howtos/zqSMRG1EjVIAfdQX1tvQ/howto-bench-2.jpg",
          "timeCreated": "2019-10-08T14:49:24.710Z"
        }
      ]
    },
    {
      "_animationKey": "uniqueog77g",
      "title": "Extrude your parts",
      "text": "For many reasons your machine may differ to the one we’re using at the workspace here in Eindhoven, so take care with your settings and use the experience you’ve had with PP. In this case, we set our machine to temperatures (from hopper to nozzle) 235°C, 245°C, 250°C. While running the machine at 102rpm it took 15 minutes for each part, letting one cool while extruding the next. \n\nIn this case we went for the textured beams - have a look at the How-to below to decide what texture you want.\n\nRelated links:\nExtrude different textures 👉 tiny.cc/extrude-textures",
      "images": [
        {
          "updated": "2019-10-08T14:49:28.469Z",
          "contentType": "image/jpeg",
          "name": "howto-bench-4.jpg",
          "size": 118252,
          "timeCreated": "2019-10-08T14:49:28.469Z",
          "downloadUrl": "https://firebasestorage.googleapis.com/v0/b/onearmyworld.appspot.com/o/uploads%2Fv2_howtos%2FzqSMRG1EjVIAfdQX1tvQ%2Fhowto-bench-4.jpg?alt=media&token=c0c228b8-d5a2-43b9-a5e7-b826b02c3396",
          "type": "image/jpeg",
          "fullPath": "uploads/v2_howtos/zqSMRG1EjVIAfdQX1tvQ/howto-bench-4.jpg"
        }
      ]
    },
    {
      "_animationKey": "unique2gxytih",
      "images": [
        {
          "type": "image/jpeg",
          "size": 141206,
          "contentType": "image/jpeg",
          "fullPath": "uploads/v2_howtos/zqSMRG1EjVIAfdQX1tvQ/howto-bench-5-1.jpg",
          "downloadUrl": "https://firebasestorage.googleapis.com/v0/b/onearmyworld.appspot.com/o/uploads%2Fv2_howtos%2FzqSMRG1EjVIAfdQX1tvQ%2Fhowto-bench-5-1.jpg?alt=media&token=e0914fa2-dc15-47f5-b31c-44de643c7dde",
          "timeCreated": "2019-10-08T14:49:31.988Z",
          "updated": "2019-10-08T14:49:31.988Z",
          "name": "howto-bench-5-1.jpg"
        },
        {
          "type": "image/jpeg",
          "fullPath": "uploads/v2_howtos/zqSMRG1EjVIAfdQX1tvQ/howto-bench-5-3.jpg",
          "size": 98609,
          "contentType": "image/jpeg",
          "timeCreated": "2019-10-08T14:49:32.061Z",
          "updated": "2019-10-08T14:49:32.061Z",
          "name": "howto-bench-5-3.jpg",
          "downloadUrl": "https://firebasestorage.googleapis.com/v0/b/onearmyworld.appspot.com/o/uploads%2Fv2_howtos%2FzqSMRG1EjVIAfdQX1tvQ%2Fhowto-bench-5-3.jpg?alt=media&token=24e72905-4511-41f5-b12b-bbdd6a9ed6bf"
        },
        {
          "downloadUrl": "https://firebasestorage.googleapis.com/v0/b/onearmyworld.appspot.com/o/uploads%2Fv2_howtos%2FzqSMRG1EjVIAfdQX1tvQ%2Fhowto-bench-5-2.jpg?alt=media&token=c498cbf6-6fe9-4bb0-b089-004d3b4ba5eb",
          "size": 158884,
          "type": "image/jpeg",
          "fullPath": "uploads/v2_howtos/zqSMRG1EjVIAfdQX1tvQ/howto-bench-5-2.jpg",
          "timeCreated": "2019-10-08T14:49:31.842Z",
          "contentType": "image/jpeg",
          "name": "howto-bench-5-2.jpg",
          "updated": "2019-10-08T14:49:31.842Z"
        }
      ],
      "text": "After having produced your beams you can now begin preparing them for the bench. Use the\nmeasurements and angles as pictured. Note that the parts may be textured and probably have shrunk in the process of cooling. Each part will be slightly different so take care to match the parts while measuring so they are the same. It is also helpful to de-burr the parts after they have been cut to define the edges.",
      "title": "Finish the beams"
    },
    {
      "images": [
        {
          "size": 157922,
          "type": "image/jpeg",
          "downloadUrl": "https://firebasestorage.googleapis.com/v0/b/onearmyworld.appspot.com/o/uploads%2Fv2_howtos%2FzqSMRG1EjVIAfdQX1tvQ%2Fhowto-bench-6-2.jpg?alt=media&token=ddd5f56b-c6da-42f8-b83f-5f1d085d58d8",
          "updated": "2019-10-08T14:49:36.774Z",
          "contentType": "image/jpeg",
          "timeCreated": "2019-10-08T14:49:36.774Z",
          "fullPath": "uploads/v2_howtos/zqSMRG1EjVIAfdQX1tvQ/howto-bench-6-2.jpg",
          "name": "howto-bench-6-2.jpg"
        },
        {
          "name": "howto-bench-6-3-__.png",
          "downloadUrl": "https://firebasestorage.googleapis.com/v0/b/onearmyworld.appspot.com/o/uploads%2Fv2_howtos%2FzqSMRG1EjVIAfdQX1tvQ%2Fhowto-bench-6-3-__.png?alt=media&token=8c7f5e34-e310-46cb-8eb5-793a43647bd7",
          "contentType": "image/jpeg",
          "timeCreated": "2019-10-08T14:49:36.465Z",
          "updated": "2019-10-08T14:49:36.465Z",
          "type": "image/jpeg",
          "fullPath": "uploads/v2_howtos/zqSMRG1EjVIAfdQX1tvQ/howto-bench-6-3-__.png",
          "size": 104532
        },
        {
          "type": "image/jpeg",
          "contentType": "image/jpeg",
          "downloadUrl": "https://firebasestorage.googleapis.com/v0/b/onearmyworld.appspot.com/o/uploads%2Fv2_howtos%2FzqSMRG1EjVIAfdQX1tvQ%2Fhowto-bench-6-4.jpg?alt=media&token=8e1d199d-c21f-4218-a7ab-40df6aa475d8",
          "updated": "2019-10-08T14:49:37.698Z",
          "timeCreated": "2019-10-08T14:49:37.698Z",
          "fullPath": "uploads/v2_howtos/zqSMRG1EjVIAfdQX1tvQ/howto-bench-6-4.jpg",
          "size": 126815,
          "name": "howto-bench-6-4.jpg"
        }
      ],
      "title": "Cut grooves",
      "_animationKey": "uniqueyd7yjo",
      "text": "In this step we will create the grooves into which part A will be held within Part B. Find the exact position to cut by laying your parts as they should fit and use a straight line to find the spot. Rough dimensions have been shown. To begin, set the saw blade to a depth of 10mm. Take care on the first two outer cuts as you’d like to hold a tight tolerance. Follow these by making more cuts in between to remove as much material as possible. Finish by clamping the part down and working at it with a chisel."
    },
    {
      "title": "Test fit and refine",
      "images": [
        {
          "name": "howto-bench-7-1.jpg",
          "downloadUrl": "https://firebasestorage.googleapis.com/v0/b/onearmyworld.appspot.com/o/uploads%2Fv2_howtos%2FzqSMRG1EjVIAfdQX1tvQ%2Fhowto-bench-7-1.jpg?alt=media&token=96d8ce93-61e8-4661-8da8-8761387668f0",
          "fullPath": "uploads/v2_howtos/zqSMRG1EjVIAfdQX1tvQ/howto-bench-7-1.jpg",
          "updated": "2019-10-08T14:55:12.329Z",
          "contentType": "image/jpeg",
          "timeCreated": "2019-10-08T14:55:12.329Z",
          "size": 119811,
          "type": "image/jpeg"
        },
        {
          "name": "howto-bench-7-2.jpg",
          "fullPath": "uploads/v2_howtos/zqSMRG1EjVIAfdQX1tvQ/howto-bench-7-2.jpg",
          "contentType": "image/jpeg",
          "downloadUrl": "https://firebasestorage.googleapis.com/v0/b/onearmyworld.appspot.com/o/uploads%2Fv2_howtos%2FzqSMRG1EjVIAfdQX1tvQ%2Fhowto-bench-7-2.jpg?alt=media&token=f506d3ad-5162-43f9-b6d6-5600fb16ed34",
          "timeCreated": "2019-10-08T14:55:12.220Z",
          "size": 125824,
          "updated": "2019-10-08T14:55:12.220Z",
          "type": "image/jpeg"
        }
      ],
      "_animationKey": "unique9td09n",
      "text": "Due to the nature of this recycling process, you cannot count on every part being exactly the same. So now is the opportunity to test fit and refine the grooves for that perfect, solid fit. Ideally partA should fit snug within part B, tight enough to hold itself.\n\nTip: Use a heat gun to smooth and finish your plastic once your grooves fit well."
    },
    {
      "text": "In this step we are going to be drilling the 6.5mm holes that will house the 6mm threaded rod. Begin by marking the midpoint and ‘true’ angle of Part A through part B. Follow this line around the corner to find the centre point and mark it. The lines on the side can be used to position the piece under the drill bit with a vice clamp. \n\nTake care to align drill and marker lines as closely as possible and drill through. We can then use this hole to mark the point on Part A for drilling. As before, position the piece under the drill press, align the bit with the edge of the part and drill.",
      "title": "Drill thread rod holes",
      "_animationKey": "uniquezuki1m",
      "images": [
        {
          "fullPath": "uploads/v2_howtos/zqSMRG1EjVIAfdQX1tvQ/howto-bench-8-2.jpg",
          "contentType": "image/jpeg",
          "type": "image/jpeg",
          "size": 138352,
          "updated": "2019-10-08T14:55:20.962Z",
          "timeCreated": "2019-10-08T14:55:20.962Z",
          "name": "howto-bench-8-2.jpg",
          "downloadUrl": "https://firebasestorage.googleapis.com/v0/b/onearmyworld.appspot.com/o/uploads%2Fv2_howtos%2FzqSMRG1EjVIAfdQX1tvQ%2Fhowto-bench-8-2.jpg?alt=media&token=c1fc2452-9ef8-4d11-8af0-715d521d4c5c"
        },
        {
          "type": "image/jpeg",
          "size": 167306,
          "downloadUrl": "https://firebasestorage.googleapis.com/v0/b/onearmyworld.appspot.com/o/uploads%2Fv2_howtos%2FzqSMRG1EjVIAfdQX1tvQ%2Fhowto-bench-8-1.jpg?alt=media&token=2de28209-0de0-4ecb-95f9-a752bc6b4bfa",
          "updated": "2019-10-08T14:55:21.146Z",
          "fullPath": "uploads/v2_howtos/zqSMRG1EjVIAfdQX1tvQ/howto-bench-8-1.jpg",
          "timeCreated": "2019-10-08T14:55:21.146Z",
          "name": "howto-bench-8-1.jpg",
          "contentType": "image/jpeg"
        },
        {
          "name": "howto-bench-8-3.jpg",
          "updated": "2019-10-08T14:55:21.051Z",
          "downloadUrl": "https://firebasestorage.googleapis.com/v0/b/onearmyworld.appspot.com/o/uploads%2Fv2_howtos%2FzqSMRG1EjVIAfdQX1tvQ%2Fhowto-bench-8-3.jpg?alt=media&token=30424799-e16e-4139-b6ea-09bae203162c",
          "type": "image/jpeg",
          "contentType": "image/jpeg",
          "size": 153316,
          "timeCreated": "2019-10-08T14:55:21.051Z",
          "fullPath": "uploads/v2_howtos/zqSMRG1EjVIAfdQX1tvQ/howto-bench-8-3.jpg"
        }
      ]
    },
    {
      "images": [
        {
          "updated": "2019-10-08T14:55:22.517Z",
          "name": "howto-bench-9-2.jpg",
          "size": 105291,
          "contentType": "image/jpeg",
          "fullPath": "uploads/v2_howtos/zqSMRG1EjVIAfdQX1tvQ/howto-bench-9-2.jpg",
          "downloadUrl": "https://firebasestorage.googleapis.com/v0/b/onearmyworld.appspot.com/o/uploads%2Fv2_howtos%2FzqSMRG1EjVIAfdQX1tvQ%2Fhowto-bench-9-2.jpg?alt=media&token=e06832d8-db1b-4863-adfe-8e9f565590c2",
          "timeCreated": "2019-10-08T14:55:22.517Z",
          "type": "image/jpeg"
        },
        {
          "type": "image/jpeg",
          "timeCreated": "2019-10-08T14:55:23.373Z",
          "name": "howto-bench-9-1.jpg",
          "contentType": "image/jpeg",
          "fullPath": "uploads/v2_howtos/zqSMRG1EjVIAfdQX1tvQ/howto-bench-9-1.jpg",
          "downloadUrl": "https://firebasestorage.googleapis.com/v0/b/onearmyworld.appspot.com/o/uploads%2Fv2_howtos%2FzqSMRG1EjVIAfdQX1tvQ%2Fhowto-bench-9-1.jpg?alt=media&token=7e4076d1-1c15-4c6a-95a0-59e60da82e03",
          "updated": "2019-10-08T14:55:23.373Z",
          "size": 141173
        },
        {
          "type": "image/jpeg",
          "updated": "2019-10-08T14:55:22.507Z",
          "downloadUrl": "https://firebasestorage.googleapis.com/v0/b/onearmyworld.appspot.com/o/uploads%2Fv2_howtos%2FzqSMRG1EjVIAfdQX1tvQ%2Fhowto-bench-9-3.jpg?alt=media&token=3fb920fa-73a4-4438-967f-f84f284e41e3",
          "timeCreated": "2019-10-08T14:55:22.507Z",
          "size": 140866,
          "name": "howto-bench-9-3.jpg",
          "contentType": "image/jpeg",
          "fullPath": "uploads/v2_howtos/zqSMRG1EjVIAfdQX1tvQ/howto-bench-9-3.jpg"
        }
      ],
      "_animationKey": "uniquer83lmv",
      "title": "Drill barrel nut holes",
      "text": "Insert the threaded rod into the hole you have made and take note of how deep the rod goes. Use this measurement to define where you want the barrel nut to anchor the rod. Place your part under the drill and make a 10mm hole for your 10mm barrel nut. Do not drill this hole all the way through. A smaller hole can be made through the beam that you can use to remove the barrel nut in future."
    },
    {
      "_animationKey": "uniqueqg3q2b",
      "text": "With all the holes drilled, insert the barrel nuts, align and screw the thread. From this we can cut the rod to the exact length for that clean finish. Then it’s just a matter of sliding the parts together, adding a washer and tightening the nuts! \n\nWe’ve used ‘tamper-proof’ nuts in this case to prevent any fiddling with the fit in the future.",
      "images": [
        {
          "size": 148906,
          "fullPath": "uploads/v2_howtos/zqSMRG1EjVIAfdQX1tvQ/howto-bench-10-1.jpg",
          "downloadUrl": "https://firebasestorage.googleapis.com/v0/b/onearmyworld.appspot.com/o/uploads%2Fv2_howtos%2FzqSMRG1EjVIAfdQX1tvQ%2Fhowto-bench-10-1.jpg?alt=media&token=1a2e1aa4-b82f-4c85-9b74-dbf37b07550d",
          "updated": "2019-10-08T14:55:25.236Z",
          "type": "image/jpeg",
          "timeCreated": "2019-10-08T14:55:25.236Z",
          "name": "howto-bench-10-1.jpg",
          "contentType": "image/jpeg"
        },
        {
          "name": "howto-bench-10-2.jpg",
          "updated": "2019-10-08T14:55:25.020Z",
          "timeCreated": "2019-10-08T14:55:25.020Z",
          "downloadUrl": "https://firebasestorage.googleapis.com/v0/b/onearmyworld.appspot.com/o/uploads%2Fv2_howtos%2FzqSMRG1EjVIAfdQX1tvQ%2Fhowto-bench-10-2.jpg?alt=media&token=0761aa4e-2d53-4676-a193-d7d315ba440a",
          "type": "image/jpeg",
          "fullPath": "uploads/v2_howtos/zqSMRG1EjVIAfdQX1tvQ/howto-bench-10-2.jpg",
          "size": 137804,
          "contentType": "image/jpeg"
        }
      ],
      "title": "Cut thread and assemble"
    },
    {
      "images": [
        {
          "fullPath": "uploads/v2_howtos/zqSMRG1EjVIAfdQX1tvQ/howto-bench-11-2.jpg",
          "size": 79025,
          "name": "howto-bench-11-2.jpg",
          "timeCreated": "2019-10-08T14:55:27.106Z",
          "updated": "2019-10-08T14:55:27.106Z",
          "type": "image/jpeg",
          "contentType": "image/jpeg",
          "downloadUrl": "https://firebasestorage.googleapis.com/v0/b/onearmyworld.appspot.com/o/uploads%2Fv2_howtos%2FzqSMRG1EjVIAfdQX1tvQ%2Fhowto-bench-11-2.jpg?alt=media&token=5b374c2f-f3a3-463f-b494-dc8e83034f9a"
        },
        {
          "updated": "2019-10-08T14:55:27.106Z",
          "contentType": "image/jpeg",
          "size": 135172,
          "name": "howto-bench-11-1.jpg",
          "fullPath": "uploads/v2_howtos/zqSMRG1EjVIAfdQX1tvQ/howto-bench-11-1.jpg",
          "downloadUrl": "https://firebasestorage.googleapis.com/v0/b/onearmyworld.appspot.com/o/uploads%2Fv2_howtos%2FzqSMRG1EjVIAfdQX1tvQ%2Fhowto-bench-11-1.jpg?alt=media&token=a2b8a7de-dc75-436e-9fe9-edbe45e3b391",
          "timeCreated": "2019-10-08T14:55:27.106Z",
          "type": "image/jpeg"
        }
      ],
      "text": "With your parts done, you can now continue with your wooden planks (or other material) for the seating. In this case we’ve gone with pine cut into 8x strips of 28x60x1500. This has then been drilled, sanded and oiled for the finish. These planks will be mounted to the plastic bench via wood screws.",
      "title": "Prepare the wood",
      "_animationKey": "uniqueohd8yo"
    },
    {
      "images": [
        {
          "updated": "2019-10-08T14:55:29.578Z",
          "timeCreated": "2019-10-08T14:55:29.578Z",
          "downloadUrl": "https://firebasestorage.googleapis.com/v0/b/onearmyworld.appspot.com/o/uploads%2Fv2_howtos%2FzqSMRG1EjVIAfdQX1tvQ%2Fhowto-bench-12-2-.jpg?alt=media&token=f433a646-e962-49fa-b6eb-5609eb0412af",
          "size": 82036,
          "type": "image/jpeg",
          "name": "howto-bench-12-2-.jpg",
          "contentType": "image/jpeg",
          "fullPath": "uploads/v2_howtos/zqSMRG1EjVIAfdQX1tvQ/howto-bench-12-2-.jpg"
        },
        {
          "timeCreated": "2019-10-08T14:55:29.679Z",
          "contentType": "image/jpeg",
          "fullPath": "uploads/v2_howtos/zqSMRG1EjVIAfdQX1tvQ/howto-bench-12-3.jpg",
          "downloadUrl": "https://firebasestorage.googleapis.com/v0/b/onearmyworld.appspot.com/o/uploads%2Fv2_howtos%2FzqSMRG1EjVIAfdQX1tvQ%2Fhowto-bench-12-3.jpg?alt=media&token=6d359861-3396-41d0-9a46-2ec25a6c2ced",
          "type": "image/jpeg",
          "updated": "2019-10-08T14:55:29.679Z",
          "size": 150115,
          "name": "howto-bench-12-3.jpg"
        }
      ],
      "title": "Time to assemble",
      "_animationKey": "uniquewfcj29",
      "text": "With the wood prepared, you can begin assembling the bench together. Use some wood to create an equal spacing between all the planks and fasten them to the plastic with screws. We have used 4x70mm wood screws.\n\n"
    },
    {
      "_animationKey": "uniqueq1if8",
      "images": [
        {
          "name": "howto-bench-13.jpg",
          "timeCreated": "2019-10-08T14:55:31.034Z",
          "updated": "2019-10-08T14:55:31.034Z",
          "fullPath": "uploads/v2_howtos/zqSMRG1EjVIAfdQX1tvQ/howto-bench-13.jpg",
          "contentType": "image/jpeg",
          "size": 133357,
          "downloadUrl": "https://firebasestorage.googleapis.com/v0/b/onearmyworld.appspot.com/o/uploads%2Fv2_howtos%2FzqSMRG1EjVIAfdQX1tvQ%2Fhowto-bench-13.jpg?alt=media&token=5212a2d0-2963-4b44-a7ca-a2dfa0b6b08e",
          "type": "image/jpeg"
        }
      ],
      "text": "Depending on the material you have used, you may need to reinforce the seat. In this case a short section of a 25x25mm plastic beam has been fastened to the middle of the seat. However, wood will work just fine or perhaps another material.\n",
      "title": "Add the reinforcement"
    },
    {
      "_animationKey": "uniqueaqa2q",
      "text": "Congratulations! Your bench is complete. You can now sit back and enjoy or possibly disassemble and pack it for a lucky customer :)",
      "title": "Take a seat!",
      "images": [
        {
          "timeCreated": "2019-10-08T14:55:32.298Z",
          "downloadUrl": "https://firebasestorage.googleapis.com/v0/b/onearmyworld.appspot.com/o/uploads%2Fv2_howtos%2FzqSMRG1EjVIAfdQX1tvQ%2Fhowto-bench-14.jpg?alt=media&token=1a908bc9-e035-425f-a034-5b3529c04c0e",
          "updated": "2019-10-08T14:55:32.298Z",
          "fullPath": "uploads/v2_howtos/zqSMRG1EjVIAfdQX1tvQ/howto-bench-14.jpg",
          "size": 106424,
          "type": "image/jpeg",
          "contentType": "image/jpeg",
          "name": "howto-bench-14.jpg"
        }
      ]
    },
    {
      "title": "Go all in with plastic!",
      "images": [
        {
          "updated": "2019-11-20T22:44:02.302Z",
          "size": 142146,
          "fullPath": "uploads/v2_howtos/zqSMRG1EjVIAfdQX1tvQ/TP Concrete Side Angle-howto.jpg",
          "contentType": "image/jpeg",
          "type": "image/jpeg",
          "downloadUrl": "https://firebasestorage.googleapis.com/v0/b/onearmyworld.appspot.com/o/uploads%2Fv2_howtos%2FzqSMRG1EjVIAfdQX1tvQ%2FTP%20Concrete%20Side%20Angle-howto.jpg?alt=media&token=a4c7fd2c-53a9-4850-a239-8d305dc432b0",
          "name": "TP Concrete Side Angle-howto.jpg",
          "timeCreated": "2019-11-20T22:44:02.302Z"
        },
        {
          "size": 129102,
          "timeCreated": "2019-11-20T22:44:02.470Z",
          "contentType": "image/jpeg",
          "downloadUrl": "https://firebasestorage.googleapis.com/v0/b/onearmyworld.appspot.com/o/uploads%2Fv2_howtos%2FzqSMRG1EjVIAfdQX1tvQ%2FTP%20Concrete%20Close%20Up%20Stamp-howto.jpg?alt=media&token=985973c5-7b33-4a7a-99eb-81770dcc0888",
          "fullPath": "uploads/v2_howtos/zqSMRG1EjVIAfdQX1tvQ/TP Concrete Close Up Stamp-howto.jpg",
          "updated": "2019-11-20T22:44:02.470Z",
          "name": "TP Concrete Close Up Stamp-howto.jpg",
          "type": "image/jpeg"
        }
      ],
      "_animationKey": "uniqueksfrb",
      "text": "You can also make this bench entirely with plastic beams and play around with colours and textures. Note that the plastic is softer than wood and may need extra support.\n\nAnd don't forget to stamp your plastic parts, so it's clear which plastic type is used here :)\n"
    }
  ],
  "moderation": "accepted",
  "_createdBy": "precious-plastic",
  "tags": [
    "extrusion",
    "product",
    "PP",
    "HDPE"
  ],
  "_modified": "2021-03-03T22:25:35.730Z",
  "id": "zqSMRG1EjVIAfdQX1tvQ",
  "cover_image": {
    "updated": "2019-11-20T22:36:31.651Z",
    "name": "TO Front On Big Angle-howto.jpg",
    "downloadUrl": "https://firebasestorage.googleapis.com/v0/b/onearmyworld.appspot.com/o/uploads%2Fv2_howtos%2FzqSMRG1EjVIAfdQX1tvQ%2FTO%20Front%20On%20Big%20Angle-howto.jpg?alt=media&token=985c3b08-e531-4f7c-93dc-1972997cb903",
    "fullPath": "uploads/v2_howtos/zqSMRG1EjVIAfdQX1tvQ/TO Front On Big Angle-howto.jpg",
    "timeCreated": "2019-11-20T22:36:31.651Z",
    "type": "image/jpeg",
    "contentType": "image/jpeg",
    "size": 74676
  },
  "time": "< 1 week",
  "creatorCountry": "fr",
  "slug": "make-a-bench-with-beams",
  "files": [],
  "_created": "2019-05-10T19:05:36.310Z",
  "title": "Make a bench with beams",
  "difficulty_level": "Medium",
  "_id": "zqSMRG1EjVIAfdQX1tvQ"
}