{
  "files": [],
  "_created": "2020-02-11T09:30:46.793Z",
  "tags": [],
  "title": "How To To Do",
  "_deleted": false,
  "difficulty_level": "Easy",
  "slug": "how-to-to-do",
  "steps": [
    {
      "text": "1",
      "caption": "",
      "title": "1",
      "images": [
        {
          "size": 100335,
          "updated": "2020-02-11T09:30:27.799Z",
          "fullPath": "uploads/v3_howtos/C4xmI1XQGSjn26bU4J1a/x.jpg",
          "contentType": "image/jpeg",
          "timeCreated": "2020-02-11T09:30:27.799Z",
          "downloadUrl": "https://firebasestorage.googleapis.com/v0/b/onearmyworld.appspot.com/o/uploads%2Fv3_howtos%2FC4xmI1XQGSjn26bU4J1a%2Fx.jpg?alt=media&token=a55e1c75-b61c-4937-9b5e-7690eff24cde",
          "name": "x.jpg",
          "type": "image/jpeg"
        }
      ],
      "_animationKey": "unique1"
    }
  ],
  "description": "1",
  "time": "< 1 week",
  "moderation": "draft",
  "cover_image": {
    "name": "v.jpg",
    "downloadUrl": "https://firebasestorage.googleapis.com/v0/b/onearmyworld.appspot.com/o/uploads%2Fv3_howtos%2FC4xmI1XQGSjn26bU4J1a%2Fv.jpg?alt=media&token=1593d515-61b9-4979-9199-618b6255402d",
    "contentType": "image/jpeg",
    "fullPath": "uploads/v3_howtos/C4xmI1XQGSjn26bU4J1a/v.jpg",
    "updated": "2020-02-11T09:30:25.085Z",
    "size": 134203,
    "timeCreated": "2020-02-11T09:30:25.085Z",
    "type": "image/jpeg"
  },
  "_modified": "2020-03-10T22:24:09.270Z",
  "_createdBy": "precious-plastic-vienna",
  "_id": "C4xmI1XQGSjn26bU4J1a"
}