{
    "product_name":"Shredder v3.1 with Hopper",
    "slug": "shredder_v31",
    "category": "component",
    "tags" : "extrusion, shredder, v3",
    "price" : "250 Euro",
    "product_cad": "https://gitlab.com/plastichub/products/tree/master/products/components/shredder_v31/cad",
    "product_drawings" : "https://gitlab.com/plastichub/products/tree/master/products/components/shredder_v31/drawings",
    "product_github" : "https://gitlab.com/plastichub/products/tree/master/products/components/shredder_v31",
    "product_3d" : "https://a360.co/2Ne4dPA",
    "product_wiki" : "https://library.plastic-hub.com/machines/shredder_v31.html",
    "product_overview": "https://precious-plastic.org/products/products/components/shredder_v31/drawings/overview.jpg",
    "product_howtos": "https://precious-plastic.org/howto/#zoe",
    "product_assembly" : "https://precious-plastic.org/howto/zoe/assembly/base/index.html",
    "product_preview": "https://precious-plastic.org/products/products/components/shredder_v31/media/preview.jpg",
    "product_perspective": "${abs_url}/${product_rel}/renderings/perspective.jpg",
    "product_dimensions": "${abs_url}/${product_rel}/drawings/dimensions.JPG",
    "product_parts": "${abs_url}/${product_rel}/drawings/parts.JPG",
    "parts":"parts.csv" ,
    "part_of": "${abs_url}/${product_rel}/drawings/component.svg",
    "part_of_title": "Part of Zoe",
    "part_of_link": "${abs_url}/products/zoe.html",
    "download" : "${site}/archives/${slug}.zip",
    "keywords" : "shredder, auto reverse, auto-reverse, shredding",
    "product_page" : "${abs_url}/products/${slug}.html",
    "Preview3d": true,
    "license": "CERN OHL v2 - https://ohwr.org/cern_ohl_p_v2.txt",
    "authors": [
        {
            "name": "PlasticHub S.L.",
            "url": "${author_link}"
        },
        {
            "name": "PrecisousPlastic - Eindhoven",
            "url": "${author_link_pp}"
        },
        {
            "name": "Dan Shirley - Timberstar",
            "url": "https://www.facebook.com/dan.shirley.33"
        }
    ]
}