Part Nr.,Description,Configuration
,,
1,Hopper,Stainless - 2mm with Polycarbonate window
2,Bearing Mount Blocks,
3,Drive shaft,30 mm shaft - 32 mm hexbar
4,UFCL205 Bearing,
5,Shields,Stainless - 2mm with Polycarbonate window
6,Sieve,5mm hole size
7,Mount blocks, For MRV90 Gearbox
8,Staionary knifes, Stainless
9,Mobile knifes, Stainless - optimized and sharpened

